<?xml version="1.0" encoding="UTF-8"?>
<!DOCTYPE svg PUBLIC "-//W3C//DTD SVG 1.1 Tiny//EN" "http://www.w3.org/Graphics/SVG/1.1/DTD/svg11-tiny.dtd">
<svg version="1.1" width="2048" height="2048" viewBox="0 0 2048 2048" xmlns="http://www.w3.org/2000/svg">
<g fill="black">
<path d="M866.000000,1098.000000 C860.344525,1098.000000 864.164257,1108.775022 862.000000,1114.000000 840.532601,1165.826886 817.467399,1452.173114 796.000000,1504.000000 788.990021,1520.923586 783.682043,1536.000000 802.000000,1536.000000 876.666667,1536.000000 951.333333,1536.000000 1026.000000,1536.000000 1034.000000,1536.000000 1029.061467,1552.608964 1026.000000,1560.000000 1005.373513,1609.796743 984.626487,1886.203257 964.000000,1936.000000 962.951326,1938.531724 958.951326,1968.531724 960.000000,1966.000000 993.655850,1884.747591 1216.344150,1533.252409 1250.000000,1452.000000 1251.569409,1448.211111 1256.101064,1446.000000 1252.000000,1446.000000 1174.666667,1446.000000 1097.333333,1446.000000 1020.000000,1446.000000 1011.885943,1446.000000 1020.894885,1439.496411 1024.000000,1432.000000 1045.605624,1379.839409 1188.394376,1154.160591 1210.000000,1102.000000 1211.167815,1099.180646 1213.051646,1098.000000 1210.000000,1098.000000 1095.333333,1098.000000 980.666667,1098.000000 866.000000,1098.000000 Z M1382.000000,648.000000 C1304.516387,460.938009 1089.610325,372.289259 902.000000,450.000000 815.766844,485.718943 739.718943,561.766844 704.000000,648.000000 699.574419,658.684297 686.425581,711.315703 682.000000,722.000000 675.621578,737.398872 687.398872,758.378422 672.000000,752.000000 659.616694,746.870667 606.383306,711.129333 594.000000,706.000000 518.766980,674.837463 425.233020,662.837463 350.000000,694.000000 325.735578,704.050653 302.264422,715.949347 278.000000,726.000000 238.377639,742.412119 168.412119,812.377639 152.000000,852.000000 141.949347,876.264422 130.050653,899.735578 120.000000,924.000000 100.091031,972.064502 100.091031,1087.935498 120.000000,1136.000000 130.050653,1160.264422 141.949347,1183.735578 152.000000,1208.000000 168.412119,1247.622361 238.377639,1317.587881 278.000000,1334.000000 302.264422,1344.050653 325.735578,1355.949347 350.000000,1366.000000 409.255809,1390.544560 651.861975,1382.000000 716.000000,1382.000000 718.666667,1382.000000 718.626124,1375.316829 720.000000,1372.000000 737.320862,1330.183741 756.679138,1099.816259 774.000000,1058.000000 786.605521,1027.567581 825.060187,1000.000000 858.000000,1000.000000 977.333333,1000.000000 1096.666667,1000.000000 1216.000000,1000.000000 1265.468284,1000.000000 1324.930693,1072.297265 1306.000000,1118.000000 1291.788607,1152.309337 1202.211393,1301.690663 1188.000000,1336.000000 1186.288588,1340.131715 1177.527864,1348.000000 1182.000000,1348.000000 1223.675999,1348.000000 1267.496398,1348.051286 1306.000000,1364.000000 1310.808707,1365.991832 1322.795093,1382.000000 1328.000000,1382.000000 1438.666667,1382.000000 1549.333333,1382.000000 1660.000000,1382.000000 1735.163757,1382.000000 1821.236076,1319.442256 1850.000000,1250.000000 1897.377393,1135.620854 1846.300292,1005.687877 1736.000000,960.000000 1706.274317,947.687219 1635.725683,933.687219 1606.000000,946.000000 1595.359887,950.407279 1586.407279,956.640113 1582.000000,946.000000 1564.221935,903.079954 1478.920046,851.778065 1436.000000,834.000000 1426.894413,830.228342 1408.000000,833.855817 1408.000000,824.000000 1408.000000,764.696637 1404.694415,702.789163 1382.000000,648.000000 Z M1640.000000,264.000000 C1572.853454,236.186990 1489.146546,240.186990 1422.000000,268.000000 1384.154619,283.676070 1317.676070,344.154619 1302.000000,382.000000 1298.247051,391.060420 1286.939580,396.247051 1296.000000,400.000000 1347.857672,421.480151 1432.519849,522.142328 1454.000000,574.000000 1466.602111,604.424188 1477.397889,635.575812 1490.000000,666.000000 1494.135317,675.983539 1499.864683,730.016461 1504.000000,740.000000 1506.056862,744.965703 1501.034297,753.943138 1506.000000,756.000000 1514.789990,759.640933 1538.485783,778.000000 1548.000000,778.000000 1646.200000,778.000000 1743.197846,711.676687 1782.000000,618.000000 1839.870656,478.287878 1776.611913,320.586507 1640.000000,264.000000 Z M1428.000000,96.000000 C1424.221919,94.435068 1423.564932,90.221919 1422.000000,94.000000 1416.058328,108.344465 1381.941672,171.655535 1376.000000,186.000000 1369.820506,200.918619 1366.918619,220.179494 1352.000000,214.000000 1338.576232,208.439693 1257.423768,209.560307 1244.000000,204.000000 1239.054526,201.951518 1228.000000,203.333333 1228.000000,206.000000 1228.000000,228.117906 1229.535844,307.565720 1238.000000,328.000000 1244.292083,343.190433 1196.809567,349.707917 1212.000000,356.000000 1224.697510,361.259481 1249.059465,374.270652 1250.000000,372.000000 1268.224424,328.002348 1340.002348,250.224424 1384.000000,232.000000 1432.019709,212.109585 1541.980291,178.109585 1590.000000,198.000000 1599.801437,202.059888 1648.198563,213.940112 1658.000000,218.000000 1820.431862,285.281480 1896.152529,471.465239 1828.000000,636.000000 1809.131233,681.553234 1741.553234,767.131233 1696.000000,786.000000 1684.423527,790.795132 1631.576473,813.204868 1620.000000,818.000000 1615.358976,819.922375 1604.000000,816.976591 1604.000000,822.000000 1604.000000,827.111111 1624.159601,845.590745 1628.000000,844.000000 1635.265100,840.990697 1680.734900,851.009303 1688.000000,848.000000 1701.005351,842.613007 1702.994649,802.613007 1716.000000,808.000000 1736.745999,816.593274 1817.544692,818.000000 1840.000000,818.000000 1842.666667,818.000000 1842.000000,818.666667 1842.000000,816.000000 1842.000000,793.544692 1840.593274,712.745999 1832.000000,692.000000 1828.104861,682.596304 1838.596304,679.895139 1848.000000,676.000000 1863.864011,669.428911 1934.135989,632.571089 1950.000000,626.000000 1952.350924,625.026215 1954.973785,624.350924 1954.000000,622.000000 1946.684996,604.340019 1885.315004,529.659981 1878.000000,512.000000 1876.409458,508.160091 1886.409458,501.839909 1888.000000,498.000000 1893.040513,485.831125 1932.959487,434.168875 1938.000000,422.000000 1942.567739,410.972502 1963.027498,400.567739 1952.000000,396.000000 1934.348393,388.688465 1855.651607,349.311535 1838.000000,342.000000 1825.022564,336.624570 1836.000000,314.046675 1836.000000,300.000000 1836.000000,287.716902 1842.000000,218.283098 1842.000000,206.000000 1842.000000,203.333333 1830.945474,201.951518 1826.000000,204.000000 1812.576232,209.560307 1731.423768,208.439693 1718.000000,214.000000 1703.081381,220.179494 1700.179494,200.918619 1694.000000,186.000000 1688.574995,172.902880 1657.425005,115.097120 1652.000000,102.000000 1650.091458,97.392373 1650.607627,90.091458 1646.000000,92.000000 1628.340019,99.315004 1553.659981,160.684996 1536.000000,168.000000 1532.734694,169.352534 1527.265306,161.352534 1524.000000,160.000000 1508.616511,153.627950 1443.383489,102.372050 1428.000000,96.000000 Z "/></g>
</svg>