<?xml version="1.0" encoding="UTF-8"?>
<!DOCTYPE svg PUBLIC "-//W3C//DTD SVG 1.1 Tiny//EN" "http://www.w3.org/Graphics/SVG/1.1/DTD/svg11-tiny.dtd">
<svg version="1.1" width="2048" height="2048" viewBox="0 0 2048 2048" xmlns="http://www.w3.org/2000/svg">
<g fill="black">
<path d="M456.000000,1882.000000 C437.405866,1874.298058 419.860611,1894.349778 428.000000,1914.000000 435.399112,1931.863037 464.665188,1936.000000 484.000000,1936.000000 511.711154,1936.000000 559.395400,1939.601768 570.000000,1914.000000 579.282060,1891.591124 560.408876,1874.717940 538.000000,1884.000000 512.739783,1894.463125 481.260217,1892.463125 456.000000,1882.000000 Z M430.000000,1778.000000 C408.329941,1769.023968 388.976032,1758.329941 380.000000,1780.000000 370.186471,1803.691956 394.308044,1810.186471 418.000000,1820.000000 460.842726,1837.746038 561.157274,1829.746038 604.000000,1812.000000 628.097089,1802.018659 622.097089,1775.981341 598.000000,1766.000000 591.878350,1763.464329 580.121650,1773.464329 574.000000,1776.000000 542.035628,1789.240076 461.964372,1791.240076 430.000000,1778.000000 Z M370.000000,1670.000000 C335.059741,1655.527271 317.059741,1697.527271 352.000000,1712.000000 410.842371,1736.373308 561.157629,1742.373308 620.000000,1718.000000 631.306782,1713.316577 647.316577,1711.306782 652.000000,1700.000000 661.372583,1677.372583 642.627417,1658.627417 620.000000,1668.000000 564.001963,1691.195146 425.998037,1693.195146 370.000000,1670.000000 Z M304.000000,1562.000000 C289.016168,1555.793494 278.206506,1559.016168 272.000000,1574.000000 262.884626,1596.006458 283.993542,1600.884626 306.000000,1610.000000 338.607329,1623.506398 456.706082,1636.000000 492.000000,1636.000000 521.509279,1636.000000 628.736981,1635.292712 656.000000,1624.000000 671.906940,1617.411130 709.411130,1613.906940 716.000000,1598.000000 732.888745,1557.226963 684.773037,1563.111255 644.000000,1580.000000 617.338509,1591.043551 510.858190,1590.000000 482.000000,1590.000000 447.796882,1590.000000 335.599561,1575.088967 304.000000,1562.000000 Z M272.000000,1442.000000 C261.145453,1415.794806 219.145453,1433.794806 230.000000,1460.000000 243.258998,1492.010052 287.989948,1498.741002 320.000000,1512.000000 336.582541,1518.868713 427.417459,1527.131287 444.000000,1534.000000 448.982420,1536.063786 481.017580,1533.936214 486.000000,1536.000000 507.809255,1545.033689 568.190745,1543.033689 590.000000,1534.000000 635.682810,1515.077560 753.077560,1521.682810 772.000000,1476.000000 779.810486,1457.143819 760.856181,1438.189514 742.000000,1446.000000 739.424538,1447.066791 728.575462,1456.933209 726.000000,1458.000000 627.186184,1498.930023 392.813816,1496.930023 294.000000,1456.000000 288.047556,1453.534417 274.465583,1447.952444 272.000000,1442.000000 Z M1800.000000,1386.000000 C1776.051244,1376.080100 1721.948756,1394.080100 1698.000000,1404.000000 1674.142207,1413.882221 1639.882221,1460.142207 1630.000000,1484.000000 1599.294084,1558.130640 1638.039250,1648.536027 1714.000000,1680.000000 1838.083376,1731.397017 1968.552440,1606.044387 1918.000000,1484.000000 1908.117779,1460.142207 1873.857793,1413.882221 1850.000000,1404.000000 1833.634607,1397.221232 1816.365393,1392.778768 1800.000000,1386.000000 Z M1354.000000,1404.000000 C1316.631386,1388.521413 1271.368614,1370.521413 1234.000000,1386.000000 1207.643487,1396.917225 1152.917225,1427.643487 1142.000000,1454.000000 1126.521413,1491.368614 1108.521413,1536.631386 1124.000000,1574.000000 1134.917225,1600.356513 1165.643487,1655.082775 1192.000000,1666.000000 1229.368614,1681.478587 1274.631386,1699.478587 1312.000000,1684.000000 1338.356513,1673.082775 1393.082775,1642.356513 1404.000000,1616.000000 1419.478587,1578.631386 1437.478587,1533.368614 1422.000000,1496.000000 1411.082775,1469.643487 1380.356513,1414.917225 1354.000000,1404.000000 Z M816.000000,1160.000000 C760.519179,1137.019092 546.052008,1136.000000 486.000000,1136.000000 394.258818,1136.000000 298.757800,1142.892170 214.000000,1178.000000 144.084391,1206.959994 115.040006,1260.084391 144.000000,1330.000000 164.561786,1379.640543 282.359457,1395.438214 332.000000,1416.000000 347.655230,1422.484609 432.344770,1431.515391 448.000000,1438.000000 472.869181,1448.301152 571.081792,1440.000000 598.000000,1440.000000 630.447217,1440.000000 744.022681,1434.417012 774.000000,1422.000000 790.695376,1415.084549 829.084549,1400.695376 836.000000,1384.000000 854.921975,1338.318310 837.681690,1302.921975 792.000000,1284.000000 750.074387,1266.633843 595.379956,1254.000000 550.000000,1254.000000 469.861231,1254.000000 386.038568,1257.332221 312.000000,1288.000000 280.527279,1301.036428 254.527279,1326.963572 286.000000,1340.000000 305.125470,1347.922029 342.874530,1325.922029 362.000000,1318.000000 429.977558,1289.842774 508.421622,1300.000000 582.000000,1300.000000 617.012984,1300.000000 735.652221,1310.601111 768.000000,1324.000000 866.335573,1364.731928 714.437657,1394.000000 608.000000,1394.000000 582.098095,1394.000000 485.930240,1403.912230 462.000000,1394.000000 442.497954,1385.921988 337.502046,1374.078012 318.000000,1366.000000 281.822569,1351.014818 196.985182,1340.177431 182.000000,1304.000000 165.314355,1263.717289 191.717289,1236.685645 232.000000,1220.000000 322.153897,1182.657033 424.418126,1180.000000 522.000000,1180.000000 556.579287,1180.000000 686.052905,1176.767080 718.000000,1190.000000 730.270223,1195.082493 797.729777,1200.917507 810.000000,1206.000000 843.610171,1219.921788 876.078212,1243.610171 890.000000,1210.000000 904.497484,1174.999978 851.000022,1174.497484 816.000000,1160.000000 Z M110.000000,1080.000000 C105.368421,1080.000000 113.739913,1119.764586 118.000000,1118.000000 127.771622,1113.952462 170.228378,1088.047538 180.000000,1084.000000 186.474449,1081.318195 199.007893,1080.000000 192.000000,1080.000000 164.666667,1080.000000 137.333333,1080.000000 110.000000,1080.000000 Z M1182.000000,558.000000 C1091.869360,520.666667 950.130640,520.666667 860.000000,558.000000 843.987097,564.632762 774.012903,605.367238 758.000000,612.000000 749.319937,615.595400 712.680063,654.404600 704.000000,658.000000 687.612125,664.788080 688.788080,705.612125 682.000000,722.000000 678.074312,731.477450 686.258318,756.000000 676.000000,756.000000 660.931724,756.000000 645.766379,722.078729 640.000000,736.000000 634.286043,749.794712 599.713957,810.205288 594.000000,824.000000 588.609030,837.014953 575.390970,902.985047 570.000000,916.000000 565.579365,926.672357 568.420635,993.327643 564.000000,1004.000000 556.865313,1021.224659 540.775341,1028.865313 558.000000,1036.000000 579.539249,1044.921849 716.460751,1037.078151 738.000000,1046.000000 750.038997,1050.986716 815.961003,1057.013284 828.000000,1062.000000 865.607029,1077.577341 952.422659,1100.392971 968.000000,1138.000000 976.963223,1159.639135 992.963223,1208.360865 984.000000,1230.000000 976.347851,1248.473921 958.473921,1288.347851 940.000000,1296.000000 930.621589,1299.884665 936.115335,1308.621589 940.000000,1318.000000 943.084153,1325.445805 942.000000,1355.940719 942.000000,1364.000000 942.000000,1371.543485 934.456515,1382.000000 942.000000,1382.000000 985.333333,1382.000000 1028.666667,1382.000000 1072.000000,1382.000000 1074.828427,1382.000000 1076.000000,1378.000000 1078.000000,1376.000000 1123.560704,1330.439296 1183.567434,1284.000000 1248.000000,1284.000000 1288.447497,1284.000000 1330.631386,1286.521413 1368.000000,1302.000000 1405.817669,1317.664592 1437.055609,1347.055609 1466.000000,1376.000000 1483.668970,1393.668970 1549.012302,1382.000000 1574.000000,1382.000000 1584.450487,1382.000000 1608.345009,1343.999228 1618.000000,1340.000000 1626.913486,1336.307913 1665.086514,1309.692087 1674.000000,1306.000000 1700.783344,1294.905976 1763.216656,1276.905976 1790.000000,1288.000000 1821.714298,1301.136492 1836.863508,1281.714298 1850.000000,1250.000000 1869.914252,1201.922744 1875.914252,1142.077256 1856.000000,1094.000000 1854.057047,1089.309295 1855.077182,1080.000000 1850.000000,1080.000000 1822.928079,1080.000000 1795.011193,1076.359976 1770.000000,1066.000000 1761.099814,1062.313422 1733.633491,1080.000000 1724.000000,1080.000000 1690.754266,1080.000000 1564.715053,1084.722591 1534.000000,1072.000000 1506.871552,1060.763029 1489.236971,1031.128448 1478.000000,1004.000000 1466.034206,975.112019 1476.109904,862.109904 1454.000000,840.000000 1444.859249,830.859249 1408.000000,836.926973 1408.000000,824.000000 1408.000000,808.860291 1411.793716,753.987267 1406.000000,740.000000 1378.514266,673.643568 1248.356432,585.485734 1182.000000,558.000000 Z M1296.000000,342.000000 C1126.622086,271.841371 915.377914,271.841371 746.000000,342.000000 727.081197,349.836425 644.918803,400.163575 626.000000,408.000000 613.447365,413.199472 560.552635,466.800528 548.000000,472.000000 531.169335,478.971490 498.971490,513.169335 492.000000,530.000000 487.998730,539.659920 448.001270,580.340080 444.000000,590.000000 437.315925,606.136784 392.684075,675.863216 386.000000,692.000000 376.763944,714.297812 345.236056,821.702188 336.000000,844.000000 329.774781,859.029008 328.225219,946.970992 322.000000,962.000000 319.813265,967.279246 321.333333,984.000000 324.000000,984.000000 372.000000,984.000000 420.000000,984.000000 468.000000,984.000000 470.666667,984.000000 470.000000,984.666667 470.000000,982.000000 470.000000,915.573767 480.579781,847.369837 506.000000,786.000000 511.279338,773.254550 540.720662,716.745450 546.000000,704.000000 551.065472,691.770869 596.934528,640.229131 602.000000,628.000000 607.337041,615.115243 631.115243,589.337041 644.000000,584.000000 650.410306,581.344765 677.589694,550.655235 684.000000,548.000000 695.207373,543.357754 742.792627,506.642246 754.000000,502.000000 769.591113,495.541949 840.408887,464.458051 856.000000,458.000000 919.257081,431.798059 991.531029,434.000000 1060.000000,434.000000 1139.947205,434.000000 1216.138414,471.405529 1290.000000,502.000000 1301.207373,506.642246 1348.792627,543.357754 1360.000000,548.000000 1366.410306,550.655235 1393.589694,581.344765 1400.000000,584.000000 1412.884757,589.337041 1436.662959,615.115243 1442.000000,628.000000 1446.401154,638.625325 1487.598846,683.374675 1492.000000,694.000000 1497.941672,708.344465 1532.058328,771.655535 1538.000000,786.000000 1563.420219,847.369837 1574.000000,915.573767 1574.000000,982.000000 1574.000000,984.666667 1573.333333,984.000000 1576.000000,984.000000 1623.333333,984.000000 1670.666667,984.000000 1718.000000,984.000000 1720.666667,984.000000 1722.186735,967.279246 1720.000000,962.000000 1713.774781,946.970992 1712.225219,859.029008 1706.000000,844.000000 1696.763944,821.702188 1665.236056,714.297812 1656.000000,692.000000 1648.376017,673.594076 1595.623983,594.405924 1588.000000,576.000000 1583.737229,565.708760 1538.262771,522.291240 1534.000000,512.000000 1527.028510,495.169335 1492.830665,462.971490 1476.000000,456.000000 1461.834957,450.132647 1402.165043,395.867353 1388.000000,390.000000 1373.581455,384.027643 1310.418545,347.972357 1296.000000,342.000000 Z M1282.000000,74.000000 C1231.061107,52.900420 1045.135860,40.000000 990.000000,40.000000 870.471296,40.000000 750.430123,72.258345 640.000000,118.000000 541.774809,158.686206 449.178307,218.821693 374.000000,294.000000 343.861654,324.138346 240.310755,434.622353 224.000000,474.000000 214.007902,498.123058 153.992098,603.876942 144.000000,628.000000 97.968982,739.128708 74.000000,861.715153 74.000000,982.000000 74.000000,984.666667 73.333333,984.000000 76.000000,984.000000 124.666667,984.000000 173.333333,984.000000 222.000000,984.000000 224.666667,984.000000 224.000000,984.666667 224.000000,982.000000 224.000000,873.741051 248.571094,764.018227 290.000000,664.000000 394.054591,412.789995 702.092250,188.000000 974.000000,188.000000 1068.680750,188.000000 1168.526393,185.767246 1256.000000,222.000000 1268.859745,227.326681 1329.140255,248.673319 1342.000000,254.000000 1527.992449,331.040595 1684.959405,502.007551 1762.000000,688.000000 1799.379402,778.241858 1818.000000,876.000000 1818.000000,982.000000 1818.000000,984.666667 1817.333333,984.000000 1820.000000,984.000000 1869.333333,984.000000 1918.666667,984.000000 1968.000000,984.000000 1970.666667,984.000000 1970.000000,984.666667 1970.000000,982.000000 1970.000000,929.157772 1948.221845,754.819853 1928.000000,706.000000 1905.921970,652.698921 1884.078030,599.301079 1862.000000,546.000000 1843.344904,500.962613 1748.470124,372.470124 1714.000000,338.000000 1629.988096,253.988096 1535.766842,173.466915 1426.000000,128.000000 1404.441747,119.070279 1303.558253,82.929721 1282.000000,74.000000 Z "/></g>
</svg>