<?xml version="1.0" encoding="UTF-8"?>
<!DOCTYPE svg PUBLIC "-//W3C//DTD SVG 1.1 Tiny//EN" "http://www.w3.org/Graphics/SVG/1.1/DTD/svg11-tiny.dtd">
<svg version="1.1" width="2048" height="2048" viewBox="0 0 2048 2048" xmlns="http://www.w3.org/2000/svg">
<g fill="black">
<path d="M866.000000,1098.000000 C860.344525,1098.000000 864.164257,1108.775022 862.000000,1114.000000 840.532601,1165.826886 817.467399,1452.173114 796.000000,1504.000000 788.990021,1520.923586 783.682043,1536.000000 802.000000,1536.000000 876.666667,1536.000000 951.333333,1536.000000 1026.000000,1536.000000 1034.000000,1536.000000 1029.061467,1552.608964 1026.000000,1560.000000 1005.373513,1609.796743 984.626487,1886.203257 964.000000,1936.000000 962.951326,1938.531724 958.951326,1968.531724 960.000000,1966.000000 993.655850,1884.747591 1216.344150,1533.252409 1250.000000,1452.000000 1251.569409,1448.211111 1256.101064,1446.000000 1252.000000,1446.000000 1174.666667,1446.000000 1097.333333,1446.000000 1020.000000,1446.000000 1011.885943,1446.000000 1020.894885,1439.496411 1024.000000,1432.000000 1045.605624,1379.839409 1188.394376,1154.160591 1210.000000,1102.000000 1211.167815,1099.180646 1213.051646,1098.000000 1210.000000,1098.000000 1095.333333,1098.000000 980.666667,1098.000000 866.000000,1098.000000 Z M1636.000000,944.000000 C1600.710166,858.802803 1500.385482,819.389535 1412.000000,856.000000 1367.037863,874.623927 1334.623927,921.037863 1316.000000,966.000000 1310.460046,979.374633 1319.374633,1007.539954 1306.000000,1002.000000 1297.349221,998.416730 1276.650779,1000.416730 1268.000000,1004.000000 1264.913441,1005.278495 1246.275555,1006.457284 1250.000000,1008.000000 1298.467079,1028.075721 1320.907828,1085.524039 1300.000000,1136.000000 1292.021697,1155.261326 1239.978303,1238.738674 1232.000000,1258.000000 1230.203627,1262.336829 1227.663171,1262.203627 1232.000000,1264.000000 1303.677828,1293.689928 1600.416479,1280.000000 1678.000000,1280.000000 1786.380952,1280.000000 1862.830890,1159.402915 1820.000000,1056.000000 1803.399398,1015.922602 1766.077398,982.600602 1726.000000,966.000000 1700.627398,955.490324 1671.463107,958.000000 1644.000000,958.000000 1638.429212,958.000000 1638.131848,949.146737 1636.000000,944.000000 Z M644.000000,854.000000 C557.156367,818.028189 489.971811,849.156367 454.000000,936.000000 452.327763,940.037138 450.266667,976.000000 448.000000,976.000000 444.398041,976.000000 435.327776,969.378410 432.000000,968.000000 370.220461,942.410077 269.589923,976.220461 244.000000,1038.000000 237.935812,1052.640244 232.064188,1067.359756 226.000000,1082.000000 214.437071,1109.915380 232.437071,1172.084620 244.000000,1200.000000 262.162749,1243.848756 324.538448,1278.000000 372.000000,1278.000000 492.000000,1278.000000 612.000000,1278.000000 732.000000,1278.000000 740.715274,1278.000000 734.664809,1260.051863 738.000000,1252.000000 748.812254,1225.896910 763.187746,1084.103090 774.000000,1058.000000 783.748209,1034.465742 806.465742,1015.748209 830.000000,1006.000000 835.973206,1003.525817 845.973206,1004.474183 840.000000,1002.000000 804.870973,987.449081 761.129027,983.449081 726.000000,998.000000 715.672469,1002.277803 703.722197,1012.327531 708.000000,1002.000000 728.568616,952.342967 693.657033,874.568616 644.000000,854.000000 Z "/></g>
</svg>