<?xml version="1.0" encoding="UTF-8"?>
<!DOCTYPE svg PUBLIC "-//W3C//DTD SVG 1.1 Tiny//EN" "http://www.w3.org/Graphics/SVG/1.1/DTD/svg11-tiny.dtd">
<svg version="1.1" width="2048" height="2048" viewBox="0 0 2048 2048" xmlns="http://www.w3.org/2000/svg">
<g fill="black">
<path d="M456.000000,1882.000000 C437.405866,1874.298058 419.860611,1894.349778 428.000000,1914.000000 435.106885,1931.157537 462.842463,1926.893115 480.000000,1934.000000 509.280488,1946.128375 559.871625,1939.280488 572.000000,1910.000000 575.502099,1901.545185 544.199601,1881.775187 534.000000,1886.000000 509.947567,1895.962844 480.052433,1891.962844 456.000000,1882.000000 Z M476.000000,1786.000000 C458.550160,1786.000000 408.121550,1761.322235 392.000000,1768.000000 358.798185,1781.752642 384.798185,1806.247358 418.000000,1820.000000 430.865137,1825.328914 476.074876,1832.000000 490.000000,1832.000000 492.666667,1832.000000 478.666667,1786.000000 476.000000,1786.000000 Z M370.000000,1670.000000 C335.059741,1655.527271 317.059741,1697.527271 352.000000,1712.000000 367.702788,1718.504308 456.297212,1723.495692 472.000000,1730.000000 486.807714,1736.133556 502.027754,1684.000000 486.000000,1684.000000 464.302156,1684.000000 390.046194,1678.303405 370.000000,1670.000000 Z M354.000000,1574.000000 C310.366543,1555.926430 253.926430,1548.366543 272.000000,1592.000000 278.435030,1607.535536 316.464464,1607.564970 332.000000,1614.000000 356.913101,1624.319344 447.034253,1634.000000 474.000000,1634.000000 476.666667,1634.000000 482.524096,1591.045515 480.000000,1590.000000 463.832322,1583.303129 370.167678,1580.696871 354.000000,1574.000000 Z M272.000000,1442.000000 C265.372583,1426.000000 238.627417,1426.000000 232.000000,1442.000000 217.554826,1476.873735 257.126265,1487.554826 292.000000,1502.000000 330.278822,1517.855607 464.567302,1538.000000 506.000000,1538.000000 513.372067,1538.000000 502.821168,1530.810901 500.000000,1524.000000 495.776975,1513.804715 490.223025,1504.195285 486.000000,1494.000000 481.956807,1484.238869 451.761131,1492.043193 442.000000,1488.000000 432.220768,1483.949309 377.779232,1480.050691 368.000000,1476.000000 344.087417,1466.095084 281.904916,1465.912583 272.000000,1442.000000 Z M1850.000000,1394.000000 C1845.457134,1383.032552 1850.542866,1375.032552 1846.000000,1386.000000 1825.974033,1434.346961 1780.025967,1681.653039 1760.000000,1730.000000 1739.216881,1780.174887 1762.504518,1837.498300 1812.000000,1858.000000 1883.169186,1887.479242 1966.076859,1813.783533 1938.000000,1746.000000 1917.508313,1696.528691 1870.491687,1443.471309 1850.000000,1394.000000 Z M478.000000,1270.000000 C482.178555,1259.912075 490.087925,1249.821445 480.000000,1254.000000 470.438690,1257.960424 413.561310,1258.039576 404.000000,1262.000000 388.813145,1268.290601 313.186855,1285.709399 298.000000,1292.000000 273.205356,1302.270278 261.205356,1329.729722 286.000000,1340.000000 300.045130,1345.817683 315.954870,1333.817683 330.000000,1328.000000 346.975460,1320.968534 437.024540,1309.031466 454.000000,1302.000000 459.024838,1299.918644 473.918644,1303.024838 476.000000,1298.000000 477.411311,1294.592793 476.588689,1273.407207 478.000000,1270.000000 Z M1336.000000,1168.000000 C1333.649436,1162.325237 1336.350564,1160.325237 1334.000000,1166.000000 1316.717457,1207.723749 1281.282543,1424.276251 1264.000000,1466.000000 1247.870071,1504.941093 1212.129929,1705.058907 1196.000000,1744.000000 1189.124526,1760.598863 1189.124526,1803.401137 1196.000000,1820.000000 1205.969678,1844.068933 1231.931067,1894.030322 1256.000000,1904.000000 1270.884372,1910.165309 1285.115628,1917.834691 1300.000000,1924.000000 1336.150866,1938.974179 1379.849134,1920.974179 1416.000000,1906.000000 1468.497896,1884.254660 1501.745340,1800.497896 1480.000000,1748.000000 1446.271026,1666.571053 1369.728974,1249.428947 1336.000000,1168.000000 Z M626.000000,1136.000000 C558.895270,1136.000000 317.996687,1136.320131 256.000000,1162.000000 224.735774,1174.950066 156.950066,1200.735774 144.000000,1232.000000 128.000000,1270.627417 128.000000,1291.372583 144.000000,1330.000000 160.542844,1369.937958 252.062042,1389.457156 292.000000,1406.000000 324.961138,1419.652950 438.323121,1440.000000 474.000000,1440.000000 479.845725,1440.000000 473.762938,1427.400746 476.000000,1422.000000 479.571712,1413.377124 484.622876,1397.571712 476.000000,1394.000000 467.802226,1390.604371 420.197774,1389.395629 412.000000,1386.000000 353.624928,1361.820254 206.179746,1362.375072 182.000000,1304.000000 161.473582,1254.444843 204.444843,1230.526418 254.000000,1210.000000 303.128466,1189.650323 488.823732,1180.000000 542.000000,1180.000000 552.153889,1180.000000 578.619030,1163.885725 588.000000,1160.000000 595.156429,1157.035710 615.035710,1163.156429 618.000000,1156.000000 622.795219,1144.423317 638.530511,1136.000000 626.000000,1136.000000 Z M110.000000,1080.000000 C105.368421,1080.000000 113.739913,1119.764586 118.000000,1118.000000 127.771622,1113.952462 170.228378,1088.047538 180.000000,1084.000000 186.474449,1081.318195 199.007893,1080.000000 192.000000,1080.000000 164.666667,1080.000000 137.333333,1080.000000 110.000000,1080.000000 Z M1568.000000,1074.000000 C1564.636557,1065.879929 1569.363443,1067.879929 1566.000000,1076.000000 1547.528533,1120.594065 1500.471467,1345.405935 1482.000000,1390.000000 1455.047122,1455.070004 1527.272277,1533.982673 1590.000000,1508.000000 1673.063542,1473.593954 1664.406046,1399.063542 1630.000000,1316.000000 1615.858878,1281.860311 1582.141122,1108.139689 1568.000000,1074.000000 Z M1770.000000,1066.000000 C1765.868285,1064.288588 1762.131715,1070.288588 1758.000000,1072.000000 1731.401111,1083.017621 1700.790431,1080.000000 1672.000000,1080.000000 1668.948354,1080.000000 1670.832185,1081.180646 1672.000000,1084.000000 1682.979854,1110.507712 1709.020146,1245.492288 1720.000000,1272.000000 1741.366184,1323.582531 1734.633816,1391.582531 1756.000000,1340.000000 1762.688730,1323.851976 1789.851976,1296.688730 1806.000000,1290.000000 1816.470635,1285.662921 1831.179562,1285.637567 1836.000000,1274.000000 1837.576647,1270.193638 1848.423353,1253.806362 1850.000000,1250.000000 1869.914252,1201.922744 1875.914252,1142.077256 1856.000000,1094.000000 1854.057047,1089.309295 1855.077182,1080.000000 1850.000000,1080.000000 1822.928079,1080.000000 1795.011193,1076.359976 1770.000000,1066.000000 Z M1068.000000,1052.000000 C1052.536027,1014.666667 995.463973,1014.666667 980.000000,1052.000000 975.876679,1061.954577 977.915022,1127.278509 970.000000,1124.000000 951.812110,1116.466329 936.187890,1103.533671 918.000000,1096.000000 879.784343,1080.170556 841.533537,1122.246442 858.000000,1162.000000 865.262541,1179.533325 900.466675,1198.737459 918.000000,1206.000000 924.695810,1208.773495 953.304190,1229.226505 960.000000,1232.000000 965.991954,1234.481949 976.000000,1237.514356 976.000000,1244.000000 976.000000,1311.333333 976.000000,1378.666667 976.000000,1446.000000 976.000000,1450.753774 972.391915,1449.819191 968.000000,1448.000000 941.068891,1436.844769 824.931109,1361.155231 798.000000,1350.000000 793.447715,1348.114382 790.000000,1344.666667 790.000000,1342.000000 790.000000,1293.149370 805.132097,1206.694327 760.000000,1188.000000 729.204734,1175.244183 706.755817,1195.204734 694.000000,1226.000000 685.280355,1247.051085 711.051085,1294.719645 690.000000,1286.000000 662.147079,1274.462942 631.852921,1246.462942 604.000000,1258.000000 566.018234,1273.732562 562.104659,1331.131663 598.000000,1346.000000 629.362266,1358.990676 659.362266,1369.009324 628.000000,1382.000000 591.179711,1397.251463 560.748537,1423.179711 576.000000,1460.000000 604.061275,1527.745910 664.254090,1464.061275 732.000000,1436.000000 736.131715,1434.288588 739.868285,1428.288588 744.000000,1430.000000 771.270302,1441.295729 888.729698,1518.704271 916.000000,1530.000000 923.243444,1533.000333 929.243444,1534.999667 922.000000,1538.000000 893.765204,1549.695235 772.234796,1630.304765 744.000000,1642.000000 741.779270,1642.919856 740.220730,1638.919856 738.000000,1638.000000 669.515562,1609.632817 606.367183,1539.515562 578.000000,1608.000000 559.694668,1652.192982 597.807018,1677.694668 642.000000,1696.000000 649.022565,1698.908842 631.022565,1707.091158 624.000000,1710.000000 610.170760,1715.728259 583.728259,1734.170760 578.000000,1748.000000 561.533537,1787.753558 599.784343,1829.829444 638.000000,1814.000000 645.554939,1810.870642 678.445061,1791.129358 686.000000,1788.000000 691.958288,1785.531996 696.000000,1779.550796 696.000000,1786.000000 696.000000,1798.091944 693.372613,1844.828500 698.000000,1856.000000 714.251762,1895.235224 772.044696,1896.519512 788.000000,1858.000000 796.611934,1837.208951 792.000000,1750.504069 792.000000,1728.000000 792.000000,1724.441145 796.712046,1723.361915 800.000000,1722.000000 826.931109,1710.844769 943.068891,1635.155231 970.000000,1624.000000 971.847759,1623.234633 976.000000,1618.666667 976.000000,1624.000000 976.000000,1692.000000 976.000000,1760.000000 976.000000,1828.000000 976.000000,1834.485644 965.991954,1837.518051 960.000000,1840.000000 951.713911,1843.432210 916.286089,1868.567790 908.000000,1872.000000 893.166197,1878.144362 864.144362,1895.166197 858.000000,1910.000000 841.533537,1949.753558 879.784343,1991.829444 918.000000,1976.000000 936.187890,1968.466329 951.812110,1955.533671 970.000000,1948.000000 977.915022,1944.721491 975.876679,2010.045423 980.000000,2020.000000 994.359403,2054.666667 1053.640597,2054.666667 1068.000000,2020.000000 1072.123321,2010.045423 1070.084978,1944.721491 1078.000000,1948.000000 1106.258567,1959.705082 1137.741433,1985.705082 1166.000000,1974.000000 1193.820350,1962.476434 1149.523566,1949.820350 1138.000000,1922.000000 1134.987446,1914.727051 1115.012554,1883.272949 1112.000000,1876.000000 1109.912947,1870.961408 1107.856371,1853.856371 1104.000000,1850.000000 1096.917445,1842.917445 1072.000000,1838.016245 1072.000000,1828.000000 1072.000000,1760.000000 1072.000000,1692.000000 1072.000000,1624.000000 1072.000000,1617.550796 1076.041712,1623.531996 1082.000000,1626.000000 1102.643004,1634.550612 1113.449388,1656.643004 1122.000000,1636.000000 1126.681124,1624.698766 1135.318876,1565.301234 1140.000000,1554.000000 1142.655554,1547.588925 1122.000000,1542.939298 1122.000000,1536.000000 1122.000000,1529.500429 1147.512722,1524.004821 1150.000000,1518.000000 1157.010829,1501.074360 1170.989171,1412.925640 1178.000000,1396.000000 1179.891771,1391.432861 1182.567139,1390.108229 1178.000000,1392.000000 1162.204300,1398.542793 1093.795700,1441.457207 1078.000000,1448.000000 1076.152241,1448.765367 1072.000000,1453.333333 1072.000000,1448.000000 1072.000000,1380.000000 1072.000000,1312.000000 1072.000000,1244.000000 1072.000000,1237.514356 1082.008046,1234.481949 1088.000000,1232.000000 1094.695810,1229.226505 1123.304190,1208.773495 1130.000000,1206.000000 1147.533325,1198.737459 1182.737459,1179.533325 1190.000000,1162.000000 1206.466463,1122.246442 1168.215657,1080.170556 1130.000000,1096.000000 1111.812110,1103.533671 1096.187890,1116.466329 1078.000000,1124.000000 1070.084978,1127.278509 1072.123321,1061.954577 1068.000000,1052.000000 Z M1182.000000,558.000000 C1091.869360,520.666667 950.130640,520.666667 860.000000,558.000000 843.987097,564.632762 774.012903,605.367238 758.000000,612.000000 749.319937,615.595400 712.680063,654.404600 704.000000,658.000000 687.612125,664.788080 688.788080,705.612125 682.000000,722.000000 678.074312,731.477450 686.258318,756.000000 676.000000,756.000000 660.931724,756.000000 645.766379,722.078729 640.000000,736.000000 634.286043,749.794712 599.713957,810.205288 594.000000,824.000000 588.609030,837.014953 575.390970,902.985047 570.000000,916.000000 565.579365,926.672357 568.420635,993.327643 564.000000,1004.000000 556.865313,1021.224659 540.775341,1028.865313 558.000000,1036.000000 585.032226,1047.197115 752.967774,1040.802885 780.000000,1052.000000 793.410620,1057.554861 810.589380,1023.554861 824.000000,1018.000000 840.584145,1011.130622 857.415855,1004.869378 874.000000,998.000000 880.349730,995.369856 897.369856,1000.349730 900.000000,994.000000 907.837174,975.079388 945.079388,945.837174 964.000000,938.000000 1000.339262,922.947785 1045.660738,922.947785 1082.000000,938.000000 1100.920612,945.837174 1138.162826,975.079388 1146.000000,994.000000 1147.191677,996.876963 1176.701001,998.633510 1180.000000,1000.000000 1219.351436,1016.299899 1261.700101,1042.648564 1278.000000,1082.000000 1279.301637,1085.142431 1278.857569,1081.301637 1282.000000,1080.000000 1342.738392,1054.841334 1398.841334,1061.261608 1424.000000,1122.000000 1432.838845,1143.338860 1433.161155,1175.338860 1442.000000,1154.000000 1447.390970,1140.985047 1460.609030,1075.014953 1466.000000,1062.000000 1473.555239,1043.760040 1485.555239,1022.239960 1478.000000,1004.000000 1466.034206,975.112019 1476.109904,862.109904 1454.000000,840.000000 1444.859249,830.859249 1408.000000,836.926973 1408.000000,824.000000 1408.000000,808.860291 1411.793716,753.987267 1406.000000,740.000000 1378.514266,673.643568 1248.356432,585.485734 1182.000000,558.000000 Z M1296.000000,342.000000 C1126.622086,271.841371 915.377914,271.841371 746.000000,342.000000 727.081197,349.836425 644.918803,400.163575 626.000000,408.000000 613.447365,413.199472 560.552635,466.800528 548.000000,472.000000 531.169335,478.971490 498.971490,513.169335 492.000000,530.000000 486.132647,544.165043 431.867353,603.834957 426.000000,618.000000 420.027643,632.418545 383.972357,695.581455 378.000000,710.000000 369.350891,730.880797 342.649109,833.119203 334.000000,854.000000 328.341350,867.661191 327.658650,948.338809 322.000000,962.000000 319.813265,967.279246 321.333333,984.000000 324.000000,984.000000 372.000000,984.000000 420.000000,984.000000 468.000000,984.000000 470.666667,984.000000 470.000000,984.666667 470.000000,982.000000 470.000000,915.573767 480.579781,847.369837 506.000000,786.000000 511.279338,773.254550 540.720662,716.745450 546.000000,704.000000 551.065472,691.770869 596.934528,640.229131 602.000000,628.000000 607.337041,615.115243 631.115243,589.337041 644.000000,584.000000 650.410306,581.344765 677.589694,550.655235 684.000000,548.000000 695.207373,543.357754 742.792627,506.642246 754.000000,502.000000 769.591113,495.541949 840.408887,464.458051 856.000000,458.000000 919.257081,431.798059 991.531029,434.000000 1060.000000,434.000000 1139.947205,434.000000 1216.138414,471.405529 1290.000000,502.000000 1301.207373,506.642246 1348.792627,543.357754 1360.000000,548.000000 1366.410306,550.655235 1393.589694,581.344765 1400.000000,584.000000 1412.884757,589.337041 1436.662959,615.115243 1442.000000,628.000000 1447.992185,642.466414 1500.007815,703.533586 1506.000000,718.000000 1539.048924,797.787160 1574.000000,881.639001 1574.000000,968.000000 1574.000000,972.500000 1601.084235,975.963823 1606.000000,978.000000 1640.540961,992.307334 1680.613134,984.000000 1718.000000,984.000000 1720.666667,984.000000 1720.000000,984.666667 1720.000000,982.000000 1720.000000,889.431707 1699.424352,795.521951 1664.000000,710.000000 1656.163575,691.081197 1605.836425,608.918803 1598.000000,590.000000 1592.800528,577.447365 1539.199472,524.552635 1534.000000,512.000000 1527.028510,495.169335 1492.830665,462.971490 1476.000000,456.000000 1461.834957,450.132647 1402.165043,395.867353 1388.000000,390.000000 1373.581455,384.027643 1310.418545,347.972357 1296.000000,342.000000 Z M1282.000000,74.000000 C1231.061107,52.900420 1045.135860,40.000000 990.000000,40.000000 870.471296,40.000000 750.430123,72.258345 640.000000,118.000000 541.774809,158.686206 449.178307,218.821693 374.000000,294.000000 343.861654,324.138346 240.310755,434.622353 224.000000,474.000000 214.007902,498.123058 153.992098,603.876942 144.000000,628.000000 97.968982,739.128708 74.000000,861.715153 74.000000,982.000000 74.000000,984.666667 73.333333,984.000000 76.000000,984.000000 124.666667,984.000000 173.333333,984.000000 222.000000,984.000000 224.666667,984.000000 224.000000,984.666667 224.000000,982.000000 224.000000,873.741051 248.571094,764.018227 290.000000,664.000000 394.054591,412.789995 702.092250,188.000000 974.000000,188.000000 1068.680750,188.000000 1168.526393,185.767246 1256.000000,222.000000 1268.859745,227.326681 1329.140255,248.673319 1342.000000,254.000000 1527.992449,331.040595 1684.959405,502.007551 1762.000000,688.000000 1799.379402,778.241858 1818.000000,876.000000 1818.000000,982.000000 1818.000000,984.666667 1817.333333,984.000000 1820.000000,984.000000 1869.333333,984.000000 1918.666667,984.000000 1968.000000,984.000000 1970.666667,984.000000 1970.000000,984.666667 1970.000000,982.000000 1970.000000,929.157772 1948.221845,754.819853 1928.000000,706.000000 1905.921970,652.698921 1884.078030,599.301079 1862.000000,546.000000 1843.344904,500.962613 1748.470124,372.470124 1714.000000,338.000000 1629.988096,253.988096 1535.766842,173.466915 1426.000000,128.000000 1404.441747,119.070279 1303.558253,82.929721 1282.000000,74.000000 Z "/></g>
</svg>