<?xml version="1.0" encoding="UTF-8"?>
<!DOCTYPE svg PUBLIC "-//W3C//DTD SVG 1.1 Tiny//EN" "http://www.w3.org/Graphics/SVG/1.1/DTD/svg11-tiny.dtd">
<svg version="1.1" width="2048" height="2048" viewBox="0 0 2048 2048" xmlns="http://www.w3.org/2000/svg">
<g fill="black">
<path d="M1334.000000,1504.000000 C1326.881251,1504.000000 1324.724227,1515.423134 1322.000000,1522.000000 1311.762654,1546.715140 1242.237346,1653.284860 1232.000000,1678.000000 1229.820234,1683.262420 1223.333333,1694.000000 1226.000000,1694.000000 1352.000000,1694.000000 1478.000000,1694.000000 1604.000000,1694.000000 1636.173059,1694.000000 1673.687903,1667.724031 1686.000000,1638.000000 1711.994668,1575.243320 1668.398010,1504.000000 1604.000000,1504.000000 1514.000000,1504.000000 1424.000000,1504.000000 1334.000000,1504.000000 Z M250.000000,1504.000000 C185.601990,1504.000000 142.005332,1575.243320 168.000000,1638.000000 180.312097,1667.724031 217.826941,1694.000000 250.000000,1694.000000 290.976077,1694.000000 448.143041,1701.680866 486.000000,1686.000000 560.666667,1655.072054 560.666667,1542.927946 486.000000,1512.000000 448.143041,1496.319134 290.976077,1504.000000 250.000000,1504.000000 Z M1290.000000,1158.000000 C1287.333333,1155.333333 1289.104569,1155.333333 1288.000000,1158.000000 1278.444625,1181.068715 1215.555375,1280.931285 1206.000000,1304.000000 1204.430591,1307.788889 1199.898936,1310.000000 1204.000000,1310.000000 1240.392918,1310.000000 1286.073033,1291.622672 1300.000000,1258.000000 1312.711863,1227.310849 1313.488460,1181.488460 1290.000000,1158.000000 Z M442.000000,1120.000000 C377.601990,1120.000000 334.005332,1191.243320 360.000000,1254.000000 372.312097,1283.724031 409.826941,1310.000000 442.000000,1310.000000 537.333333,1310.000000 632.666667,1310.000000 728.000000,1310.000000 730.666667,1310.000000 730.386465,1301.895418 732.000000,1298.000000 741.141594,1275.930241 748.858406,1152.069759 758.000000,1130.000000 759.888249,1125.441363 762.934233,1120.000000 758.000000,1120.000000 652.666667,1120.000000 547.333333,1120.000000 442.000000,1120.000000 Z M866.000000,1098.000000 C860.344525,1098.000000 864.164257,1108.775022 862.000000,1114.000000 840.532601,1165.826886 817.467399,1452.173114 796.000000,1504.000000 788.990021,1520.923586 783.682043,1536.000000 802.000000,1536.000000 876.666667,1536.000000 951.333333,1536.000000 1026.000000,1536.000000 1034.000000,1536.000000 1029.061467,1552.608964 1026.000000,1560.000000 1005.373513,1609.796743 984.626487,1886.203257 964.000000,1936.000000 962.951326,1938.531724 958.951326,1968.531724 960.000000,1966.000000 993.655850,1884.747591 1216.344150,1533.252409 1250.000000,1452.000000 1251.569409,1448.211111 1256.101064,1446.000000 1252.000000,1446.000000 1174.666667,1446.000000 1097.333333,1446.000000 1020.000000,1446.000000 1011.885943,1446.000000 1020.894885,1439.496411 1024.000000,1432.000000 1045.605624,1379.839409 1188.394376,1154.160591 1210.000000,1102.000000 1211.167815,1099.180646 1213.051646,1098.000000 1210.000000,1098.000000 1095.333333,1098.000000 980.666667,1098.000000 866.000000,1098.000000 Z M826.000000,736.000000 C793.826941,736.000000 756.312097,762.275969 744.000000,792.000000 718.005332,854.756680 761.601990,926.000000 826.000000,926.000000 1149.333333,926.000000 1472.666667,926.000000 1796.000000,926.000000 1828.173059,926.000000 1865.687903,899.724031 1878.000000,870.000000 1903.994668,807.243320 1860.398010,736.000000 1796.000000,736.000000 1472.666667,736.000000 1149.333333,736.000000 826.000000,736.000000 Z M250.000000,736.000000 C185.601990,736.000000 142.005332,807.243320 168.000000,870.000000 180.312097,899.724031 217.826941,926.000000 250.000000,926.000000 290.976077,926.000000 448.143041,933.680866 486.000000,918.000000 577.797739,879.976132 550.901099,736.000000 452.000000,736.000000 384.666667,736.000000 317.333333,736.000000 250.000000,736.000000 Z M1796.000000,352.000000 C1755.023923,352.000000 1597.856959,344.319134 1560.000000,360.000000 1485.333333,390.927946 1485.333333,503.072054 1560.000000,534.000000 1597.856959,549.680866 1755.023923,542.000000 1796.000000,542.000000 1860.398010,542.000000 1903.994668,470.756680 1878.000000,408.000000 1865.687903,378.275969 1828.173059,352.000000 1796.000000,352.000000 Z M250.000000,352.000000 C217.826941,352.000000 180.312097,378.275969 168.000000,408.000000 142.005332,470.756680 185.601990,542.000000 250.000000,542.000000 509.333333,542.000000 768.666667,542.000000 1028.000000,542.000000 1092.398010,542.000000 1135.994668,470.756680 1110.000000,408.000000 1097.687903,378.275969 1060.173059,352.000000 1028.000000,352.000000 768.666667,352.000000 509.333333,352.000000 250.000000,352.000000 Z "/></g>
</svg>