<?xml version="1.0" encoding="UTF-8"?>
<!DOCTYPE svg PUBLIC "-//W3C//DTD SVG 1.1 Tiny//EN" "http://www.w3.org/Graphics/SVG/1.1/DTD/svg11-tiny.dtd">
<svg version="1.1" width="2048" height="2048" viewBox="0 0 2048 2048" xmlns="http://www.w3.org/2000/svg">
<g fill="black">
<path d="M1334.000000,1504.000000 C1326.881251,1504.000000 1324.724227,1515.423134 1322.000000,1522.000000 1311.762654,1546.715140 1242.237346,1653.284860 1232.000000,1678.000000 1229.820234,1683.262420 1223.333333,1694.000000 1226.000000,1694.000000 1352.000000,1694.000000 1478.000000,1694.000000 1604.000000,1694.000000 1636.173059,1694.000000 1673.687903,1667.724031 1686.000000,1638.000000 1711.994668,1575.243320 1668.398010,1504.000000 1604.000000,1504.000000 1514.000000,1504.000000 1424.000000,1504.000000 1334.000000,1504.000000 Z M250.000000,1504.000000 C185.601990,1504.000000 142.005332,1575.243320 168.000000,1638.000000 180.312097,1667.724031 217.826941,1694.000000 250.000000,1694.000000 290.976077,1694.000000 448.143041,1701.680866 486.000000,1686.000000 560.666667,1655.072054 560.666667,1542.927946 486.000000,1512.000000 448.143041,1496.319134 290.976077,1504.000000 250.000000,1504.000000 Z M1290.000000,1158.000000 C1287.333333,1155.333333 1289.104569,1155.333333 1288.000000,1158.000000 1278.444625,1181.068715 1215.555375,1280.931285 1206.000000,1304.000000 1204.430591,1307.788889 1199.898936,1310.000000 1204.000000,1310.000000 1240.392918,1310.000000 1286.073033,1291.622672 1300.000000,1258.000000 1312.711863,1227.310849 1313.488460,1181.488460 1290.000000,1158.000000 Z M442.000000,1120.000000 C377.601990,1120.000000 334.005332,1191.243320 360.000000,1254.000000 372.312097,1283.724031 409.826941,1310.000000 442.000000,1310.000000 537.333333,1310.000000 632.666667,1310.000000 728.000000,1310.000000 730.666667,1310.000000 730.386465,1301.895418 732.000000,1298.000000 741.141594,1275.930241 748.858406,1152.069759 758.000000,1130.000000 759.888249,1125.441363 762.934233,1120.000000 758.000000,1120.000000 652.666667,1120.000000 547.333333,1120.000000 442.000000,1120.000000 Z M866.000000,1098.000000 C860.344525,1098.000000 864.164257,1108.775022 862.000000,1114.000000 840.532601,1165.826886 817.467399,1452.173114 796.000000,1504.000000 788.990021,1520.923586 783.682043,1536.000000 802.000000,1536.000000 876.666667,1536.000000 951.333333,1536.000000 1026.000000,1536.000000 1034.000000,1536.000000 1029.061467,1552.608964 1026.000000,1560.000000 1005.373513,1609.796743 984.626487,1886.203257 964.000000,1936.000000 962.951326,1938.531724 958.951326,1968.531724 960.000000,1966.000000 993.655850,1884.747591 1216.344150,1533.252409 1250.000000,1452.000000 1251.569409,1448.211111 1256.101064,1446.000000 1252.000000,1446.000000 1174.666667,1446.000000 1097.333333,1446.000000 1020.000000,1446.000000 1011.885943,1446.000000 1020.894885,1439.496411 1024.000000,1432.000000 1045.605624,1379.839409 1188.394376,1154.160591 1210.000000,1102.000000 1211.167815,1099.180646 1213.051646,1098.000000 1210.000000,1098.000000 1095.333333,1098.000000 980.666667,1098.000000 866.000000,1098.000000 Z M1766.000000,910.000000 C1763.333333,910.000000 1755.333333,926.000000 1758.000000,926.000000 1782.147694,926.000000 1807.690440,927.240922 1830.000000,918.000000 1834.028477,916.331350 1838.360392,914.000000 1834.000000,914.000000 1825.161510,914.000000 1774.838490,910.000000 1766.000000,910.000000 Z M826.000000,736.000000 C793.826941,736.000000 756.312097,762.275969 744.000000,792.000000 718.005332,854.756680 761.601990,926.000000 826.000000,926.000000 987.333333,926.000000 1148.666667,926.000000 1310.000000,926.000000 1314.000000,926.000000 1306.000000,910.000000 1302.000000,910.000000 1284.845088,910.000000 1221.849072,918.564900 1206.000000,912.000000 1178.871552,900.763029 1149.236971,883.128448 1138.000000,856.000000 1126.253288,827.640928 1134.000000,794.695638 1134.000000,764.000000 1134.000000,750.768967 1137.231033,736.000000 1124.000000,736.000000 1024.666667,736.000000 925.333333,736.000000 826.000000,736.000000 Z M250.000000,736.000000 C185.601990,736.000000 142.005332,807.243320 168.000000,870.000000 180.312097,899.724031 217.826941,926.000000 250.000000,926.000000 290.976077,926.000000 448.143041,933.680866 486.000000,918.000000 577.797739,879.976132 550.901099,736.000000 452.000000,736.000000 384.666667,736.000000 317.333333,736.000000 250.000000,736.000000 Z M250.000000,352.000000 C217.826941,352.000000 180.312097,378.275969 168.000000,408.000000 142.005332,470.756680 185.601990,542.000000 250.000000,542.000000 509.333333,542.000000 768.666667,542.000000 1028.000000,542.000000 1057.333333,542.000000 1076.591534,522.741799 1068.000000,502.000000 1063.756024,491.754135 1030.243976,448.245865 1026.000000,438.000000 1015.795108,413.363212 1015.795108,382.636788 1026.000000,358.000000 1027.569409,354.211111 1032.101064,352.000000 1028.000000,352.000000 768.666667,352.000000 509.333333,352.000000 250.000000,352.000000 Z M1640.000000,264.000000 C1505.624683,208.339921 1344.929540,270.216786 1292.000000,398.000000 1264.186990,465.146546 1260.186990,548.853454 1288.000000,616.000000 1344.586507,752.611913 1502.287878,815.870656 1642.000000,758.000000 1701.179702,733.486965 1757.486965,677.179702 1782.000000,618.000000 1839.870656,478.287878 1776.611913,320.586507 1640.000000,264.000000 Z M1384.000000,232.000000 C1432.019709,212.109585 1541.980291,178.109585 1590.000000,198.000000 1599.801437,202.059888 1648.198563,213.940112 1658.000000,218.000000 1820.431862,285.281480 1896.152529,471.465239 1828.000000,636.000000 1795.149600,715.307882 1719.307882,779.149600 1640.000000,812.000000 1567.871623,841.876552 1478.128377,831.876552 1406.000000,802.000000 1333.698269,772.051642 1271.948358,706.301731 1242.000000,634.000000 1237.940112,624.198563 1226.059888,575.801437 1222.000000,566.000000 1202.109585,517.980291 1236.109585,408.019709 1256.000000,360.000000 1272.858767,319.299337 1343.299337,248.858767 1384.000000,232.000000 Z M1428.000000,96.000000 C1424.221919,94.435068 1423.564932,90.221919 1422.000000,94.000000 1416.058328,108.344465 1381.941672,171.655535 1376.000000,186.000000 1369.820506,200.918619 1366.918619,220.179494 1352.000000,214.000000 1338.576232,208.439693 1257.423768,209.560307 1244.000000,204.000000 1239.054526,201.951518 1228.000000,203.333333 1228.000000,206.000000 1228.000000,218.039338 1234.000000,285.960662 1234.000000,298.000000 1234.000000,311.513658 1246.484992,336.828547 1234.000000,342.000000 1215.994012,349.458324 1136.005988,390.541676 1118.000000,398.000000 1114.221919,399.564932 1118.435068,400.221919 1120.000000,404.000000 1127.043074,421.003486 1184.956926,492.996514 1192.000000,510.000000 1193.352534,513.265306 1185.352534,518.734694 1184.000000,522.000000 1177.355206,538.041952 1122.644794,605.958048 1116.000000,622.000000 1114.091458,626.607627 1121.392373,626.091458 1126.000000,628.000000 1139.720792,633.683338 1200.279208,666.316662 1214.000000,672.000000 1227.343001,677.526852 1243.526852,680.656999 1238.000000,694.000000 1232.439693,707.423768 1233.560307,788.576232 1228.000000,802.000000 1225.951518,806.945474 1227.333333,818.000000 1230.000000,818.000000 1242.283098,818.000000 1311.716902,812.000000 1324.000000,812.000000 1338.046675,812.000000 1360.624570,801.022564 1366.000000,814.000000 1373.311535,831.651607 1412.688465,910.348393 1420.000000,928.000000 1423.568377,936.614825 1431.385175,921.568377 1440.000000,918.000000 1453.130371,912.561222 1508.869629,869.438778 1522.000000,864.000000 1525.839909,862.409458 1532.160091,852.409458 1536.000000,854.000000 1550.774756,860.119904 1613.225244,911.880096 1628.000000,918.000000 1638.604865,922.392679 1645.607321,936.604865 1650.000000,926.000000 1656.054393,911.383403 1689.945607,846.616597 1696.000000,832.000000 1701.203504,819.437629 1703.437629,802.796496 1716.000000,808.000000 1736.745999,816.593274 1817.544692,818.000000 1840.000000,818.000000 1842.666667,818.000000 1842.000000,818.666667 1842.000000,816.000000 1842.000000,793.544692 1840.593274,712.745999 1832.000000,692.000000 1828.104861,682.596304 1838.596304,679.895139 1848.000000,676.000000 1863.864011,669.428911 1934.135989,632.571089 1950.000000,626.000000 1952.350924,625.026215 1954.973785,624.350924 1954.000000,622.000000 1946.684996,604.340019 1885.315004,529.659981 1878.000000,512.000000 1876.409458,508.160091 1886.409458,501.839909 1888.000000,498.000000 1893.040513,485.831125 1932.959487,434.168875 1938.000000,422.000000 1942.567739,410.972502 1963.027498,400.567739 1952.000000,396.000000 1934.348393,388.688465 1855.651607,349.311535 1838.000000,342.000000 1825.022564,336.624570 1836.000000,314.046675 1836.000000,300.000000 1836.000000,287.716902 1842.000000,218.283098 1842.000000,206.000000 1842.000000,203.333333 1830.945474,201.951518 1826.000000,204.000000 1812.576232,209.560307 1731.423768,208.439693 1718.000000,214.000000 1703.081381,220.179494 1700.179494,200.918619 1694.000000,186.000000 1688.574995,172.902880 1657.425005,115.097120 1652.000000,102.000000 1650.091458,97.392373 1650.607627,90.091458 1646.000000,92.000000 1628.340019,99.315004 1553.659981,160.684996 1536.000000,168.000000 1532.734694,169.352534 1527.265306,161.352534 1524.000000,160.000000 1508.616511,153.627950 1443.383489,102.372050 1428.000000,96.000000 Z "/></g>
</svg>