<?xml version="1.0" encoding="UTF-8"?>
<!DOCTYPE svg PUBLIC "-//W3C//DTD SVG 1.1 Tiny//EN" "http://www.w3.org/Graphics/SVG/1.1/DTD/svg11-tiny.dtd">
<svg version="1.1" width="2048" height="2048" viewBox="0 0 2048 2048" xmlns="http://www.w3.org/2000/svg">
<g fill="black">
<path d="M456.000000,1882.000000 C437.405866,1874.298058 419.860611,1894.349778 428.000000,1914.000000 435.399112,1931.863037 464.665188,1936.000000 484.000000,1936.000000 511.711154,1936.000000 559.395400,1939.601768 570.000000,1914.000000 579.282060,1891.591124 560.408876,1874.717940 538.000000,1884.000000 512.739783,1894.463125 481.260217,1892.463125 456.000000,1882.000000 Z M446.000000,1782.000000 C408.011416,1766.264613 364.264613,1760.011416 380.000000,1798.000000 390.422612,1823.162411 430.837589,1817.577388 456.000000,1828.000000 484.755190,1839.910790 557.244810,1831.910790 586.000000,1820.000000 592.534538,1817.293306 580.534538,1773.293306 574.000000,1776.000000 545.981984,1787.605442 474.018016,1793.605442 446.000000,1782.000000 Z M370.000000,1670.000000 C335.059741,1655.527271 317.059741,1697.527271 352.000000,1712.000000 373.508416,1720.909077 450.719459,1730.000000 474.000000,1730.000000 489.115096,1730.000000 548.035472,1733.784297 562.000000,1728.000000 567.400746,1725.762938 580.000000,1731.845725 580.000000,1726.000000 580.000000,1701.414832 602.713734,1672.591663 580.000000,1682.000000 572.243588,1685.212811 540.395479,1684.000000 532.000000,1684.000000 501.823653,1684.000000 397.879309,1681.547988 370.000000,1670.000000 Z M1276.000000,1628.000000 C1272.883709,1626.709190 1275.290810,1626.883709 1274.000000,1630.000000 1267.211772,1646.388233 1250.788228,1729.611767 1244.000000,1746.000000 1218.479855,1807.611080 1296.831155,1887.336965 1358.000000,1862.000000 1368.205174,1857.772878 1389.772878,1850.205174 1394.000000,1840.000000 1399.185500,1827.481097 1402.814500,1756.518903 1408.000000,1744.000000 1420.288317,1714.333379 1412.288317,1677.666621 1400.000000,1648.000000 1397.726931,1642.512325 1399.939816,1632.000000 1394.000000,1632.000000 1373.511961,1632.000000 1294.928480,1635.840433 1276.000000,1628.000000 Z M298.000000,1560.000000 C280.542098,1552.768700 264.121239,1572.978988 272.000000,1592.000000 278.435030,1607.535536 316.464464,1607.564970 332.000000,1614.000000 360.002222,1625.598900 461.690614,1636.000000 492.000000,1636.000000 510.135543,1636.000000 579.244943,1638.940172 596.000000,1632.000000 598.904466,1630.796931 604.000000,1633.143771 604.000000,1630.000000 604.000000,1624.666667 617.767708,1583.610937 612.000000,1586.000000 591.208951,1594.611934 504.504069,1590.000000 482.000000,1590.000000 446.502260,1590.000000 330.795635,1573.584397 298.000000,1560.000000 Z M300.000000,1458.000000 C269.497729,1445.365546 244.634454,1411.497729 232.000000,1442.000000 211.847300,1490.652922 279.347078,1493.847300 328.000000,1514.000000 343.453289,1520.400962 428.546711,1527.599038 444.000000,1534.000000 448.982420,1536.063786 481.017580,1533.936214 486.000000,1536.000000 504.620424,1543.712832 555.379576,1541.712832 574.000000,1534.000000 583.575480,1530.033706 622.671245,1535.328755 630.000000,1528.000000 636.035088,1521.964912 645.229013,1477.834072 640.000000,1480.000000 613.982950,1490.776615 512.160652,1492.000000 484.000000,1492.000000 447.978885,1492.000000 333.279171,1471.784684 300.000000,1458.000000 Z M766.000000,1408.000000 C762.636557,1399.879929 767.363443,1401.879929 764.000000,1410.000000 745.528533,1454.594065 698.471467,1679.405935 680.000000,1724.000000 653.047122,1789.070004 725.272277,1867.982673 788.000000,1842.000000 871.063542,1807.593954 862.406046,1733.063542 828.000000,1650.000000 813.858878,1615.860311 780.141122,1442.139689 766.000000,1408.000000 Z M550.000000,1254.000000 C469.861231,1254.000000 386.038568,1257.332221 312.000000,1288.000000 289.077494,1297.494813 266.505187,1305.077494 276.000000,1328.000000 283.582324,1346.305350 297.694650,1341.582324 316.000000,1334.000000 398.583783,1299.792677 492.611957,1300.000000 582.000000,1300.000000 601.416445,1300.000000 670.061544,1302.569648 688.000000,1310.000000 718.205194,1322.511401 755.794806,1293.488599 786.000000,1306.000000 801.208615,1312.299615 833.700385,1326.791385 840.000000,1342.000000 844.612335,1353.135163 850.612335,1351.135163 846.000000,1340.000000 836.076432,1316.042387 815.957613,1293.923568 792.000000,1284.000000 750.074387,1266.633843 595.379956,1254.000000 550.000000,1254.000000 Z M816.000000,1160.000000 C760.519179,1137.019092 546.052008,1136.000000 486.000000,1136.000000 394.258818,1136.000000 298.757800,1142.892170 214.000000,1178.000000 144.084391,1206.959994 115.040006,1260.084391 144.000000,1330.000000 158.922150,1366.025257 239.974743,1387.077850 276.000000,1402.000000 299.540493,1411.750791 424.459507,1428.249209 448.000000,1438.000000 481.568971,1451.904723 615.665208,1438.000000 652.000000,1438.000000 654.666667,1438.000000 655.579697,1425.843127 658.000000,1420.000000 664.796468,1403.591875 674.408125,1385.203532 658.000000,1392.000000 649.933015,1395.341455 616.731642,1394.000000 608.000000,1394.000000 572.353002,1394.000000 444.933532,1399.641516 412.000000,1386.000000 353.624928,1361.820254 206.179746,1362.375072 182.000000,1304.000000 165.314355,1263.717289 191.717289,1236.685645 232.000000,1220.000000 322.153897,1182.657033 424.418126,1180.000000 522.000000,1180.000000 556.579287,1180.000000 686.052905,1176.767080 718.000000,1190.000000 730.270223,1195.082493 797.729777,1200.917507 810.000000,1206.000000 843.610171,1219.921788 876.078212,1243.610171 890.000000,1210.000000 904.497484,1174.999978 851.000022,1174.497484 816.000000,1160.000000 Z M1378.000000,1098.000000 C1372.344525,1098.000000 1376.164257,1108.775022 1374.000000,1114.000000 1361.198076,1144.906578 1346.801924,1315.093422 1334.000000,1346.000000 1324.103986,1369.891091 1315.896014,1504.108909 1306.000000,1528.000000 1302.412140,1536.661861 1304.624469,1536.000000 1314.000000,1536.000000 1388.666667,1536.000000 1463.333333,1536.000000 1538.000000,1536.000000 1544.034767,1536.000000 1542.309405,1542.424602 1540.000000,1548.000000 1530.016363,1572.102631 1519.983637,1705.897369 1510.000000,1730.000000 1497.466852,1760.257696 1486.533148,1929.742304 1474.000000,1960.000000 1472.132411,1964.508758 1470.132411,1970.508758 1472.000000,1966.000000 1505.655850,1884.747591 1728.344150,1533.252409 1762.000000,1452.000000 1763.569409,1448.211111 1768.101064,1446.000000 1764.000000,1446.000000 1686.666667,1446.000000 1609.333333,1446.000000 1532.000000,1446.000000 1523.885943,1446.000000 1532.894885,1439.496411 1536.000000,1432.000000 1557.464231,1380.180763 1698.535769,1155.819237 1720.000000,1104.000000 1721.569409,1100.211111 1726.101064,1098.000000 1722.000000,1098.000000 1607.333333,1098.000000 1492.666667,1098.000000 1378.000000,1098.000000 Z M1636.000000,944.000000 C1600.710166,858.802803 1500.385482,819.389535 1412.000000,856.000000 1367.037863,874.623927 1334.623927,921.037863 1316.000000,966.000000 1310.460046,979.374633 1319.374633,1007.539954 1306.000000,1002.000000 1283.972119,992.875753 1238.027881,1014.875753 1216.000000,1024.000000 1197.188088,1031.792149 1171.792149,1069.188088 1164.000000,1088.000000 1134.074477,1160.246603 1169.189070,1238.183871 1246.000000,1270.000000 1251.343013,1272.213148 1247.786852,1267.343013 1250.000000,1262.000000 1260.919898,1235.637034 1273.080102,1090.362966 1284.000000,1064.000000 1297.480155,1031.456027 1334.774658,1000.000000 1370.000000,1000.000000 1489.333333,1000.000000 1608.666667,1000.000000 1728.000000,1000.000000 1793.098039,1000.000000 1838.131912,1072.911984 1812.000000,1136.000000 1804.021697,1155.261326 1751.978303,1238.738674 1744.000000,1258.000000 1741.963791,1262.915843 1737.084157,1264.036209 1742.000000,1262.000000 1816.246648,1231.246031 1852.705343,1134.957683 1820.000000,1056.000000 1803.399398,1015.922602 1766.077398,982.600602 1726.000000,966.000000 1700.627398,955.490324 1671.463107,958.000000 1644.000000,958.000000 1638.429212,958.000000 1638.131848,949.146737 1636.000000,944.000000 Z M644.000000,854.000000 C557.156367,818.028189 489.971811,849.156367 454.000000,936.000000 452.327763,940.037138 450.266667,976.000000 448.000000,976.000000 444.398041,976.000000 435.327776,969.378410 432.000000,968.000000 370.220461,942.410077 269.589923,976.220461 244.000000,1038.000000 240.207335,1047.156304 224.843696,1069.792665 234.000000,1066.000000 277.180078,1048.114226 437.262221,1036.000000 484.000000,1036.000000 627.136299,1036.000000 777.759303,1035.224110 910.000000,1090.000000 919.134277,1093.783541 921.783541,1099.134277 918.000000,1090.000000 882.420820,1004.104262 811.895738,962.420820 726.000000,998.000000 715.672469,1002.277803 703.722197,1012.327531 708.000000,1002.000000 728.568616,952.342967 693.657033,874.568616 644.000000,854.000000 Z M570.000000,404.000000 C518.050820,382.481945 397.949180,418.481945 346.000000,440.000000 239.709816,484.026836 162.000000,630.952334 162.000000,746.000000 162.000000,748.666667 161.333333,748.000000 164.000000,748.000000 186.666667,748.000000 209.333333,748.000000 232.000000,748.000000 243.595545,748.000000 231.562577,720.712886 236.000000,710.000000 239.894203,700.598562 250.105797,653.401438 254.000000,644.000000 270.782920,603.482447 329.482447,526.782920 370.000000,510.000000 408.609072,494.007599 493.390928,458.007599 532.000000,474.000000 540.187722,477.391466 585.812278,480.608534 594.000000,484.000000 640.346286,503.197260 730.802740,561.653714 750.000000,608.000000 758.107913,627.574234 767.892087,646.425766 776.000000,666.000000 779.572041,674.623670 784.427959,721.376330 788.000000,730.000000 790.237062,735.400746 784.154275,748.000000 790.000000,748.000000 818.086982,748.000000 870.748423,763.948988 860.000000,738.000000 856.604371,729.802226 855.395629,682.197774 852.000000,674.000000 848.507801,665.569085 837.492199,624.430915 834.000000,616.000000 800.443902,534.988413 731.011587,461.556098 650.000000,428.000000 638.432972,423.208780 581.567028,408.791220 570.000000,404.000000 Z M690.000000,310.000000 C582.822895,265.605790 449.177105,261.605790 342.000000,306.000000 225.708556,354.169493 120.169493,453.708556 72.000000,570.000000 49.341632,624.702139 38.000000,683.411765 38.000000,746.000000 38.000000,748.666667 37.333333,748.000000 40.000000,748.000000 63.333333,748.000000 86.666667,748.000000 110.000000,748.000000 112.666667,748.000000 112.000000,748.666667 112.000000,746.000000 112.000000,584.365591 208.891423,440.591222 360.000000,378.000000 417.925929,354.006295 483.301427,350.000000 546.000000,350.000000 682.710427,350.000000 829.683185,473.696035 882.000000,600.000000 886.526204,610.927224 899.473796,665.072776 904.000000,676.000000 906.546722,682.148330 907.453278,717.851670 910.000000,724.000000 912.851849,730.884974 904.547758,748.000000 912.000000,748.000000 935.333333,748.000000 958.666667,748.000000 982.000000,748.000000 984.666667,748.000000 984.000000,748.666667 984.000000,746.000000 984.000000,554.761905 868.931268,384.115758 690.000000,310.000000 Z M1558.000000,198.000000 C1526.078643,184.777741 1449.921357,204.777741 1418.000000,218.000000 1368.593032,238.465036 1278.465036,310.593032 1258.000000,360.000000 1238.109585,408.019709 1204.109585,517.980291 1224.000000,566.000000 1227.062007,573.392338 1234.937993,610.607662 1238.000000,618.000000 1256.507683,662.681499 1313.318501,753.492317 1358.000000,772.000000 1361.585716,773.485252 1368.414284,767.485252 1372.000000,766.000000 1434.835884,739.972525 1513.164116,735.972525 1576.000000,762.000000 1583.833086,765.244571 1618.166914,784.755429 1626.000000,788.000000 1632.617120,790.740901 1643.382880,808.740901 1650.000000,806.000000 1729.269606,773.165454 1797.165454,701.269606 1830.000000,622.000000 1831.447085,618.506428 1797.692519,641.985227 1788.000000,646.000000 1723.620972,672.666667 1650.379028,672.666667 1586.000000,646.000000 1535.924868,625.258201 1482.741799,572.075132 1462.000000,522.000000 1435.333333,457.620972 1435.333333,384.379028 1462.000000,320.000000 1477.902419,281.608165 1539.608165,215.902419 1578.000000,200.000000 1586.463176,196.494438 1566.463176,201.505562 1558.000000,198.000000 Z "/></g>
</svg>