<?xml version="1.0" encoding="UTF-8"?>
<!DOCTYPE svg PUBLIC "-//W3C//DTD SVG 1.1 Tiny//EN" "http://www.w3.org/Graphics/SVG/1.1/DTD/svg11-tiny.dtd">
<svg version="1.1" width="2048" height="2048" viewBox="0 0 2048 2048" xmlns="http://www.w3.org/2000/svg">
<g fill="black">
<path d="M1636.000000,944.000000 C1600.710166,858.802803 1500.385482,819.389535 1412.000000,856.000000 1367.037863,874.623927 1334.623927,921.037863 1316.000000,966.000000 1310.460046,979.374633 1319.374633,1007.539954 1306.000000,1002.000000 1291.183767,995.862915 1256.816233,1003.862915 1242.000000,1010.000000 1208.029363,1024.071099 1178.071099,1054.029363 1164.000000,1088.000000 1127.803836,1175.385271 1194.277778,1280.000000 1286.000000,1280.000000 1416.666667,1280.000000 1547.333333,1280.000000 1678.000000,1280.000000 1786.380952,1280.000000 1862.830890,1159.402915 1820.000000,1056.000000 1803.399398,1015.922602 1766.077398,982.600602 1726.000000,966.000000 1700.627398,955.490324 1671.463107,958.000000 1644.000000,958.000000 1638.429212,958.000000 1638.131848,949.146737 1636.000000,944.000000 Z M644.000000,854.000000 C557.156367,818.028189 489.971811,849.156367 454.000000,936.000000 452.327763,940.037138 450.266667,976.000000 448.000000,976.000000 444.398041,976.000000 435.327776,969.378410 432.000000,968.000000 391.121303,951.067489 340.878697,965.067489 300.000000,982.000000 261.689003,997.868934 241.868934,1043.689003 226.000000,1082.000000 214.437071,1109.915380 232.437071,1172.084620 244.000000,1200.000000 262.162749,1243.848756 324.538448,1278.000000 372.000000,1278.000000 512.666667,1278.000000 653.333333,1278.000000 794.000000,1278.000000 843.719752,1278.000000 896.973075,1231.935061 916.000000,1186.000000 963.964495,1070.203465 842.305210,949.824805 726.000000,998.000000 715.672469,1002.277803 703.722197,1012.327531 708.000000,1002.000000 728.568616,952.342967 693.657033,874.568616 644.000000,854.000000 Z M1730.000000,664.000000 C1726.311752,655.095783 1729.688248,651.095783 1726.000000,660.000000 1720.877078,672.367827 1709.122922,735.632173 1704.000000,748.000000 1700.883728,755.523347 1705.523347,765.116272 1698.000000,762.000000 1683.785315,756.112085 1614.214685,737.887915 1600.000000,732.000000 1594.124238,729.566180 1593.502887,729.502887 1598.000000,734.000000 1607.038733,743.038733 1662.961267,794.961267 1672.000000,804.000000 1676.472136,808.472136 1661.527864,817.527864 1666.000000,822.000000 1672.549379,828.549379 1697.450621,855.450621 1704.000000,862.000000 1709.835547,867.835547 1738.375490,866.841824 1746.000000,870.000000 1749.669895,871.520120 1752.170891,850.757077 1760.000000,854.000000 1768.918409,857.694126 1813.081591,868.305874 1822.000000,872.000000 1847.291083,882.475910 1869.356957,895.356957 1850.000000,876.000000 1842.930762,868.930762 1799.069238,827.069238 1792.000000,820.000000 1786.334619,814.334619 1774.334619,811.665381 1780.000000,806.000000 1793.099739,792.900261 1840.884366,739.089528 1858.000000,732.000000 1861.193240,730.677317 1861.193240,728.677317 1858.000000,730.000000 1843.147938,736.151925 1770.852062,755.848075 1756.000000,762.000000 1749.122392,764.848799 1752.848799,756.877608 1750.000000,750.000000 1745.048149,738.045173 1734.951851,675.954827 1730.000000,664.000000 Z M1882.000000,204.000000 C1879.120366,197.047948 1882.879634,191.047948 1880.000000,198.000000 1874.116528,212.203959 1861.883472,285.796041 1856.000000,300.000000 1853.454741,306.144800 1846.144800,300.545259 1840.000000,298.000000 1827.306752,292.742284 1764.693248,277.257716 1752.000000,272.000000 1747.845209,270.279029 1746.820061,268.820061 1750.000000,272.000000 1759.281644,281.281644 1816.718356,334.718356 1826.000000,344.000000 1828.666667,346.666667 1828.666667,347.333333 1826.000000,350.000000 1817.204188,358.795812 1762.795812,409.204188 1754.000000,418.000000 1749.523510,422.476490 1744.151183,424.422659 1750.000000,422.000000 1763.819160,416.275917 1832.180840,399.724083 1846.000000,394.000000 1849.920424,392.376107 1854.376107,390.079576 1856.000000,394.000000 1861.883472,408.203959 1874.116528,481.796041 1880.000000,496.000000 1881.242551,498.999783 1878.757449,500.999783 1880.000000,498.000000 1885.588642,484.507825 1898.411358,415.492175 1904.000000,402.000000 1906.574529,395.784537 1903.784537,389.425471 1910.000000,392.000000 1921.810311,396.891991 1980.189689,411.108009 1992.000000,416.000000 2002.984635,420.549985 2018.407275,428.407275 2010.000000,420.000000 1997.574874,407.574874 1952.234210,358.724430 1936.000000,352.000000 1921.462497,345.978369 1946.873477,333.126523 1958.000000,322.000000 1966.731642,313.268358 1998.591560,278.725530 2010.000000,274.000000 2012.837816,272.824538 2012.837816,268.824538 2010.000000,270.000000 1996.912472,275.421032 1933.087528,292.578968 1920.000000,298.000000 1913.350583,300.754279 1906.754279,304.649417 1904.000000,298.000000 1898.582330,284.920588 1887.417670,217.079412 1882.000000,204.000000 Z M1344.000000,48.000000 C1340.636557,39.879929 1345.363443,37.879929 1342.000000,46.000000 1330.233055,74.407918 1305.766945,221.592082 1294.000000,250.000000 1290.788753,257.752635 1285.752635,255.211247 1278.000000,252.000000 1249.235955,240.085542 1106.764045,205.914458 1078.000000,194.000000 1073.447715,192.114382 1095.333333,211.333333 1098.000000,214.000000 1115.129782,231.129782 1220.870218,326.870218 1238.000000,344.000000 1240.666667,346.666667 1240.666667,345.333333 1238.000000,348.000000 1197.654272,388.345728 1154.345728,425.654272 1114.000000,466.000000 1100.599355,479.400645 1062.491213,507.252377 1080.000000,500.000000 1109.161119,487.921069 1252.838881,452.078931 1282.000000,440.000000 1287.948326,437.536123 1291.536123,438.051674 1294.000000,444.000000 1305.301145,471.283379 1328.698855,612.716621 1340.000000,640.000000 1345.289149,652.769136 1338.710851,658.769136 1344.000000,646.000000 1355.766945,617.592082 1380.233055,470.407918 1392.000000,442.000000 1395.061467,434.608964 1408.608964,438.938533 1416.000000,442.000000 1441.537528,452.577990 1566.462472,485.422010 1592.000000,496.000000 1596.355210,497.803987 1609.333333,501.333333 1606.000000,498.000000 1588.165452,480.165452 1477.834548,377.834548 1460.000000,360.000000 1453.787740,353.787740 1441.787740,350.212260 1448.000000,344.000000 1467.317010,324.682990 1586.682990,215.317010 1606.000000,196.000000 1608.666667,193.333333 1608.666667,194.000000 1606.000000,194.000000 1597.998709,194.000000 1575.392229,202.938038 1568.000000,206.000000 1545.748646,215.216813 1436.251354,242.783187 1414.000000,252.000000 1407.224883,254.806345 1394.806345,258.775117 1392.000000,252.000000 1380.233055,223.592082 1355.766945,76.407918 1344.000000,48.000000 Z "/></g>
</svg>