<?xml version="1.0" encoding="UTF-8"?>
<!DOCTYPE svg PUBLIC "-//W3C//DTD SVG 1.1 Tiny//EN" "http://www.w3.org/Graphics/SVG/1.1/DTD/svg11-tiny.dtd">
<svg version="1.1" width="2048" height="2048" viewBox="0 0 2048 2048" xmlns="http://www.w3.org/2000/svg">
<g fill="black">
<path d="M456.000000,1882.000000 C437.405866,1874.298058 419.860611,1894.349778 428.000000,1914.000000 435.106885,1931.157537 462.842463,1926.893115 480.000000,1934.000000 509.280488,1946.128375 559.871625,1939.280488 572.000000,1910.000000 575.502099,1901.545185 544.199601,1881.775187 534.000000,1886.000000 509.947567,1895.962844 480.052433,1891.962844 456.000000,1882.000000 Z M476.000000,1786.000000 C458.550160,1786.000000 408.121550,1761.322235 392.000000,1768.000000 358.798185,1781.752642 384.798185,1806.247358 418.000000,1820.000000 430.865137,1825.328914 476.074876,1832.000000 490.000000,1832.000000 492.666667,1832.000000 478.666667,1786.000000 476.000000,1786.000000 Z M370.000000,1670.000000 C335.059741,1655.527271 317.059741,1697.527271 352.000000,1712.000000 367.702788,1718.504308 456.297212,1723.495692 472.000000,1730.000000 486.807714,1736.133556 502.027754,1684.000000 486.000000,1684.000000 464.302156,1684.000000 390.046194,1678.303405 370.000000,1670.000000 Z M354.000000,1574.000000 C310.366543,1555.926430 253.926430,1548.366543 272.000000,1592.000000 278.435030,1607.535536 316.464464,1607.564970 332.000000,1614.000000 356.913101,1624.319344 447.034253,1634.000000 474.000000,1634.000000 476.666667,1634.000000 482.524096,1591.045515 480.000000,1590.000000 463.832322,1583.303129 370.167678,1580.696871 354.000000,1574.000000 Z M272.000000,1442.000000 C265.372583,1426.000000 238.627417,1426.000000 232.000000,1442.000000 217.554826,1476.873735 257.126265,1487.554826 292.000000,1502.000000 330.278822,1517.855607 464.567302,1538.000000 506.000000,1538.000000 513.372067,1538.000000 502.821168,1530.810901 500.000000,1524.000000 495.776975,1513.804715 490.223025,1504.195285 486.000000,1494.000000 481.956807,1484.238869 451.761131,1492.043193 442.000000,1488.000000 432.220768,1483.949309 377.779232,1480.050691 368.000000,1476.000000 344.087417,1466.095084 281.904916,1465.912583 272.000000,1442.000000 Z M478.000000,1270.000000 C482.178555,1259.912075 490.087925,1249.821445 480.000000,1254.000000 470.438690,1257.960424 413.561310,1258.039576 404.000000,1262.000000 388.813145,1268.290601 313.186855,1285.709399 298.000000,1292.000000 273.205356,1302.270278 261.205356,1329.729722 286.000000,1340.000000 300.045130,1345.817683 315.954870,1333.817683 330.000000,1328.000000 346.975460,1320.968534 437.024540,1309.031466 454.000000,1302.000000 459.024838,1299.918644 473.918644,1303.024838 476.000000,1298.000000 477.411311,1294.592793 476.588689,1273.407207 478.000000,1270.000000 Z M626.000000,1136.000000 C558.895270,1136.000000 317.996687,1136.320131 256.000000,1162.000000 224.735774,1174.950066 156.950066,1200.735774 144.000000,1232.000000 128.000000,1270.627417 128.000000,1291.372583 144.000000,1330.000000 160.542844,1369.937958 252.062042,1389.457156 292.000000,1406.000000 324.961138,1419.652950 438.323121,1440.000000 474.000000,1440.000000 479.845725,1440.000000 473.762938,1427.400746 476.000000,1422.000000 479.571712,1413.377124 484.622876,1397.571712 476.000000,1394.000000 467.802226,1390.604371 420.197774,1389.395629 412.000000,1386.000000 353.624928,1361.820254 206.179746,1362.375072 182.000000,1304.000000 161.473582,1254.444843 204.444843,1230.526418 254.000000,1210.000000 303.128466,1189.650323 488.823732,1180.000000 542.000000,1180.000000 552.153889,1180.000000 578.619030,1163.885725 588.000000,1160.000000 595.156429,1157.035710 615.035710,1163.156429 618.000000,1156.000000 622.795219,1144.423317 638.530511,1136.000000 626.000000,1136.000000 Z M1378.000000,1098.000000 C1372.344525,1098.000000 1376.164257,1108.775022 1374.000000,1114.000000 1361.198076,1144.906578 1346.801924,1315.093422 1334.000000,1346.000000 1324.103986,1369.891091 1315.896014,1504.108909 1306.000000,1528.000000 1302.412140,1536.661861 1304.624469,1536.000000 1314.000000,1536.000000 1388.666667,1536.000000 1463.333333,1536.000000 1538.000000,1536.000000 1544.034767,1536.000000 1542.309405,1542.424602 1540.000000,1548.000000 1530.016363,1572.102631 1519.983637,1705.897369 1510.000000,1730.000000 1497.466852,1760.257696 1486.533148,1929.742304 1474.000000,1960.000000 1472.132411,1964.508758 1470.132411,1970.508758 1472.000000,1966.000000 1505.655850,1884.747591 1728.344150,1533.252409 1762.000000,1452.000000 1763.569409,1448.211111 1768.101064,1446.000000 1764.000000,1446.000000 1686.666667,1446.000000 1609.333333,1446.000000 1532.000000,1446.000000 1523.885943,1446.000000 1532.894885,1439.496411 1536.000000,1432.000000 1557.464231,1380.180763 1698.535769,1155.819237 1720.000000,1104.000000 1721.569409,1100.211111 1726.101064,1098.000000 1722.000000,1098.000000 1607.333333,1098.000000 1492.666667,1098.000000 1378.000000,1098.000000 Z M1068.000000,1052.000000 C1052.536027,1014.666667 995.463973,1014.666667 980.000000,1052.000000 975.876679,1061.954577 977.915022,1127.278509 970.000000,1124.000000 951.812110,1116.466329 936.187890,1103.533671 918.000000,1096.000000 879.784343,1080.170556 841.533537,1122.246442 858.000000,1162.000000 865.262541,1179.533325 900.466675,1198.737459 918.000000,1206.000000 924.695810,1208.773495 953.304190,1229.226505 960.000000,1232.000000 965.991954,1234.481949 976.000000,1237.514356 976.000000,1244.000000 976.000000,1311.333333 976.000000,1378.666667 976.000000,1446.000000 976.000000,1453.087184 970.547704,1446.712148 964.000000,1444.000000 937.749204,1433.126564 824.250796,1360.873436 798.000000,1350.000000 793.447715,1348.114382 790.000000,1344.666667 790.000000,1342.000000 790.000000,1293.149370 805.132097,1206.694327 760.000000,1188.000000 729.204734,1175.244183 706.755817,1195.204734 694.000000,1226.000000 685.280355,1247.051085 711.051085,1294.719645 690.000000,1286.000000 662.147079,1274.462942 631.852921,1246.462942 604.000000,1258.000000 566.018234,1273.732562 562.104659,1331.131663 598.000000,1346.000000 629.362266,1358.990676 659.362266,1369.009324 628.000000,1382.000000 591.179711,1397.251463 560.748537,1423.179711 576.000000,1460.000000 604.061275,1527.745910 664.254090,1464.061275 732.000000,1436.000000 736.131715,1434.288588 739.868285,1428.288588 744.000000,1430.000000 771.270302,1441.295729 888.729698,1518.704271 916.000000,1530.000000 923.243444,1533.000333 929.243444,1534.999667 922.000000,1538.000000 893.765204,1549.695235 772.234796,1630.304765 744.000000,1642.000000 741.779270,1642.919856 740.220730,1638.919856 738.000000,1638.000000 669.515562,1609.632817 606.367183,1539.515562 578.000000,1608.000000 559.694668,1652.192982 597.807018,1677.694668 642.000000,1696.000000 649.022565,1698.908842 631.022565,1707.091158 624.000000,1710.000000 610.170760,1715.728259 583.728259,1734.170760 578.000000,1748.000000 561.533537,1787.753558 599.784343,1829.829444 638.000000,1814.000000 645.554939,1810.870642 678.445061,1791.129358 686.000000,1788.000000 691.958288,1785.531996 696.000000,1779.550796 696.000000,1786.000000 696.000000,1798.091944 693.372613,1844.828500 698.000000,1856.000000 714.251762,1895.235224 772.044696,1896.519512 788.000000,1858.000000 796.611934,1837.208951 792.000000,1750.504069 792.000000,1728.000000 792.000000,1724.441145 796.712046,1723.361915 800.000000,1722.000000 826.931109,1710.844769 943.068891,1635.155231 970.000000,1624.000000 971.847759,1623.234633 976.000000,1618.666667 976.000000,1624.000000 976.000000,1692.000000 976.000000,1760.000000 976.000000,1828.000000 976.000000,1834.485644 965.991954,1837.518051 960.000000,1840.000000 951.713911,1843.432210 916.286089,1868.567790 908.000000,1872.000000 893.166197,1878.144362 864.144362,1895.166197 858.000000,1910.000000 841.533537,1949.753558 879.784343,1991.829444 918.000000,1976.000000 936.187890,1968.466329 951.812110,1955.533671 970.000000,1948.000000 977.915022,1944.721491 975.876679,2010.045423 980.000000,2020.000000 994.359403,2054.666667 1053.640597,2054.666667 1068.000000,2020.000000 1072.123321,2010.045423 1070.084978,1944.721491 1078.000000,1948.000000 1096.187890,1955.533671 1111.812110,1968.466329 1130.000000,1976.000000 1168.215657,1991.829444 1206.466463,1949.753558 1190.000000,1910.000000 1183.855638,1895.166197 1154.833803,1878.144362 1140.000000,1872.000000 1131.713911,1868.567790 1096.286089,1843.432210 1088.000000,1840.000000 1082.008046,1837.518051 1072.000000,1834.485644 1072.000000,1828.000000 1072.000000,1760.000000 1072.000000,1692.000000 1072.000000,1624.000000 1072.000000,1617.550796 1076.041712,1623.531996 1082.000000,1626.000000 1108.250796,1636.873436 1221.749204,1709.126564 1248.000000,1720.000000 1252.552285,1721.885618 1256.000000,1725.333333 1256.000000,1728.000000 1256.000000,1776.850630 1240.867903,1863.305673 1286.000000,1882.000000 1316.795266,1894.755817 1339.244183,1874.795266 1352.000000,1844.000000 1360.719645,1822.948915 1334.948915,1775.280355 1356.000000,1784.000000 1370.058628,1789.823275 1381.941372,1800.176725 1396.000000,1806.000000 1404.217394,1809.403756 1398.596244,1788.217394 1402.000000,1780.000000 1405.955270,1770.451133 1410.044730,1717.548867 1414.000000,1708.000000 1416.185670,1702.723325 1399.961408,1700.038592 1404.000000,1696.000000 1405.976905,1694.023095 1413.417050,1689.069893 1416.000000,1688.000000 1420.216654,1686.253405 1429.904762,1632.000000 1426.000000,1632.000000 1385.911210,1632.000000 1343.037213,1624.658684 1306.000000,1640.000000 1300.761950,1642.169671 1291.238050,1632.169671 1286.000000,1630.000000 1274.104615,1625.072770 1261.895385,1620.927230 1250.000000,1616.000000 1246.794847,1614.672382 1233.205153,1599.327618 1230.000000,1598.000000 1213.523240,1591.175103 1142.476760,1544.824897 1126.000000,1538.000000 1121.432861,1536.108229 1121.432861,1535.891771 1126.000000,1534.000000 1139.347121,1528.471442 1196.652879,1489.528558 1210.000000,1484.000000 1218.217394,1480.596244 1212.596244,1466.217394 1216.000000,1458.000000 1221.273693,1445.268178 1226.726307,1374.731822 1232.000000,1362.000000 1234.378314,1356.258243 1235.741757,1359.621686 1230.000000,1362.000000 1205.965175,1371.955550 1102.034825,1438.044450 1078.000000,1448.000000 1076.152241,1448.765367 1072.000000,1453.333333 1072.000000,1448.000000 1072.000000,1380.000000 1072.000000,1312.000000 1072.000000,1244.000000 1072.000000,1237.514356 1082.008046,1234.481949 1088.000000,1232.000000 1094.695810,1229.226505 1123.304190,1208.773495 1130.000000,1206.000000 1147.533325,1198.737459 1182.737459,1179.533325 1190.000000,1162.000000 1206.466463,1122.246442 1168.215657,1080.170556 1130.000000,1096.000000 1111.812110,1103.533671 1096.187890,1116.466329 1078.000000,1124.000000 1070.084978,1127.278509 1072.123321,1061.954577 1068.000000,1052.000000 Z M1730.000000,664.000000 C1726.311752,655.095783 1729.688248,651.095783 1726.000000,660.000000 1720.877078,672.367827 1709.122922,735.632173 1704.000000,748.000000 1700.883728,755.523347 1705.523347,765.116272 1698.000000,762.000000 1683.785315,756.112085 1614.214685,737.887915 1600.000000,732.000000 1594.124238,729.566180 1593.502887,729.502887 1598.000000,734.000000 1607.038733,743.038733 1662.961267,794.961267 1672.000000,804.000000 1682.441265,814.441265 1623.233821,844.000000 1638.000000,844.000000 1674.392918,844.000000 1712.377328,846.073033 1746.000000,860.000000 1751.876209,862.434006 1752.767742,851.004301 1760.000000,854.000000 1768.918409,857.694126 1813.081591,868.305874 1822.000000,872.000000 1847.291083,882.475910 1869.356957,895.356957 1850.000000,876.000000 1842.930762,868.930762 1799.069238,827.069238 1792.000000,820.000000 1786.334619,814.334619 1774.334619,811.665381 1780.000000,806.000000 1793.099739,792.900261 1840.884366,739.089528 1858.000000,732.000000 1861.193240,730.677317 1861.193240,728.677317 1858.000000,730.000000 1843.147938,736.151925 1770.852062,755.848075 1756.000000,762.000000 1749.122392,764.848799 1752.848799,756.877608 1750.000000,750.000000 1745.048149,738.045173 1734.951851,675.954827 1730.000000,664.000000 Z M1144.000000,436.000000 C1117.321963,424.949595 1050.678037,412.949595 1024.000000,424.000000 1008.520194,430.411946 977.588054,414.520194 984.000000,430.000000 991.149643,447.260766 1034.850357,522.739234 1042.000000,540.000000 1065.589137,596.949214 1095.589137,729.050786 1072.000000,786.000000 1065.311270,802.148024 1038.148024,829.311270 1022.000000,836.000000 985.577320,851.086768 943.423625,844.000000 904.000000,844.000000 887.963309,844.000000 798.036691,844.000000 782.000000,844.000000 746.774658,844.000000 709.480155,812.543973 696.000000,780.000000 692.698782,772.030154 691.301218,725.969846 688.000000,718.000000 679.975809,698.627889 691.372111,760.024191 672.000000,752.000000 659.616694,746.870667 606.383306,711.129333 594.000000,706.000000 515.123794,673.328406 416.876206,665.328406 338.000000,698.000000 333.790987,699.743430 335.743430,711.790987 334.000000,716.000000 330.140292,725.318159 325.859708,776.681841 322.000000,786.000000 310.763029,813.128448 281.128448,830.763029 254.000000,842.000000 231.459354,851.336641 161.336641,829.459354 152.000000,852.000000 141.949347,876.264422 130.050653,899.735578 120.000000,924.000000 102.047339,967.341557 98.047339,1072.658443 116.000000,1116.000000 117.869728,1120.513923 135.529365,1104.337079 146.000000,1100.000000 153.664211,1096.825380 188.335789,1081.174620 196.000000,1078.000000 208.775432,1072.708243 273.224568,1059.291757 286.000000,1054.000000 344.066174,1029.948203 575.149626,1040.000000 638.000000,1040.000000 663.799028,1040.000000 756.164806,1042.127140 780.000000,1052.000000 793.410620,1057.554861 810.589380,1023.554861 824.000000,1018.000000 840.584145,1011.130622 857.415855,1004.869378 874.000000,998.000000 880.349730,995.369856 897.369856,1000.349730 900.000000,994.000000 908.496518,973.487592 949.487592,944.496518 970.000000,936.000000 1004.497001,921.710874 1047.502999,923.710874 1082.000000,938.000000 1100.920612,945.837174 1138.162826,975.079388 1146.000000,994.000000 1147.191677,996.876963 1176.701001,998.633510 1180.000000,1000.000000 1219.351436,1016.299899 1261.700101,1042.648564 1278.000000,1082.000000 1281.227070,1089.790836 1282.772930,1065.790836 1286.000000,1058.000000 1298.605521,1027.567581 1337.060187,1000.000000 1370.000000,1000.000000 1489.333333,1000.000000 1608.666667,1000.000000 1728.000000,1000.000000 1767.700577,1000.000000 1802.807247,1039.321449 1818.000000,1076.000000 1825.502117,1094.111713 1811.502117,1133.888287 1804.000000,1152.000000 1791.949783,1181.091796 1712.050217,1306.908204 1700.000000,1336.000000 1698.288588,1340.131715 1689.527864,1348.000000 1694.000000,1348.000000 1706.086712,1348.000000 1754.833334,1352.625384 1766.000000,1348.000000 1794.896620,1336.030628 1838.030628,1278.896620 1850.000000,1250.000000 1897.377393,1135.620854 1846.300292,1005.687877 1736.000000,960.000000 1704.260900,946.853234 1629.739100,934.853234 1598.000000,948.000000 1590.247365,951.211247 1585.211247,953.752635 1582.000000,946.000000 1564.221935,903.079954 1478.920046,851.778065 1436.000000,834.000000 1426.894413,830.228342 1408.000000,833.855817 1408.000000,824.000000 1408.000000,768.182838 1407.360303,709.568333 1386.000000,658.000000 1363.636381,604.009448 1327.322579,555.322579 1286.000000,514.000000 1247.813324,475.813324 1193.893297,456.666480 1144.000000,436.000000 Z M570.000000,404.000000 C518.050820,382.481945 397.949180,418.481945 346.000000,440.000000 239.709816,484.026836 162.000000,630.952334 162.000000,746.000000 162.000000,748.666667 161.333333,748.000000 164.000000,748.000000 186.666667,748.000000 209.333333,748.000000 232.000000,748.000000 243.595545,748.000000 231.562577,720.712886 236.000000,710.000000 239.894203,700.598562 250.105797,653.401438 254.000000,644.000000 270.782920,603.482447 329.482447,526.782920 370.000000,510.000000 408.609072,494.007599 493.390928,458.007599 532.000000,474.000000 540.187722,477.391466 585.812278,480.608534 594.000000,484.000000 640.346286,503.197260 730.802740,561.653714 750.000000,608.000000 758.107913,627.574234 767.892087,646.425766 776.000000,666.000000 779.572041,674.623670 784.427959,721.376330 788.000000,730.000000 790.237062,735.400746 784.154275,748.000000 790.000000,748.000000 818.086982,748.000000 870.748423,763.948988 860.000000,738.000000 856.604371,729.802226 855.395629,682.197774 852.000000,674.000000 848.507801,665.569085 837.492199,624.430915 834.000000,616.000000 800.443902,534.988413 731.011587,461.556098 650.000000,428.000000 638.432972,423.208780 581.567028,408.791220 570.000000,404.000000 Z M690.000000,310.000000 C582.822895,265.605790 449.177105,261.605790 342.000000,306.000000 225.708556,354.169493 120.169493,453.708556 72.000000,570.000000 49.341632,624.702139 38.000000,683.411765 38.000000,746.000000 38.000000,748.666667 37.333333,748.000000 40.000000,748.000000 63.333333,748.000000 86.666667,748.000000 110.000000,748.000000 112.666667,748.000000 112.000000,748.666667 112.000000,746.000000 112.000000,584.365591 208.891423,440.591222 360.000000,378.000000 417.925929,354.006295 483.301427,350.000000 546.000000,350.000000 682.710427,350.000000 829.683185,473.696035 882.000000,600.000000 886.526204,610.927224 899.473796,665.072776 904.000000,676.000000 906.546722,682.148330 907.453278,717.851670 910.000000,724.000000 912.851849,730.884974 904.547758,748.000000 912.000000,748.000000 935.333333,748.000000 958.666667,748.000000 982.000000,748.000000 984.666667,748.000000 984.000000,748.666667 984.000000,746.000000 984.000000,554.761905 868.931268,384.115758 690.000000,310.000000 Z M1882.000000,204.000000 C1879.120366,197.047948 1882.879634,191.047948 1880.000000,198.000000 1874.116528,212.203959 1861.883472,285.796041 1856.000000,300.000000 1853.454741,306.144800 1846.144800,300.545259 1840.000000,298.000000 1827.306752,292.742284 1764.693248,277.257716 1752.000000,272.000000 1747.845209,270.279029 1746.820061,268.820061 1750.000000,272.000000 1759.281644,281.281644 1816.718356,334.718356 1826.000000,344.000000 1828.666667,346.666667 1828.666667,347.333333 1826.000000,350.000000 1817.204188,358.795812 1762.795812,409.204188 1754.000000,418.000000 1749.523510,422.476490 1744.151183,424.422659 1750.000000,422.000000 1763.819160,416.275917 1832.180840,399.724083 1846.000000,394.000000 1849.920424,392.376107 1854.376107,390.079576 1856.000000,394.000000 1861.883472,408.203959 1874.116528,481.796041 1880.000000,496.000000 1881.242551,498.999783 1878.757449,500.999783 1880.000000,498.000000 1885.588642,484.507825 1898.411358,415.492175 1904.000000,402.000000 1906.574529,395.784537 1903.784537,389.425471 1910.000000,392.000000 1921.810311,396.891991 1980.189689,411.108009 1992.000000,416.000000 2002.984635,420.549985 2018.407275,428.407275 2010.000000,420.000000 1997.574874,407.574874 1952.234210,358.724430 1936.000000,352.000000 1921.462497,345.978369 1946.873477,333.126523 1958.000000,322.000000 1966.731642,313.268358 1998.591560,278.725530 2010.000000,274.000000 2012.837816,272.824538 2012.837816,268.824538 2010.000000,270.000000 1996.912472,275.421032 1933.087528,292.578968 1920.000000,298.000000 1913.350583,300.754279 1906.754279,304.649417 1904.000000,298.000000 1898.582330,284.920588 1887.417670,217.079412 1882.000000,204.000000 Z M1344.000000,48.000000 C1340.636557,39.879929 1345.363443,37.879929 1342.000000,46.000000 1330.625741,73.459890 1305.374259,214.540110 1294.000000,242.000000 1289.212557,253.557909 1289.557909,256.787443 1278.000000,252.000000 1249.235955,240.085542 1106.764045,205.914458 1078.000000,194.000000 1073.447715,192.114382 1095.333333,211.333333 1098.000000,214.000000 1115.129782,231.129782 1220.870218,326.870218 1238.000000,344.000000 1242.714045,348.714045 1230.714045,355.285955 1226.000000,360.000000 1221.246226,364.753774 1229.788894,363.427276 1236.000000,366.000000 1291.926729,389.165610 1339.195535,431.195535 1382.000000,474.000000 1392.409839,484.409839 1386.366236,455.601110 1392.000000,442.000000 1395.001032,434.754867 1402.754867,438.998968 1410.000000,442.000000 1437.152132,453.246781 1570.847868,486.753219 1598.000000,498.000000 1603.697127,500.359827 1610.360392,502.360392 1606.000000,498.000000 1588.165452,480.165452 1477.834548,377.834548 1460.000000,360.000000 1453.787740,353.787740 1441.787740,350.212260 1448.000000,344.000000 1467.317010,324.682990 1586.682990,215.317010 1606.000000,196.000000 1608.666667,193.333333 1608.666667,194.000000 1606.000000,194.000000 1597.998709,194.000000 1575.392229,202.938038 1568.000000,206.000000 1545.019979,215.518636 1430.980021,242.481364 1408.000000,252.000000 1385.021846,261.517863 1393.517863,234.978154 1384.000000,212.000000 1374.488665,189.037607 1353.511335,70.962393 1344.000000,48.000000 Z "/></g>
</svg>