<?xml version="1.0" encoding="UTF-8"?>
<!DOCTYPE svg PUBLIC "-//W3C//DTD SVG 1.1 Tiny//EN" "http://www.w3.org/Graphics/SVG/1.1/DTD/svg11-tiny.dtd">
<svg version="1.1" width="2048" height="2048" viewBox="0 0 2048 2048" xmlns="http://www.w3.org/2000/svg">
<g fill="black">
<path d="M456.000000,1882.000000 C437.405866,1874.298058 419.860611,1894.349778 428.000000,1914.000000 435.106885,1931.157537 462.842463,1926.893115 480.000000,1934.000000 509.280488,1946.128375 559.871625,1939.280488 572.000000,1910.000000 575.502099,1901.545185 544.199601,1881.775187 534.000000,1886.000000 509.947567,1895.962844 480.052433,1891.962844 456.000000,1882.000000 Z M476.000000,1786.000000 C458.550160,1786.000000 408.121550,1761.322235 392.000000,1768.000000 358.798185,1781.752642 384.798185,1806.247358 418.000000,1820.000000 430.865137,1825.328914 476.074876,1832.000000 490.000000,1832.000000 492.666667,1832.000000 478.666667,1786.000000 476.000000,1786.000000 Z M370.000000,1670.000000 C335.059741,1655.527271 317.059741,1697.527271 352.000000,1712.000000 367.702788,1718.504308 456.297212,1723.495692 472.000000,1730.000000 486.807714,1736.133556 502.027754,1684.000000 486.000000,1684.000000 464.302156,1684.000000 390.046194,1678.303405 370.000000,1670.000000 Z M354.000000,1574.000000 C310.366543,1555.926430 253.926430,1548.366543 272.000000,1592.000000 278.435030,1607.535536 316.464464,1607.564970 332.000000,1614.000000 356.913101,1624.319344 447.034253,1634.000000 474.000000,1634.000000 476.666667,1634.000000 482.524096,1591.045515 480.000000,1590.000000 463.832322,1583.303129 370.167678,1580.696871 354.000000,1574.000000 Z M272.000000,1442.000000 C265.372583,1426.000000 238.627417,1426.000000 232.000000,1442.000000 217.554826,1476.873735 257.126265,1487.554826 292.000000,1502.000000 330.278822,1517.855607 464.567302,1538.000000 506.000000,1538.000000 513.372067,1538.000000 502.821168,1530.810901 500.000000,1524.000000 495.776975,1513.804715 490.223025,1504.195285 486.000000,1494.000000 481.956807,1484.238869 451.761131,1492.043193 442.000000,1488.000000 432.220768,1483.949309 377.779232,1480.050691 368.000000,1476.000000 344.087417,1466.095084 281.904916,1465.912583 272.000000,1442.000000 Z M478.000000,1270.000000 C482.178555,1259.912075 490.087925,1249.821445 480.000000,1254.000000 470.438690,1257.960424 413.561310,1258.039576 404.000000,1262.000000 388.813145,1268.290601 313.186855,1285.709399 298.000000,1292.000000 273.205356,1302.270278 261.205356,1329.729722 286.000000,1340.000000 300.045130,1345.817683 315.954870,1333.817683 330.000000,1328.000000 346.975460,1320.968534 437.024540,1309.031466 454.000000,1302.000000 459.024838,1299.918644 473.918644,1303.024838 476.000000,1298.000000 477.411311,1294.592793 476.588689,1273.407207 478.000000,1270.000000 Z M626.000000,1136.000000 C558.895270,1136.000000 317.996687,1136.320131 256.000000,1162.000000 224.735774,1174.950066 156.950066,1200.735774 144.000000,1232.000000 128.000000,1270.627417 128.000000,1291.372583 144.000000,1330.000000 160.542844,1369.937958 252.062042,1389.457156 292.000000,1406.000000 324.961138,1419.652950 438.323121,1440.000000 474.000000,1440.000000 479.845725,1440.000000 473.762938,1427.400746 476.000000,1422.000000 479.571712,1413.377124 484.622876,1397.571712 476.000000,1394.000000 467.802226,1390.604371 420.197774,1389.395629 412.000000,1386.000000 353.624928,1361.820254 206.179746,1362.375072 182.000000,1304.000000 161.473582,1254.444843 204.444843,1230.526418 254.000000,1210.000000 303.128466,1189.650323 488.823732,1180.000000 542.000000,1180.000000 552.153889,1180.000000 578.619030,1163.885725 588.000000,1160.000000 595.156429,1157.035710 615.035710,1163.156429 618.000000,1156.000000 622.795219,1144.423317 638.530511,1136.000000 626.000000,1136.000000 Z M1378.000000,1098.000000 C1372.344525,1098.000000 1376.164257,1108.775022 1374.000000,1114.000000 1361.198076,1144.906578 1346.801924,1315.093422 1334.000000,1346.000000 1324.103986,1369.891091 1315.896014,1504.108909 1306.000000,1528.000000 1302.412140,1536.661861 1304.624469,1536.000000 1314.000000,1536.000000 1388.666667,1536.000000 1463.333333,1536.000000 1538.000000,1536.000000 1544.034767,1536.000000 1542.309405,1542.424602 1540.000000,1548.000000 1530.016363,1572.102631 1519.983637,1705.897369 1510.000000,1730.000000 1497.466852,1760.257696 1486.533148,1929.742304 1474.000000,1960.000000 1472.132411,1964.508758 1470.132411,1970.508758 1472.000000,1966.000000 1505.655850,1884.747591 1728.344150,1533.252409 1762.000000,1452.000000 1763.569409,1448.211111 1768.101064,1446.000000 1764.000000,1446.000000 1686.666667,1446.000000 1609.333333,1446.000000 1532.000000,1446.000000 1523.885943,1446.000000 1532.894885,1439.496411 1536.000000,1432.000000 1557.464231,1380.180763 1698.535769,1155.819237 1720.000000,1104.000000 1721.569409,1100.211111 1726.101064,1098.000000 1722.000000,1098.000000 1607.333333,1098.000000 1492.666667,1098.000000 1378.000000,1098.000000 Z M1068.000000,1052.000000 C1052.536027,1014.666667 995.463973,1014.666667 980.000000,1052.000000 975.876679,1061.954577 977.915022,1127.278509 970.000000,1124.000000 951.812110,1116.466329 936.187890,1103.533671 918.000000,1096.000000 879.784343,1080.170556 841.533537,1122.246442 858.000000,1162.000000 865.262541,1179.533325 900.466675,1198.737459 918.000000,1206.000000 924.695810,1208.773495 953.304190,1229.226505 960.000000,1232.000000 965.991954,1234.481949 976.000000,1237.514356 976.000000,1244.000000 976.000000,1311.333333 976.000000,1378.666667 976.000000,1446.000000 976.000000,1453.087184 970.547704,1446.712148 964.000000,1444.000000 937.749204,1433.126564 824.250796,1360.873436 798.000000,1350.000000 793.447715,1348.114382 790.000000,1344.666667 790.000000,1342.000000 790.000000,1293.149370 805.132097,1206.694327 760.000000,1188.000000 729.204734,1175.244183 706.755817,1195.204734 694.000000,1226.000000 685.280355,1247.051085 711.051085,1294.719645 690.000000,1286.000000 662.147079,1274.462942 631.852921,1246.462942 604.000000,1258.000000 566.018234,1273.732562 562.104659,1331.131663 598.000000,1346.000000 629.362266,1358.990676 659.362266,1369.009324 628.000000,1382.000000 591.179711,1397.251463 560.748537,1423.179711 576.000000,1460.000000 604.061275,1527.745910 664.254090,1464.061275 732.000000,1436.000000 736.131715,1434.288588 739.868285,1428.288588 744.000000,1430.000000 771.270302,1441.295729 888.729698,1518.704271 916.000000,1530.000000 923.243444,1533.000333 929.243444,1534.999667 922.000000,1538.000000 893.765204,1549.695235 772.234796,1630.304765 744.000000,1642.000000 741.779270,1642.919856 740.220730,1638.919856 738.000000,1638.000000 669.515562,1609.632817 606.367183,1539.515562 578.000000,1608.000000 559.694668,1652.192982 597.807018,1677.694668 642.000000,1696.000000 649.022565,1698.908842 631.022565,1707.091158 624.000000,1710.000000 610.170760,1715.728259 583.728259,1734.170760 578.000000,1748.000000 561.533537,1787.753558 599.784343,1829.829444 638.000000,1814.000000 645.554939,1810.870642 678.445061,1791.129358 686.000000,1788.000000 691.958288,1785.531996 696.000000,1779.550796 696.000000,1786.000000 696.000000,1798.091944 693.372613,1844.828500 698.000000,1856.000000 714.251762,1895.235224 772.044696,1896.519512 788.000000,1858.000000 796.611934,1837.208951 792.000000,1750.504069 792.000000,1728.000000 792.000000,1724.441145 796.712046,1723.361915 800.000000,1722.000000 826.931109,1710.844769 943.068891,1635.155231 970.000000,1624.000000 971.847759,1623.234633 976.000000,1618.666667 976.000000,1624.000000 976.000000,1692.000000 976.000000,1760.000000 976.000000,1828.000000 976.000000,1834.485644 965.991954,1837.518051 960.000000,1840.000000 951.713911,1843.432210 916.286089,1868.567790 908.000000,1872.000000 893.166197,1878.144362 864.144362,1895.166197 858.000000,1910.000000 841.533537,1949.753558 879.784343,1991.829444 918.000000,1976.000000 936.187890,1968.466329 951.812110,1955.533671 970.000000,1948.000000 977.915022,1944.721491 975.876679,2010.045423 980.000000,2020.000000 994.359403,2054.666667 1053.640597,2054.666667 1068.000000,2020.000000 1072.123321,2010.045423 1070.084978,1944.721491 1078.000000,1948.000000 1096.187890,1955.533671 1111.812110,1968.466329 1130.000000,1976.000000 1168.215657,1991.829444 1206.466463,1949.753558 1190.000000,1910.000000 1183.855638,1895.166197 1154.833803,1878.144362 1140.000000,1872.000000 1131.713911,1868.567790 1096.286089,1843.432210 1088.000000,1840.000000 1082.008046,1837.518051 1072.000000,1834.485644 1072.000000,1828.000000 1072.000000,1760.000000 1072.000000,1692.000000 1072.000000,1624.000000 1072.000000,1617.550796 1076.041712,1623.531996 1082.000000,1626.000000 1108.250796,1636.873436 1221.749204,1709.126564 1248.000000,1720.000000 1252.552285,1721.885618 1256.000000,1725.333333 1256.000000,1728.000000 1256.000000,1776.850630 1240.867903,1863.305673 1286.000000,1882.000000 1316.795266,1894.755817 1339.244183,1874.795266 1352.000000,1844.000000 1360.719645,1822.948915 1334.948915,1775.280355 1356.000000,1784.000000 1370.058628,1789.823275 1381.941372,1800.176725 1396.000000,1806.000000 1404.217394,1809.403756 1398.596244,1788.217394 1402.000000,1780.000000 1405.955270,1770.451133 1410.044730,1717.548867 1414.000000,1708.000000 1416.185670,1702.723325 1399.961408,1700.038592 1404.000000,1696.000000 1405.976905,1694.023095 1413.417050,1689.069893 1416.000000,1688.000000 1420.216654,1686.253405 1429.904762,1632.000000 1426.000000,1632.000000 1385.911210,1632.000000 1343.037213,1624.658684 1306.000000,1640.000000 1300.761950,1642.169671 1291.238050,1632.169671 1286.000000,1630.000000 1274.104615,1625.072770 1261.895385,1620.927230 1250.000000,1616.000000 1246.794847,1614.672382 1233.205153,1599.327618 1230.000000,1598.000000 1213.523240,1591.175103 1142.476760,1544.824897 1126.000000,1538.000000 1121.432861,1536.108229 1121.432861,1535.891771 1126.000000,1534.000000 1139.347121,1528.471442 1196.652879,1489.528558 1210.000000,1484.000000 1218.217394,1480.596244 1212.596244,1466.217394 1216.000000,1458.000000 1221.273693,1445.268178 1226.726307,1374.731822 1232.000000,1362.000000 1234.378314,1356.258243 1235.741757,1359.621686 1230.000000,1362.000000 1205.965175,1371.955550 1102.034825,1438.044450 1078.000000,1448.000000 1076.152241,1448.765367 1072.000000,1453.333333 1072.000000,1448.000000 1072.000000,1380.000000 1072.000000,1312.000000 1072.000000,1244.000000 1072.000000,1237.514356 1082.008046,1234.481949 1088.000000,1232.000000 1094.695810,1229.226505 1123.304190,1208.773495 1130.000000,1206.000000 1147.533325,1198.737459 1182.737459,1179.533325 1190.000000,1162.000000 1206.466463,1122.246442 1168.215657,1080.170556 1130.000000,1096.000000 1111.812110,1103.533671 1096.187890,1116.466329 1078.000000,1124.000000 1070.084978,1127.278509 1072.123321,1061.954577 1068.000000,1052.000000 Z M1636.000000,944.000000 C1600.710166,858.802803 1500.385482,819.389535 1412.000000,856.000000 1367.037863,874.623927 1334.623927,921.037863 1316.000000,966.000000 1310.460046,979.374633 1319.374633,1007.539954 1306.000000,1002.000000 1287.208746,994.216408 1246.791254,1010.216408 1228.000000,1018.000000 1219.713648,1021.432319 1239.657901,1031.657901 1246.000000,1038.000000 1253.304818,1045.304818 1274.046661,1072.455795 1278.000000,1082.000000 1280.420303,1087.843127 1281.579697,1069.843127 1284.000000,1064.000000 1297.480155,1031.456027 1334.774658,1000.000000 1370.000000,1000.000000 1489.333333,1000.000000 1608.666667,1000.000000 1728.000000,1000.000000 1793.098039,1000.000000 1838.131912,1072.911984 1812.000000,1136.000000 1804.021697,1155.261326 1751.978303,1238.738674 1744.000000,1258.000000 1741.963791,1262.915843 1737.084157,1264.036209 1742.000000,1262.000000 1816.246648,1231.246031 1852.705343,1134.957683 1820.000000,1056.000000 1803.399398,1015.922602 1766.077398,982.600602 1726.000000,966.000000 1700.627398,955.490324 1671.463107,958.000000 1644.000000,958.000000 1638.429212,958.000000 1638.131848,949.146737 1636.000000,944.000000 Z M644.000000,854.000000 C557.156367,818.028189 489.971811,849.156367 454.000000,936.000000 452.327763,940.037138 450.266667,976.000000 448.000000,976.000000 441.458113,976.000000 424.043915,966.503472 418.000000,964.000000 398.304008,955.841653 349.695992,959.841653 330.000000,968.000000 279.924868,988.741799 252.741799,1015.924868 232.000000,1066.000000 230.337901,1070.012663 229.987337,1067.662099 234.000000,1066.000000 250.119379,1059.323135 337.880621,1050.676865 354.000000,1044.000000 358.757624,1042.029328 389.242376,1043.970672 394.000000,1042.000000 433.449082,1025.659655 595.300622,1040.000000 638.000000,1040.000000 663.799028,1040.000000 756.164806,1042.127140 780.000000,1052.000000 792.318394,1057.102446 799.681606,1033.102446 812.000000,1028.000000 820.276536,1024.571747 849.589379,1006.658342 848.000000,1006.000000 810.348209,990.404118 763.651791,982.404118 726.000000,998.000000 715.672469,1002.277803 703.722197,1012.327531 708.000000,1002.000000 728.568616,952.342967 693.657033,874.568616 644.000000,854.000000 Z M570.000000,404.000000 C518.050820,382.481945 397.949180,418.481945 346.000000,440.000000 239.709816,484.026836 162.000000,630.952334 162.000000,746.000000 162.000000,748.666667 161.333333,748.000000 164.000000,748.000000 186.666667,748.000000 209.333333,748.000000 232.000000,748.000000 243.595545,748.000000 231.562577,720.712886 236.000000,710.000000 239.894203,700.598562 250.105797,653.401438 254.000000,644.000000 270.782920,603.482447 329.482447,526.782920 370.000000,510.000000 408.609072,494.007599 493.390928,458.007599 532.000000,474.000000 540.187722,477.391466 585.812278,480.608534 594.000000,484.000000 640.346286,503.197260 730.802740,561.653714 750.000000,608.000000 758.107913,627.574234 767.892087,646.425766 776.000000,666.000000 779.572041,674.623670 784.427959,721.376330 788.000000,730.000000 790.237062,735.400746 784.154275,748.000000 790.000000,748.000000 818.086982,748.000000 870.748423,763.948988 860.000000,738.000000 856.604371,729.802226 855.395629,682.197774 852.000000,674.000000 848.507801,665.569085 837.492199,624.430915 834.000000,616.000000 800.443902,534.988413 731.011587,461.556098 650.000000,428.000000 638.432972,423.208780 581.567028,408.791220 570.000000,404.000000 Z M690.000000,310.000000 C582.822895,265.605790 449.177105,261.605790 342.000000,306.000000 225.708556,354.169493 120.169493,453.708556 72.000000,570.000000 49.341632,624.702139 38.000000,683.411765 38.000000,746.000000 38.000000,748.666667 37.333333,748.000000 40.000000,748.000000 63.333333,748.000000 86.666667,748.000000 110.000000,748.000000 112.666667,748.000000 112.000000,748.666667 112.000000,746.000000 112.000000,584.365591 208.891423,440.591222 360.000000,378.000000 417.925929,354.006295 483.301427,350.000000 546.000000,350.000000 682.710427,350.000000 829.683185,473.696035 882.000000,600.000000 886.526204,610.927224 899.473796,665.072776 904.000000,676.000000 906.546722,682.148330 907.453278,717.851670 910.000000,724.000000 912.851849,730.884974 904.547758,748.000000 912.000000,748.000000 935.333333,748.000000 958.666667,748.000000 982.000000,748.000000 984.666667,748.000000 984.000000,748.666667 984.000000,746.000000 984.000000,554.761905 868.931268,384.115758 690.000000,310.000000 Z M1640.000000,264.000000 C1505.624683,208.339921 1344.929540,270.216786 1292.000000,398.000000 1264.186990,465.146546 1260.186990,548.853454 1288.000000,616.000000 1299.885046,644.693040 1337.306960,706.114954 1366.000000,718.000000 1381.205427,724.298294 1404.794573,756.298294 1420.000000,750.000000 1457.986359,734.265535 1548.013641,750.265535 1586.000000,766.000000 1612.741131,777.076539 1643.258869,755.076539 1670.000000,744.000000 1708.352152,728.114019 1766.114019,656.352152 1782.000000,618.000000 1839.870656,478.287878 1776.611913,320.586507 1640.000000,264.000000 Z M1430.000000,96.000000 C1425.605004,94.179533 1423.820467,89.605004 1422.000000,94.000000 1416.058328,108.344465 1381.941672,171.655535 1376.000000,186.000000 1369.820506,200.918619 1366.918619,220.179494 1352.000000,214.000000 1338.576232,208.439693 1257.423768,209.560307 1244.000000,204.000000 1239.054526,201.951518 1228.000000,203.333333 1228.000000,206.000000 1228.000000,218.039338 1234.000000,285.960662 1234.000000,298.000000 1234.000000,311.513658 1246.484992,336.828547 1234.000000,342.000000 1215.994012,349.458324 1136.005988,390.541676 1118.000000,398.000000 1114.221919,399.564932 1118.435068,400.221919 1120.000000,404.000000 1127.043074,421.003486 1184.956926,492.996514 1192.000000,510.000000 1193.352534,513.265306 1185.352534,518.734694 1184.000000,522.000000 1177.355206,538.041952 1122.644794,605.958048 1116.000000,622.000000 1114.091458,626.607627 1121.392373,626.091458 1126.000000,628.000000 1139.720792,633.683338 1200.279208,666.316662 1214.000000,672.000000 1227.343001,677.526852 1243.526852,680.656999 1238.000000,694.000000 1232.439693,707.423768 1233.560307,788.576232 1228.000000,802.000000 1215.428561,832.350140 1265.149246,814.000000 1298.000000,814.000000 1306.012202,814.000000 1324.597690,791.066137 1332.000000,788.000000 1340.377413,784.529962 1362.377413,775.470038 1354.000000,772.000000 1314.116239,755.479605 1258.520395,673.883761 1242.000000,634.000000 1237.940112,624.198563 1226.059888,575.801437 1222.000000,566.000000 1202.109585,517.980291 1236.109585,408.019709 1256.000000,360.000000 1272.858767,319.299337 1343.299337,248.858767 1384.000000,232.000000 1432.019709,212.109585 1541.980291,178.109585 1590.000000,198.000000 1599.801437,202.059888 1648.198563,213.940112 1658.000000,218.000000 1820.431862,285.281480 1896.152529,471.465239 1828.000000,636.000000 1797.830111,708.836556 1732.836556,773.830111 1660.000000,804.000000 1654.639382,806.220441 1646.639382,805.779559 1652.000000,808.000000 1659.899443,811.272056 1679.954028,837.954028 1686.000000,844.000000 1694.609185,852.609185 1704.751558,803.340743 1716.000000,808.000000 1736.745999,816.593274 1817.544692,818.000000 1840.000000,818.000000 1842.666667,818.000000 1842.000000,818.666667 1842.000000,816.000000 1842.000000,793.544692 1840.593274,712.745999 1832.000000,692.000000 1828.104861,682.596304 1838.596304,679.895139 1848.000000,676.000000 1863.864011,669.428911 1934.135989,632.571089 1950.000000,626.000000 1952.350924,625.026215 1954.973785,624.350924 1954.000000,622.000000 1946.684996,604.340019 1885.315004,529.659981 1878.000000,512.000000 1876.409458,508.160091 1886.409458,501.839909 1888.000000,498.000000 1893.040513,485.831125 1932.959487,434.168875 1938.000000,422.000000 1942.567739,410.972502 1963.027498,400.567739 1952.000000,396.000000 1934.348393,388.688465 1855.651607,349.311535 1838.000000,342.000000 1825.022564,336.624570 1836.000000,314.046675 1836.000000,300.000000 1836.000000,287.716902 1842.000000,218.283098 1842.000000,206.000000 1842.000000,203.333333 1830.945474,201.951518 1826.000000,204.000000 1812.576232,209.560307 1731.423768,208.439693 1718.000000,214.000000 1703.081381,220.179494 1700.179494,200.918619 1694.000000,186.000000 1688.574995,172.902880 1657.425005,115.097120 1652.000000,102.000000 1650.091458,97.392373 1650.607627,90.091458 1646.000000,92.000000 1628.340019,99.315004 1553.659981,160.684996 1536.000000,168.000000 1532.734694,169.352534 1527.265306,161.352534 1524.000000,160.000000 1508.919591,153.753490 1445.080409,102.246510 1430.000000,96.000000 Z "/></g>
</svg>