<?xml version="1.0" encoding="UTF-8"?>
<!DOCTYPE svg PUBLIC "-//W3C//DTD SVG 1.1 Tiny//EN" "http://www.w3.org/Graphics/SVG/1.1/DTD/svg11-tiny.dtd">
<svg version="1.1" width="2048" height="2048" viewBox="0 0 2048 2048" xmlns="http://www.w3.org/2000/svg">
<g fill="black">
<path d="M448.000000,1916.000000 C445.436053,1909.810084 425.436053,1907.810084 428.000000,1914.000000 431.894273,1923.401606 444.598394,1926.105727 454.000000,1930.000000 467.634670,1935.647665 453.647665,1929.634670 448.000000,1916.000000 Z M764.000000,1860.000000 C760.247051,1850.939580 755.060420,1862.247051 746.000000,1866.000000 728.466675,1873.262541 693.262541,1892.466675 686.000000,1910.000000 669.533537,1949.753558 707.784343,1991.829444 746.000000,1976.000000 764.187890,1968.466329 779.812110,1955.533671 798.000000,1948.000000 805.915022,1944.721491 803.876679,2010.045423 808.000000,2020.000000 822.359403,2054.666667 881.640597,2054.666667 896.000000,2020.000000 897.803987,2015.644790 902.355210,2007.803987 898.000000,2006.000000 836.971092,1980.720999 789.279001,1921.028908 764.000000,1860.000000 Z M1232.000000,1606.000000 C1221.333333,1606.000000 1198.895431,1603.333333 1200.000000,1606.000000 1207.550038,1624.227403 1224.449962,1717.772597 1232.000000,1736.000000 1233.504651,1739.632550 1232.495349,1762.367450 1234.000000,1766.000000 1240.577934,1781.880538 1224.811030,1814.000000 1242.000000,1814.000000 1284.731858,1814.000000 1312.352774,1787.479089 1296.000000,1748.000000 1278.766785,1706.395339 1204.395339,1705.233215 1246.000000,1688.000000 1260.319063,1682.068850 1290.068850,1664.319063 1296.000000,1650.000000 1305.849778,1626.220533 1283.779467,1633.849778 1260.000000,1624.000000 1253.995179,1621.512722 1238.499571,1606.000000 1232.000000,1606.000000 Z M298.000000,1560.000000 C280.542098,1552.768700 264.121239,1572.978988 272.000000,1592.000000 275.712488,1600.962740 306.000000,1615.215686 306.000000,1608.000000 306.000000,1599.854986 312.883038,1575.525012 316.000000,1568.000000 318.512663,1561.933895 304.066105,1562.512663 298.000000,1560.000000 Z M300.000000,1458.000000 C269.497729,1445.365546 244.634454,1411.497729 232.000000,1442.000000 213.430367,1486.831060 273.168940,1491.430367 318.000000,1510.000000 325.183883,1512.975662 307.183883,1460.975662 300.000000,1458.000000 Z M306.000000,1322.000000 C300.142383,1307.858461 312.141539,1286.142383 298.000000,1292.000000 273.205356,1302.270278 261.205356,1329.729722 286.000000,1340.000000 302.982976,1347.034579 313.034579,1338.982976 306.000000,1322.000000 Z M992.000000,1168.000000 C990.527778,1164.445741 993.472222,1160.445741 992.000000,1164.000000 958.415484,1245.080193 885.584516,1662.919807 852.000000,1744.000000 843.841653,1763.695992 847.841653,1812.304008 856.000000,1832.000000 895.535313,1927.446688 976.553312,1945.535313 1072.000000,1906.000000 1124.497896,1884.254660 1157.745340,1800.497896 1136.000000,1748.000000 1102.271026,1666.571053 1025.728974,1249.428947 992.000000,1168.000000 Z M460.000000,1136.000000 C421.644464,1136.000000 291.435895,1147.321972 256.000000,1162.000000 224.735774,1174.950066 156.950066,1200.735774 144.000000,1232.000000 128.000000,1270.627417 128.000000,1291.372583 144.000000,1330.000000 161.349861,1371.886271 258.113729,1390.650139 300.000000,1408.000000 308.848960,1411.665359 324.848960,1367.665359 316.000000,1364.000000 280.429911,1349.266387 196.733613,1339.570089 182.000000,1304.000000 161.473582,1254.444843 204.444843,1230.526418 254.000000,1210.000000 267.830258,1204.271320 342.169742,1195.728680 356.000000,1190.000000 365.355086,1186.124997 406.644914,1163.875003 416.000000,1160.000000 423.156429,1157.035710 443.035710,1163.156429 446.000000,1156.000000 447.546007,1152.267609 462.666667,1136.000000 460.000000,1136.000000 Z M1374.000000,1098.000000 C1368.344525,1098.000000 1372.164257,1108.775022 1370.000000,1114.000000 1350.510248,1161.052424 1329.489752,1420.947576 1310.000000,1468.000000 1306.793293,1475.741676 1305.206707,1520.258324 1302.000000,1528.000000 1298.412140,1536.661861 1300.624469,1536.000000 1310.000000,1536.000000 1384.666667,1536.000000 1459.333333,1536.000000 1534.000000,1536.000000 1540.034767,1536.000000 1538.309405,1542.424602 1536.000000,1548.000000 1528.177013,1566.886362 1521.822987,1673.113638 1514.000000,1692.000000 1500.538847,1724.498098 1485.461153,1903.501902 1472.000000,1936.000000 1470.951326,1938.531724 1466.951326,1968.531724 1468.000000,1966.000000 1501.655850,1884.747591 1724.344150,1533.252409 1758.000000,1452.000000 1759.569409,1448.211111 1764.101064,1446.000000 1760.000000,1446.000000 1682.666667,1446.000000 1605.333333,1446.000000 1528.000000,1446.000000 1519.885943,1446.000000 1528.894885,1439.496411 1532.000000,1432.000000 1553.605624,1379.839409 1696.394376,1154.160591 1718.000000,1102.000000 1719.167815,1099.180646 1721.051646,1098.000000 1718.000000,1098.000000 1603.333333,1098.000000 1488.666667,1098.000000 1374.000000,1098.000000 Z M1224.000000,1074.000000 C1220.636557,1065.879929 1225.363443,1067.879929 1222.000000,1076.000000 1203.528533,1120.594065 1156.471467,1345.405935 1138.000000,1390.000000 1116.485567,1441.940436 1146.059564,1484.485567 1198.000000,1506.000000 1210.567803,1511.205754 1202.794246,1494.567803 1208.000000,1482.000000 1222.120380,1447.910387 1237.879620,1260.089613 1252.000000,1226.000000 1259.270583,1208.447261 1251.270583,1169.552739 1244.000000,1152.000000 1239.441537,1140.994897 1228.558463,1085.005103 1224.000000,1074.000000 Z M896.000000,1052.000000 C880.536027,1014.666667 823.463973,1014.666667 808.000000,1052.000000 803.876679,1061.954577 805.915022,1127.278509 798.000000,1124.000000 779.812110,1116.466329 764.187890,1103.533671 746.000000,1096.000000 707.784343,1080.170556 669.533537,1122.246442 686.000000,1162.000000 693.262541,1179.533325 728.466675,1198.737459 746.000000,1206.000000 752.695810,1208.773495 781.304190,1229.226505 788.000000,1232.000000 793.991954,1234.481949 804.000000,1237.514356 804.000000,1244.000000 804.000000,1311.333333 804.000000,1378.666667 804.000000,1446.000000 804.000000,1459.041110 790.048414,1440.990617 778.000000,1436.000000 753.965175,1426.044450 650.034825,1359.955550 626.000000,1350.000000 621.447715,1348.114382 618.000000,1344.666667 618.000000,1342.000000 618.000000,1293.149370 633.132097,1206.694327 588.000000,1188.000000 557.204734,1175.244183 534.755817,1195.204734 522.000000,1226.000000 513.280355,1247.051085 539.051085,1294.719645 518.000000,1286.000000 490.147079,1274.462942 459.852921,1246.462942 432.000000,1258.000000 394.018234,1273.732562 390.104659,1331.131663 426.000000,1346.000000 457.362266,1358.990676 487.362266,1369.009324 456.000000,1382.000000 419.179711,1397.251463 388.748537,1423.179711 404.000000,1460.000000 432.061275,1527.745910 492.254090,1464.061275 560.000000,1436.000000 564.131715,1434.288588 567.868285,1428.288588 572.000000,1430.000000 599.270302,1441.295729 716.729698,1518.704271 744.000000,1530.000000 751.243444,1533.000333 757.243444,1534.999667 750.000000,1538.000000 721.765204,1549.695235 600.234796,1630.304765 572.000000,1642.000000 569.779270,1642.919856 568.220730,1638.919856 566.000000,1638.000000 497.515562,1609.632817 434.367183,1539.515562 406.000000,1608.000000 387.694668,1652.192982 425.807018,1677.694668 470.000000,1696.000000 477.022565,1698.908842 459.022565,1707.091158 452.000000,1710.000000 438.170760,1715.728259 411.728259,1734.170760 406.000000,1748.000000 389.533537,1787.753558 427.784343,1829.829444 466.000000,1814.000000 473.554939,1810.870642 506.445061,1791.129358 514.000000,1788.000000 519.958288,1785.531996 524.000000,1779.550796 524.000000,1786.000000 524.000000,1798.091944 521.372613,1844.828500 526.000000,1856.000000 542.251762,1895.235224 600.044696,1896.519512 616.000000,1858.000000 624.611934,1837.208951 620.000000,1750.504069 620.000000,1728.000000 620.000000,1724.441145 624.712046,1723.361915 628.000000,1722.000000 650.499165,1712.680541 747.500835,1649.319459 770.000000,1640.000000 781.895385,1635.072770 779.072770,1615.895385 784.000000,1604.000000 810.965818,1538.898755 869.034182,1203.101245 896.000000,1138.000000 903.700792,1119.408642 903.700792,1070.591358 896.000000,1052.000000 Z M1636.000000,944.000000 C1600.710166,858.802803 1500.385482,819.389535 1412.000000,856.000000 1360.295721,877.416614 1312.000000,940.035692 1312.000000,996.000000 1312.000000,1004.434328 1302.434328,1000.000000 1294.000000,1000.000000 1286.209722,1000.000000 1301.018790,1006.802722 1304.000000,1014.000000 1310.080716,1028.680148 1317.319852,1014.080716 1332.000000,1008.000000 1338.343335,1005.372505 1359.134024,1000.000000 1366.000000,1000.000000 1485.333333,1000.000000 1604.666667,1000.000000 1724.000000,1000.000000 1789.098039,1000.000000 1834.131912,1072.911984 1808.000000,1136.000000 1799.621371,1156.227799 1744.378629,1243.772201 1736.000000,1264.000000 1734.337901,1268.012663 1733.987337,1265.662099 1738.000000,1264.000000 1815.900268,1231.732652 1853.395283,1136.623346 1820.000000,1056.000000 1803.399398,1015.922602 1766.077398,982.600602 1726.000000,966.000000 1700.627398,955.490324 1671.463107,958.000000 1644.000000,958.000000 1638.429212,958.000000 1638.131848,949.146737 1636.000000,944.000000 Z M622.000000,846.000000 C545.121527,814.155894 485.844106,859.121527 454.000000,936.000000 452.327763,940.037138 450.266667,976.000000 448.000000,976.000000 441.458113,976.000000 424.043915,966.503472 418.000000,964.000000 398.304008,955.841653 349.695992,959.841653 330.000000,968.000000 279.924868,988.741799 252.741799,1015.924868 232.000000,1066.000000 230.337901,1070.012663 229.987337,1067.662099 234.000000,1066.000000 299.710269,1038.781915 554.875717,1038.000000 626.000000,1038.000000 637.600976,1038.000000 665.282096,1010.439501 676.000000,1006.000000 682.020009,1003.506430 703.392484,1002.607516 708.000000,998.000000 710.363081,995.636919 708.721110,983.087514 710.000000,980.000000 715.011161,967.901988 709.011161,940.098012 704.000000,928.000000 689.207307,892.287279 657.712721,860.792693 622.000000,846.000000 Z M570.000000,404.000000 C518.050820,382.481945 397.949180,418.481945 346.000000,440.000000 239.709816,484.026836 162.000000,630.952334 162.000000,746.000000 162.000000,748.666667 161.333333,748.000000 164.000000,748.000000 186.666667,748.000000 209.333333,748.000000 232.000000,748.000000 243.595545,748.000000 231.562577,720.712886 236.000000,710.000000 239.894203,700.598562 250.105797,653.401438 254.000000,644.000000 270.782920,603.482447 329.482447,526.782920 370.000000,510.000000 408.609072,494.007599 493.390928,458.007599 532.000000,474.000000 540.187722,477.391466 585.812278,480.608534 594.000000,484.000000 640.346286,503.197260 730.802740,561.653714 750.000000,608.000000 758.107913,627.574234 767.892087,646.425766 776.000000,666.000000 779.572041,674.623670 784.427959,721.376330 788.000000,730.000000 790.237062,735.400746 784.154275,748.000000 790.000000,748.000000 818.086982,748.000000 870.748423,763.948988 860.000000,738.000000 856.604371,729.802226 855.395629,682.197774 852.000000,674.000000 848.507801,665.569085 837.492199,624.430915 834.000000,616.000000 800.443902,534.988413 731.011587,461.556098 650.000000,428.000000 638.432972,423.208780 581.567028,408.791220 570.000000,404.000000 Z M690.000000,310.000000 C582.822895,265.605790 449.177105,261.605790 342.000000,306.000000 225.708556,354.169493 120.169493,453.708556 72.000000,570.000000 49.341632,624.702139 38.000000,683.411765 38.000000,746.000000 38.000000,748.666667 37.333333,748.000000 40.000000,748.000000 63.333333,748.000000 86.666667,748.000000 110.000000,748.000000 112.666667,748.000000 112.000000,748.666667 112.000000,746.000000 112.000000,584.365591 208.891423,440.591222 360.000000,378.000000 417.925929,354.006295 483.301427,350.000000 546.000000,350.000000 682.710427,350.000000 829.683185,473.696035 882.000000,600.000000 886.526204,610.927224 899.473796,665.072776 904.000000,676.000000 906.546722,682.148330 907.453278,717.851670 910.000000,724.000000 912.851849,730.884974 904.547758,748.000000 912.000000,748.000000 935.333333,748.000000 958.666667,748.000000 982.000000,748.000000 984.666667,748.000000 984.000000,748.666667 984.000000,746.000000 984.000000,554.761905 868.931268,384.115758 690.000000,310.000000 Z M1558.000000,198.000000 C1526.078643,184.777741 1449.921357,204.777741 1418.000000,218.000000 1368.593032,238.465036 1278.465036,310.593032 1258.000000,360.000000 1238.109585,408.019709 1204.109585,517.980291 1224.000000,566.000000 1227.062007,573.392338 1234.937993,610.607662 1238.000000,618.000000 1256.507683,662.681499 1313.318501,753.492317 1358.000000,772.000000 1361.585716,773.485252 1368.414284,767.485252 1372.000000,766.000000 1434.835884,739.972525 1513.164116,735.972525 1576.000000,762.000000 1583.833086,765.244571 1618.166914,784.755429 1626.000000,788.000000 1632.617120,790.740901 1643.382880,808.740901 1650.000000,806.000000 1729.269606,773.165454 1797.165454,701.269606 1830.000000,622.000000 1831.447085,618.506428 1797.692519,641.985227 1788.000000,646.000000 1723.620972,672.666667 1650.379028,672.666667 1586.000000,646.000000 1535.924868,625.258201 1482.741799,572.075132 1462.000000,522.000000 1435.333333,457.620972 1435.333333,384.379028 1462.000000,320.000000 1477.902419,281.608165 1539.608165,215.902419 1578.000000,200.000000 1586.463176,196.494438 1566.463176,201.505562 1558.000000,198.000000 Z "/></g>
</svg>