<?xml version="1.0" encoding="UTF-8"?>
<!DOCTYPE svg PUBLIC "-//W3C//DTD SVG 1.1 Tiny//EN" "http://www.w3.org/Graphics/SVG/1.1/DTD/svg11-tiny.dtd">
<svg version="1.1" width="2048" height="2048" viewBox="0 0 2048 2048" xmlns="http://www.w3.org/2000/svg">
<g fill="black">
<path d="M1378.000000,1098.000000 C1372.344525,1098.000000 1376.164257,1108.775022 1374.000000,1114.000000 1361.198076,1144.906578 1346.801924,1315.093422 1334.000000,1346.000000 1324.103986,1369.891091 1315.896014,1504.108909 1306.000000,1528.000000 1302.412140,1536.661861 1304.624469,1536.000000 1314.000000,1536.000000 1388.666667,1536.000000 1463.333333,1536.000000 1538.000000,1536.000000 1544.034767,1536.000000 1542.309405,1542.424602 1540.000000,1548.000000 1530.016363,1572.102631 1519.983637,1705.897369 1510.000000,1730.000000 1497.466852,1760.257696 1486.533148,1929.742304 1474.000000,1960.000000 1472.132411,1964.508758 1470.132411,1970.508758 1472.000000,1966.000000 1505.655850,1884.747591 1728.344150,1533.252409 1762.000000,1452.000000 1763.569409,1448.211111 1768.101064,1446.000000 1764.000000,1446.000000 1686.666667,1446.000000 1609.333333,1446.000000 1532.000000,1446.000000 1523.885943,1446.000000 1532.894885,1439.496411 1536.000000,1432.000000 1557.464231,1380.180763 1698.535769,1155.819237 1720.000000,1104.000000 1721.569409,1100.211111 1726.101064,1098.000000 1722.000000,1098.000000 1607.333333,1098.000000 1492.666667,1098.000000 1378.000000,1098.000000 Z M556.000000,1052.000000 C540.536027,1014.666667 483.463973,1014.666667 468.000000,1052.000000 463.876679,1061.954577 465.915022,1127.278509 458.000000,1124.000000 439.812110,1116.466329 424.187890,1103.533671 406.000000,1096.000000 367.784343,1080.170556 329.533537,1122.246442 346.000000,1162.000000 353.262541,1179.533325 388.466675,1198.737459 406.000000,1206.000000 412.695810,1208.773495 441.304190,1229.226505 448.000000,1232.000000 453.991954,1234.481949 464.000000,1237.514356 464.000000,1244.000000 464.000000,1311.333333 464.000000,1378.666667 464.000000,1446.000000 464.000000,1450.753774 460.391915,1449.819191 456.000000,1448.000000 429.068891,1436.844769 312.931109,1361.155231 286.000000,1350.000000 281.447715,1348.114382 278.000000,1344.666667 278.000000,1342.000000 278.000000,1293.149370 293.132097,1206.694327 248.000000,1188.000000 217.204734,1175.244183 194.755817,1195.204734 182.000000,1226.000000 173.280355,1247.051085 199.051085,1294.719645 178.000000,1286.000000 150.147079,1274.462942 119.852921,1246.462942 92.000000,1258.000000 54.018234,1273.732562 50.104659,1331.131663 86.000000,1346.000000 117.362266,1358.990676 147.362266,1369.009324 116.000000,1382.000000 79.179711,1397.251463 48.748537,1423.179711 64.000000,1460.000000 93.534173,1531.301802 156.698198,1459.534173 228.000000,1430.000000 231.585716,1428.514748 238.414284,1434.514748 242.000000,1436.000000 267.000567,1446.355574 374.999433,1515.644426 400.000000,1526.000000 411.791792,1530.884320 417.791792,1537.115680 406.000000,1542.000000 378.443443,1553.414299 259.556557,1630.585701 232.000000,1642.000000 229.779270,1642.919856 228.220730,1638.919856 226.000000,1638.000000 157.515562,1609.632817 94.367183,1539.515562 66.000000,1608.000000 47.694668,1652.192982 85.807018,1677.694668 130.000000,1696.000000 137.022565,1698.908842 119.022565,1707.091158 112.000000,1710.000000 98.170760,1715.728259 71.728259,1734.170760 66.000000,1748.000000 49.533537,1787.753558 87.784343,1829.829444 126.000000,1814.000000 133.554939,1810.870642 166.445061,1791.129358 174.000000,1788.000000 179.958288,1785.531996 184.000000,1779.550796 184.000000,1786.000000 184.000000,1798.091944 181.372613,1844.828500 186.000000,1856.000000 202.251762,1895.235224 260.044696,1896.519512 276.000000,1858.000000 284.611934,1837.208951 280.000000,1750.504069 280.000000,1728.000000 280.000000,1724.441145 284.712046,1723.361915 288.000000,1722.000000 314.931109,1710.844769 431.068891,1635.155231 458.000000,1624.000000 459.847759,1623.234633 464.000000,1618.666667 464.000000,1624.000000 464.000000,1692.000000 464.000000,1760.000000 464.000000,1828.000000 464.000000,1834.485644 453.991954,1837.518051 448.000000,1840.000000 439.713911,1843.432210 404.286089,1868.567790 396.000000,1872.000000 381.166197,1878.144362 352.144362,1895.166197 346.000000,1910.000000 329.533537,1949.753558 367.784343,1991.829444 406.000000,1976.000000 424.187890,1968.466329 439.812110,1955.533671 458.000000,1948.000000 465.915022,1944.721491 463.876679,2010.045423 468.000000,2020.000000 482.359403,2054.666667 541.640597,2054.666667 556.000000,2020.000000 560.123321,2010.045423 558.084978,1944.721491 566.000000,1948.000000 584.187890,1955.533671 599.812110,1968.466329 618.000000,1976.000000 656.215657,1991.829444 694.466463,1949.753558 678.000000,1910.000000 671.855638,1895.166197 642.833803,1878.144362 628.000000,1872.000000 619.713911,1868.567790 584.286089,1843.432210 576.000000,1840.000000 570.008046,1837.518051 560.000000,1834.485644 560.000000,1828.000000 560.000000,1760.000000 560.000000,1692.000000 560.000000,1624.000000 560.000000,1617.550796 564.041712,1623.531996 570.000000,1626.000000 596.250796,1636.873436 709.749204,1709.126564 736.000000,1720.000000 740.552285,1721.885618 744.000000,1725.333333 744.000000,1728.000000 744.000000,1776.850630 728.867903,1863.305673 774.000000,1882.000000 804.795266,1894.755817 827.244183,1874.795266 840.000000,1844.000000 848.719645,1822.948915 822.948915,1775.280355 844.000000,1784.000000 871.852921,1795.537058 902.147079,1823.537058 930.000000,1812.000000 992.785076,1785.993570 956.785076,1726.006430 894.000000,1700.000000 884.404504,1696.025416 896.404504,1691.974584 906.000000,1688.000000 942.820289,1672.748537 973.251463,1646.820289 958.000000,1610.000000 928.465827,1538.698198 865.301802,1610.465827 794.000000,1640.000000 790.414284,1641.485252 783.585716,1635.485252 780.000000,1634.000000 753.694420,1623.103872 640.305580,1548.896128 614.000000,1538.000000 607.902706,1535.474418 621.902706,1526.525582 628.000000,1524.000000 653.965983,1513.244538 766.034017,1440.755462 792.000000,1430.000000 794.220730,1429.080144 795.779270,1433.080144 798.000000,1434.000000 866.484438,1462.367183 929.632817,1532.484438 958.000000,1464.000000 976.305332,1419.807018 938.192982,1394.305332 894.000000,1376.000000 886.977435,1373.091158 904.977435,1364.908842 912.000000,1362.000000 925.829240,1356.271741 952.271741,1337.829240 958.000000,1324.000000 974.466463,1284.246442 936.215657,1242.170556 898.000000,1258.000000 890.445061,1261.129358 857.554939,1280.870642 850.000000,1284.000000 844.041712,1286.468004 840.000000,1292.449204 840.000000,1286.000000 840.000000,1273.908056 842.627387,1227.171500 838.000000,1216.000000 821.748238,1176.764776 763.955304,1175.480488 748.000000,1214.000000 739.388066,1234.791049 744.000000,1321.495931 744.000000,1344.000000 744.000000,1347.558855 739.287954,1348.638085 736.000000,1350.000000 709.068891,1361.155231 592.931109,1436.844769 566.000000,1448.000000 564.152241,1448.765367 560.000000,1453.333333 560.000000,1448.000000 560.000000,1380.000000 560.000000,1312.000000 560.000000,1244.000000 560.000000,1237.514356 570.008046,1234.481949 576.000000,1232.000000 588.044793,1227.010884 639.955207,1192.989116 652.000000,1188.000000 691.175415,1171.773012 692.460793,1113.930982 654.000000,1098.000000 625.741433,1086.294918 594.258567,1112.294918 566.000000,1124.000000 558.084978,1127.278509 560.123321,1061.954577 556.000000,1052.000000 Z M394.000000,962.000000 C371.408053,952.642109 322.591947,972.642109 300.000000,982.000000 262.550260,997.512190 243.512190,1042.550260 228.000000,1080.000000 223.478796,1090.915152 251.478796,1092.915152 256.000000,1082.000000 272.299899,1042.648564 314.648564,1016.299899 354.000000,1000.000000 359.861825,997.571953 383.513554,1000.486446 388.000000,996.000000 391.696692,992.303308 408.303308,969.696692 412.000000,966.000000 418.434533,959.565467 402.407122,965.482344 394.000000,962.000000 Z M1636.000000,944.000000 C1600.710166,858.802803 1500.385482,819.389535 1412.000000,856.000000 1367.037863,874.623927 1334.623927,921.037863 1316.000000,966.000000 1310.460046,979.374633 1319.374633,1007.539954 1306.000000,1002.000000 1283.972119,992.875753 1238.027881,1014.875753 1216.000000,1024.000000 1197.188088,1031.792149 1171.792149,1069.188088 1164.000000,1088.000000 1134.074477,1160.246603 1169.189070,1238.183871 1246.000000,1270.000000 1251.343013,1272.213148 1247.786852,1267.343013 1250.000000,1262.000000 1260.919898,1235.637034 1273.080102,1090.362966 1284.000000,1064.000000 1297.480155,1031.456027 1334.774658,1000.000000 1370.000000,1000.000000 1489.333333,1000.000000 1608.666667,1000.000000 1728.000000,1000.000000 1793.098039,1000.000000 1838.131912,1072.911984 1812.000000,1136.000000 1804.021697,1155.261326 1751.978303,1238.738674 1744.000000,1258.000000 1741.963791,1262.915843 1737.084157,1264.036209 1742.000000,1262.000000 1816.246648,1231.246031 1852.705343,1134.957683 1820.000000,1056.000000 1803.399398,1015.922602 1766.077398,982.600602 1726.000000,966.000000 1700.627398,955.490324 1671.463107,958.000000 1644.000000,958.000000 1638.429212,958.000000 1638.131848,949.146737 1636.000000,944.000000 Z M644.000000,854.000000 C560.816702,819.544350 492.455650,844.816702 458.000000,928.000000 454.932673,935.405183 450.594817,939.067327 458.000000,936.000000 490.189514,922.666667 531.810486,922.666667 564.000000,936.000000 584.512408,944.496518 625.503482,973.487592 634.000000,994.000000 635.191677,996.876963 664.701001,998.633510 668.000000,1000.000000 708.153051,1016.631938 749.368062,1045.846949 766.000000,1086.000000 767.813411,1090.377961 771.622039,1091.813411 776.000000,1090.000000 796.420883,1081.541393 841.579117,1097.541393 862.000000,1106.000000 876.055351,1111.821917 906.786598,1158.000000 922.000000,1158.000000 926.231790,1158.000000 922.380564,1149.909664 924.000000,1146.000000 933.018680,1124.226981 913.018680,1077.773019 904.000000,1056.000000 894.201054,1032.343251 845.656749,1003.798946 822.000000,994.000000 799.980244,984.879118 748.019756,988.879118 726.000000,998.000000 715.672469,1002.277803 703.722197,1012.327531 708.000000,1002.000000 728.568616,952.342967 693.657033,874.568616 644.000000,854.000000 Z M1640.000000,264.000000 C1505.624683,208.339921 1344.929540,270.216786 1292.000000,398.000000 1264.186990,465.146546 1260.186990,548.853454 1288.000000,616.000000 1299.885046,644.693040 1337.306960,706.114954 1366.000000,718.000000 1381.205427,724.298294 1404.794573,756.298294 1420.000000,750.000000 1457.986359,734.265535 1548.013641,750.265535 1586.000000,766.000000 1612.741131,777.076539 1643.258869,755.076539 1670.000000,744.000000 1708.352152,728.114019 1766.114019,656.352152 1782.000000,618.000000 1839.870656,478.287878 1776.611913,320.586507 1640.000000,264.000000 Z M1430.000000,96.000000 C1425.605004,94.179533 1423.820467,89.605004 1422.000000,94.000000 1416.058328,108.344465 1381.941672,171.655535 1376.000000,186.000000 1369.820506,200.918619 1366.918619,220.179494 1352.000000,214.000000 1338.576232,208.439693 1257.423768,209.560307 1244.000000,204.000000 1239.054526,201.951518 1228.000000,203.333333 1228.000000,206.000000 1228.000000,218.039338 1234.000000,285.960662 1234.000000,298.000000 1234.000000,311.513658 1246.484992,336.828547 1234.000000,342.000000 1215.994012,349.458324 1136.005988,390.541676 1118.000000,398.000000 1114.221919,399.564932 1118.435068,400.221919 1120.000000,404.000000 1127.043074,421.003486 1184.956926,492.996514 1192.000000,510.000000 1193.352534,513.265306 1185.352534,518.734694 1184.000000,522.000000 1177.355206,538.041952 1122.644794,605.958048 1116.000000,622.000000 1114.091458,626.607627 1121.392373,626.091458 1126.000000,628.000000 1139.720792,633.683338 1200.279208,666.316662 1214.000000,672.000000 1227.343001,677.526852 1243.526852,680.656999 1238.000000,694.000000 1232.439693,707.423768 1233.560307,788.576232 1228.000000,802.000000 1215.428561,832.350140 1265.149246,814.000000 1298.000000,814.000000 1306.012202,814.000000 1324.597690,791.066137 1332.000000,788.000000 1340.377413,784.529962 1362.377413,775.470038 1354.000000,772.000000 1314.116239,755.479605 1258.520395,673.883761 1242.000000,634.000000 1237.940112,624.198563 1226.059888,575.801437 1222.000000,566.000000 1202.109585,517.980291 1236.109585,408.019709 1256.000000,360.000000 1272.858767,319.299337 1343.299337,248.858767 1384.000000,232.000000 1432.019709,212.109585 1541.980291,178.109585 1590.000000,198.000000 1599.801437,202.059888 1648.198563,213.940112 1658.000000,218.000000 1820.431862,285.281480 1896.152529,471.465239 1828.000000,636.000000 1797.830111,708.836556 1732.836556,773.830111 1660.000000,804.000000 1654.639382,806.220441 1646.639382,805.779559 1652.000000,808.000000 1659.899443,811.272056 1679.954028,837.954028 1686.000000,844.000000 1694.609185,852.609185 1704.751558,803.340743 1716.000000,808.000000 1736.745999,816.593274 1817.544692,818.000000 1840.000000,818.000000 1842.666667,818.000000 1842.000000,818.666667 1842.000000,816.000000 1842.000000,793.544692 1840.593274,712.745999 1832.000000,692.000000 1828.104861,682.596304 1838.596304,679.895139 1848.000000,676.000000 1863.864011,669.428911 1934.135989,632.571089 1950.000000,626.000000 1952.350924,625.026215 1954.973785,624.350924 1954.000000,622.000000 1946.684996,604.340019 1885.315004,529.659981 1878.000000,512.000000 1876.409458,508.160091 1886.409458,501.839909 1888.000000,498.000000 1893.040513,485.831125 1932.959487,434.168875 1938.000000,422.000000 1942.567739,410.972502 1963.027498,400.567739 1952.000000,396.000000 1934.348393,388.688465 1855.651607,349.311535 1838.000000,342.000000 1825.022564,336.624570 1836.000000,314.046675 1836.000000,300.000000 1836.000000,287.716902 1842.000000,218.283098 1842.000000,206.000000 1842.000000,203.333333 1830.945474,201.951518 1826.000000,204.000000 1812.576232,209.560307 1731.423768,208.439693 1718.000000,214.000000 1703.081381,220.179494 1700.179494,200.918619 1694.000000,186.000000 1688.574995,172.902880 1657.425005,115.097120 1652.000000,102.000000 1650.091458,97.392373 1650.607627,90.091458 1646.000000,92.000000 1628.340019,99.315004 1553.659981,160.684996 1536.000000,168.000000 1532.734694,169.352534 1527.265306,161.352534 1524.000000,160.000000 1508.919591,153.753490 1445.080409,102.246510 1430.000000,96.000000 Z "/></g>
</svg>