<?xml version="1.0" encoding="UTF-8"?>
<!DOCTYPE svg PUBLIC "-//W3C//DTD SVG 1.1 Tiny//EN" "http://www.w3.org/Graphics/SVG/1.1/DTD/svg11-tiny.dtd">
<svg version="1.1" width="2048" height="2048" viewBox="0 0 2048 2048" xmlns="http://www.w3.org/2000/svg">
<g fill="black">
<path d="M810.000000,1396.000000 C730.806967,1363.197172 640.341468,1399.920790 608.000000,1478.000000 555.669745,1604.336412 683.663588,1732.330255 810.000000,1680.000000 935.333333,1628.085234 935.333333,1447.914766 810.000000,1396.000000 Z M330.000000,1404.000000 C292.631386,1388.521413 247.368614,1370.521413 210.000000,1386.000000 183.643487,1396.917225 128.917225,1427.643487 118.000000,1454.000000 102.521413,1491.368614 84.521413,1536.631386 100.000000,1574.000000 110.917225,1600.356513 141.643487,1655.082775 168.000000,1666.000000 205.368614,1681.478587 250.631386,1699.478587 288.000000,1684.000000 314.356513,1673.082775 369.082775,1642.356513 380.000000,1616.000000 395.478587,1578.631386 413.478587,1533.368614 398.000000,1496.000000 387.082775,1469.643487 356.356513,1414.917225 330.000000,1404.000000 Z M1378.000000,1098.000000 C1372.344525,1098.000000 1376.164257,1108.775022 1374.000000,1114.000000 1361.198076,1144.906578 1346.801924,1315.093422 1334.000000,1346.000000 1324.103986,1369.891091 1315.896014,1504.108909 1306.000000,1528.000000 1302.412140,1536.661861 1304.624469,1536.000000 1314.000000,1536.000000 1388.666667,1536.000000 1463.333333,1536.000000 1538.000000,1536.000000 1544.034767,1536.000000 1542.309405,1542.424602 1540.000000,1548.000000 1530.016363,1572.102631 1519.983637,1705.897369 1510.000000,1730.000000 1497.466852,1760.257696 1486.533148,1929.742304 1474.000000,1960.000000 1472.132411,1964.508758 1470.132411,1970.508758 1472.000000,1966.000000 1505.655850,1884.747591 1728.344150,1533.252409 1762.000000,1452.000000 1763.569409,1448.211111 1768.101064,1446.000000 1764.000000,1446.000000 1686.666667,1446.000000 1609.333333,1446.000000 1532.000000,1446.000000 1523.885943,1446.000000 1532.894885,1439.496411 1536.000000,1432.000000 1557.464231,1380.180763 1698.535769,1155.819237 1720.000000,1104.000000 1721.569409,1100.211111 1726.101064,1098.000000 1722.000000,1098.000000 1607.333333,1098.000000 1492.666667,1098.000000 1378.000000,1098.000000 Z M1636.000000,944.000000 C1600.710166,858.802803 1500.385482,819.389535 1412.000000,856.000000 1367.037863,874.623927 1334.623927,921.037863 1316.000000,966.000000 1310.460046,979.374633 1319.374633,1007.539954 1306.000000,1002.000000 1283.972119,992.875753 1238.027881,1014.875753 1216.000000,1024.000000 1197.188088,1031.792149 1171.792149,1069.188088 1164.000000,1088.000000 1134.074477,1160.246603 1169.189070,1238.183871 1246.000000,1270.000000 1251.343013,1272.213148 1247.786852,1267.343013 1250.000000,1262.000000 1260.919898,1235.637034 1273.080102,1090.362966 1284.000000,1064.000000 1297.480155,1031.456027 1334.774658,1000.000000 1370.000000,1000.000000 1489.333333,1000.000000 1608.666667,1000.000000 1728.000000,1000.000000 1793.098039,1000.000000 1838.131912,1072.911984 1812.000000,1136.000000 1804.021697,1155.261326 1751.978303,1238.738674 1744.000000,1258.000000 1741.963791,1262.915843 1737.084157,1264.036209 1742.000000,1262.000000 1816.246648,1231.246031 1852.705343,1134.957683 1820.000000,1056.000000 1803.399398,1015.922602 1766.077398,982.600602 1726.000000,966.000000 1700.627398,955.490324 1671.463107,958.000000 1644.000000,958.000000 1638.429212,958.000000 1638.131848,949.146737 1636.000000,944.000000 Z M644.000000,854.000000 C557.156367,818.028189 489.971811,849.156367 454.000000,936.000000 452.327763,940.037138 450.266667,976.000000 448.000000,976.000000 444.398041,976.000000 435.327776,969.378410 432.000000,968.000000 391.121303,951.067489 340.878697,965.067489 300.000000,982.000000 261.689003,997.868934 241.868934,1043.689003 226.000000,1082.000000 214.437071,1109.915380 232.437071,1172.084620 244.000000,1200.000000 262.162749,1243.848756 324.538448,1278.000000 372.000000,1278.000000 512.666667,1278.000000 653.333333,1278.000000 794.000000,1278.000000 843.719752,1278.000000 896.973075,1231.935061 916.000000,1186.000000 963.964495,1070.203465 842.305210,949.824805 726.000000,998.000000 715.672469,1002.277803 703.722197,1012.327531 708.000000,1002.000000 728.568616,952.342967 693.657033,874.568616 644.000000,854.000000 Z M1640.000000,264.000000 C1505.624683,208.339921 1344.929540,270.216786 1292.000000,398.000000 1264.186990,465.146546 1260.186990,548.853454 1288.000000,616.000000 1299.885046,644.693040 1337.306960,706.114954 1366.000000,718.000000 1381.205427,724.298294 1404.794573,756.298294 1420.000000,750.000000 1457.986359,734.265535 1548.013641,750.265535 1586.000000,766.000000 1612.741131,777.076539 1643.258869,755.076539 1670.000000,744.000000 1708.352152,728.114019 1766.114019,656.352152 1782.000000,618.000000 1839.870656,478.287878 1776.611913,320.586507 1640.000000,264.000000 Z M1430.000000,96.000000 C1425.605004,94.179533 1423.820467,89.605004 1422.000000,94.000000 1416.058328,108.344465 1381.941672,171.655535 1376.000000,186.000000 1369.820506,200.918619 1366.918619,220.179494 1352.000000,214.000000 1338.576232,208.439693 1257.423768,209.560307 1244.000000,204.000000 1239.054526,201.951518 1228.000000,203.333333 1228.000000,206.000000 1228.000000,218.039338 1234.000000,285.960662 1234.000000,298.000000 1234.000000,311.513658 1246.484992,336.828547 1234.000000,342.000000 1215.994012,349.458324 1136.005988,390.541676 1118.000000,398.000000 1114.221919,399.564932 1118.435068,400.221919 1120.000000,404.000000 1127.043074,421.003486 1184.956926,492.996514 1192.000000,510.000000 1193.352534,513.265306 1185.352534,518.734694 1184.000000,522.000000 1177.355206,538.041952 1122.644794,605.958048 1116.000000,622.000000 1114.091458,626.607627 1121.392373,626.091458 1126.000000,628.000000 1139.720792,633.683338 1200.279208,666.316662 1214.000000,672.000000 1227.343001,677.526852 1243.526852,680.656999 1238.000000,694.000000 1232.439693,707.423768 1233.560307,788.576232 1228.000000,802.000000 1215.428561,832.350140 1265.149246,814.000000 1298.000000,814.000000 1306.012202,814.000000 1324.597690,791.066137 1332.000000,788.000000 1340.377413,784.529962 1362.377413,775.470038 1354.000000,772.000000 1314.116239,755.479605 1258.520395,673.883761 1242.000000,634.000000 1237.940112,624.198563 1226.059888,575.801437 1222.000000,566.000000 1202.109585,517.980291 1236.109585,408.019709 1256.000000,360.000000 1272.858767,319.299337 1343.299337,248.858767 1384.000000,232.000000 1432.019709,212.109585 1541.980291,178.109585 1590.000000,198.000000 1599.801437,202.059888 1648.198563,213.940112 1658.000000,218.000000 1820.431862,285.281480 1896.152529,471.465239 1828.000000,636.000000 1797.830111,708.836556 1732.836556,773.830111 1660.000000,804.000000 1654.639382,806.220441 1646.639382,805.779559 1652.000000,808.000000 1659.899443,811.272056 1679.954028,837.954028 1686.000000,844.000000 1694.609185,852.609185 1704.751558,803.340743 1716.000000,808.000000 1736.745999,816.593274 1817.544692,818.000000 1840.000000,818.000000 1842.666667,818.000000 1842.000000,818.666667 1842.000000,816.000000 1842.000000,793.544692 1840.593274,712.745999 1832.000000,692.000000 1828.104861,682.596304 1838.596304,679.895139 1848.000000,676.000000 1863.864011,669.428911 1934.135989,632.571089 1950.000000,626.000000 1952.350924,625.026215 1954.973785,624.350924 1954.000000,622.000000 1946.684996,604.340019 1885.315004,529.659981 1878.000000,512.000000 1876.409458,508.160091 1886.409458,501.839909 1888.000000,498.000000 1893.040513,485.831125 1932.959487,434.168875 1938.000000,422.000000 1942.567739,410.972502 1963.027498,400.567739 1952.000000,396.000000 1934.348393,388.688465 1855.651607,349.311535 1838.000000,342.000000 1825.022564,336.624570 1836.000000,314.046675 1836.000000,300.000000 1836.000000,287.716902 1842.000000,218.283098 1842.000000,206.000000 1842.000000,203.333333 1830.945474,201.951518 1826.000000,204.000000 1812.576232,209.560307 1731.423768,208.439693 1718.000000,214.000000 1703.081381,220.179494 1700.179494,200.918619 1694.000000,186.000000 1688.574995,172.902880 1657.425005,115.097120 1652.000000,102.000000 1650.091458,97.392373 1650.607627,90.091458 1646.000000,92.000000 1628.340019,99.315004 1553.659981,160.684996 1536.000000,168.000000 1532.734694,169.352534 1527.265306,161.352534 1524.000000,160.000000 1508.919591,153.753490 1445.080409,102.246510 1430.000000,96.000000 Z "/></g>
</svg>