<?xml version="1.0" encoding="UTF-8"?>
<!DOCTYPE svg PUBLIC "-//W3C//DTD SVG 1.1 Tiny//EN" "http://www.w3.org/Graphics/SVG/1.1/DTD/svg11-tiny.dtd">
<svg version="1.1" width="2048" height="2048" viewBox="0 0 2048 2048" xmlns="http://www.w3.org/2000/svg">
<g fill="black">
<path d="M1276.000000,1628.000000 C1272.883709,1626.709190 1275.290810,1626.883709 1274.000000,1630.000000 1267.211772,1646.388233 1250.788228,1729.611767 1244.000000,1746.000000 1218.479855,1807.611080 1296.831155,1887.336965 1358.000000,1862.000000 1368.205174,1857.772878 1389.772878,1850.205174 1394.000000,1840.000000 1399.185500,1827.481097 1402.814500,1756.518903 1408.000000,1744.000000 1420.288317,1714.333379 1412.288317,1677.666621 1400.000000,1648.000000 1397.726931,1642.512325 1399.939816,1632.000000 1394.000000,1632.000000 1373.511961,1632.000000 1294.928480,1635.840433 1276.000000,1628.000000 Z M824.000000,1168.000000 C821.649436,1162.325237 824.350564,1160.325237 822.000000,1166.000000 804.717457,1207.723749 769.282543,1424.276251 752.000000,1466.000000 736.434200,1503.579166 701.565800,1696.420834 686.000000,1734.000000 658.422870,1800.577081 698.510500,1888.388080 770.000000,1918.000000 857.430501,1954.214899 929.785101,1911.430501 966.000000,1824.000000 973.023621,1807.043478 975.023621,1764.956522 968.000000,1748.000000 934.271026,1666.571053 857.728974,1249.428947 824.000000,1168.000000 Z M1378.000000,1098.000000 C1372.344525,1098.000000 1376.164257,1108.775022 1374.000000,1114.000000 1361.198076,1144.906578 1346.801924,1315.093422 1334.000000,1346.000000 1324.103986,1369.891091 1315.896014,1504.108909 1306.000000,1528.000000 1302.412140,1536.661861 1304.624469,1536.000000 1314.000000,1536.000000 1388.666667,1536.000000 1463.333333,1536.000000 1538.000000,1536.000000 1544.034767,1536.000000 1542.309405,1542.424602 1540.000000,1548.000000 1530.016363,1572.102631 1519.983637,1705.897369 1510.000000,1730.000000 1497.466852,1760.257696 1486.533148,1929.742304 1474.000000,1960.000000 1472.132411,1964.508758 1470.132411,1970.508758 1472.000000,1966.000000 1505.655850,1884.747591 1728.344150,1533.252409 1762.000000,1452.000000 1763.569409,1448.211111 1768.101064,1446.000000 1764.000000,1446.000000 1686.666667,1446.000000 1609.333333,1446.000000 1532.000000,1446.000000 1523.885943,1446.000000 1532.894885,1439.496411 1536.000000,1432.000000 1557.464231,1380.180763 1698.535769,1155.819237 1720.000000,1104.000000 1721.569409,1100.211111 1726.101064,1098.000000 1722.000000,1098.000000 1607.333333,1098.000000 1492.666667,1098.000000 1378.000000,1098.000000 Z M1056.000000,1074.000000 C1052.636557,1065.879929 1057.363443,1067.879929 1054.000000,1076.000000 1035.528533,1120.594065 988.471467,1345.405935 970.000000,1390.000000 943.047122,1455.070004 1015.272277,1533.982673 1078.000000,1508.000000 1161.063542,1473.593954 1152.406046,1399.063542 1118.000000,1316.000000 1103.858878,1281.860311 1070.141122,1108.139689 1056.000000,1074.000000 Z M556.000000,1052.000000 C540.536027,1014.666667 483.463973,1014.666667 468.000000,1052.000000 463.876679,1061.954577 465.915022,1127.278509 458.000000,1124.000000 439.812110,1116.466329 424.187890,1103.533671 406.000000,1096.000000 367.784343,1080.170556 329.533537,1122.246442 346.000000,1162.000000 353.262541,1179.533325 388.466675,1198.737459 406.000000,1206.000000 412.695810,1208.773495 441.304190,1229.226505 448.000000,1232.000000 453.991954,1234.481949 464.000000,1237.514356 464.000000,1244.000000 464.000000,1311.333333 464.000000,1378.666667 464.000000,1446.000000 464.000000,1450.753774 460.391915,1449.819191 456.000000,1448.000000 429.068891,1436.844769 312.931109,1361.155231 286.000000,1350.000000 281.447715,1348.114382 278.000000,1344.666667 278.000000,1342.000000 278.000000,1293.149370 293.132097,1206.694327 248.000000,1188.000000 217.204734,1175.244183 194.755817,1195.204734 182.000000,1226.000000 173.280355,1247.051085 199.051085,1294.719645 178.000000,1286.000000 150.147079,1274.462942 119.852921,1246.462942 92.000000,1258.000000 54.018234,1273.732562 50.104659,1331.131663 86.000000,1346.000000 117.362266,1358.990676 147.362266,1369.009324 116.000000,1382.000000 79.179711,1397.251463 48.748537,1423.179711 64.000000,1460.000000 93.534173,1531.301802 156.698198,1459.534173 228.000000,1430.000000 231.585716,1428.514748 238.414284,1434.514748 242.000000,1436.000000 267.679961,1446.636988 378.320039,1519.363012 404.000000,1530.000000 413.978153,1534.133086 415.978153,1537.866914 406.000000,1542.000000 378.443443,1553.414299 259.556557,1630.585701 232.000000,1642.000000 229.779270,1642.919856 228.220730,1638.919856 226.000000,1638.000000 157.515562,1609.632817 94.367183,1539.515562 66.000000,1608.000000 47.694668,1652.192982 85.807018,1677.694668 130.000000,1696.000000 137.022565,1698.908842 119.022565,1707.091158 112.000000,1710.000000 98.170760,1715.728259 71.728259,1734.170760 66.000000,1748.000000 49.533537,1787.753558 87.784343,1829.829444 126.000000,1814.000000 133.554939,1810.870642 166.445061,1791.129358 174.000000,1788.000000 179.958288,1785.531996 184.000000,1779.550796 184.000000,1786.000000 184.000000,1798.091944 181.372613,1844.828500 186.000000,1856.000000 202.251762,1895.235224 260.044696,1896.519512 276.000000,1858.000000 284.611934,1837.208951 280.000000,1750.504069 280.000000,1728.000000 280.000000,1724.441145 284.712046,1723.361915 288.000000,1722.000000 314.931109,1710.844769 431.068891,1635.155231 458.000000,1624.000000 459.847759,1623.234633 464.000000,1618.666667 464.000000,1624.000000 464.000000,1692.000000 464.000000,1760.000000 464.000000,1828.000000 464.000000,1834.485644 453.991954,1837.518051 448.000000,1840.000000 439.713911,1843.432210 404.286089,1868.567790 396.000000,1872.000000 381.166197,1878.144362 352.144362,1895.166197 346.000000,1910.000000 329.533537,1949.753558 367.784343,1991.829444 406.000000,1976.000000 424.187890,1968.466329 439.812110,1955.533671 458.000000,1948.000000 465.915022,1944.721491 463.876679,2010.045423 468.000000,2020.000000 482.359403,2054.666667 541.640597,2054.666667 556.000000,2020.000000 560.123321,2010.045423 558.084978,1944.721491 566.000000,1948.000000 594.258567,1959.705082 625.741433,1985.705082 654.000000,1974.000000 681.820350,1962.476434 637.523566,1949.820350 626.000000,1922.000000 622.987446,1914.727051 603.012554,1883.272949 600.000000,1876.000000 597.912947,1870.961408 595.856371,1853.856371 592.000000,1850.000000 584.917445,1842.917445 560.000000,1838.016245 560.000000,1828.000000 560.000000,1760.000000 560.000000,1692.000000 560.000000,1624.000000 560.000000,1617.550796 564.041712,1623.531996 570.000000,1626.000000 590.643004,1634.550612 601.449388,1656.643004 610.000000,1636.000000 614.681124,1624.698766 623.318876,1565.301234 628.000000,1554.000000 630.655554,1547.588925 610.000000,1542.939298 610.000000,1536.000000 610.000000,1529.500429 635.512722,1524.004821 638.000000,1518.000000 645.010829,1501.074360 658.989171,1412.925640 666.000000,1396.000000 667.891771,1391.432861 670.567139,1390.108229 666.000000,1392.000000 650.204300,1398.542793 581.795700,1441.457207 566.000000,1448.000000 564.152241,1448.765367 560.000000,1453.333333 560.000000,1448.000000 560.000000,1380.000000 560.000000,1312.000000 560.000000,1244.000000 560.000000,1237.514356 570.008046,1234.481949 576.000000,1232.000000 582.695810,1229.226505 611.304190,1208.773495 618.000000,1206.000000 635.533325,1198.737459 670.737459,1179.533325 678.000000,1162.000000 694.466463,1122.246442 656.215657,1080.170556 618.000000,1096.000000 599.812110,1103.533671 584.187890,1116.466329 566.000000,1124.000000 558.084978,1127.278509 560.123321,1061.954577 556.000000,1052.000000 Z M1558.000000,198.000000 C1516.935901,180.990693 1425.064099,216.990693 1384.000000,234.000000 1334.593032,254.465036 1262.465036,344.593032 1242.000000,394.000000 1177.908037,548.731686 1253.967909,737.026246 1406.000000,800.000000 1455.919901,820.677500 1511.967088,826.000000 1566.000000,826.000000 1676.206000,826.000000 1787.825990,723.817068 1830.000000,622.000000 1831.447085,618.506428 1797.692519,641.985227 1788.000000,646.000000 1723.620972,672.666667 1650.379028,672.666667 1586.000000,646.000000 1535.924868,625.258201 1482.741799,572.075132 1462.000000,522.000000 1435.333333,457.620972 1435.333333,384.379028 1462.000000,320.000000 1477.902419,281.608165 1539.608165,215.902419 1578.000000,200.000000 1586.463176,196.494438 1566.463176,201.505562 1558.000000,198.000000 Z "/></g>
</svg>