<?xml version="1.0" encoding="UTF-8"?>
<!DOCTYPE svg PUBLIC "-//W3C//DTD SVG 1.1 Tiny//EN" "http://www.w3.org/Graphics/SVG/1.1/DTD/svg11-tiny.dtd">
<svg version="1.1" width="2048" height="2048" viewBox="0 0 2048 2048" xmlns="http://www.w3.org/2000/svg">
<g fill="black">
<path d="M1284.000000,1636.000000 C1279.588586,1634.172733 1272.411414,1646.172733 1268.000000,1648.000000 1246.061555,1657.087202 1184.790959,1723.209041 1168.000000,1740.000000 1154.156664,1753.843336 1129.912809,1775.491960 1148.000000,1768.000000 1177.067037,1755.960039 1318.932963,1718.039961 1348.000000,1706.000000 1350.728994,1704.869614 1352.869614,1703.271006 1354.000000,1706.000000 1365.030979,1732.631139 1386.969021,1871.368861 1398.000000,1898.000000 1402.541037,1908.963033 1403.458963,1932.963033 1408.000000,1922.000000 1413.904936,1907.744224 1424.095064,1832.255776 1430.000000,1818.000000 1438.851915,1796.629587 1396.851915,1761.370413 1388.000000,1740.000000 1374.795305,1708.121047 1315.878953,1649.204695 1284.000000,1636.000000 Z M1296.000000,1366.000000 C1126.622086,1295.841371 915.377914,1295.841371 746.000000,1366.000000 727.081197,1373.836425 644.918803,1424.163575 626.000000,1432.000000 616.340080,1436.001270 575.659920,1475.998730 566.000000,1480.000000 549.169335,1486.971490 514.971490,1519.169335 508.000000,1536.000000 502.800528,1548.552635 449.199472,1601.447365 444.000000,1614.000000 436.163575,1632.918803 385.836425,1715.081197 378.000000,1734.000000 369.350891,1754.880797 342.649109,1857.119203 334.000000,1878.000000 328.341350,1891.661191 327.658650,1972.338809 322.000000,1986.000000 319.813265,1991.279246 321.333333,2008.000000 324.000000,2008.000000 372.000000,2008.000000 420.000000,2008.000000 468.000000,2008.000000 470.666667,2008.000000 470.000000,2008.666667 470.000000,2006.000000 470.000000,1939.573767 480.579781,1871.369837 506.000000,1810.000000 511.941672,1795.655535 546.058328,1732.344465 552.000000,1718.000000 556.401154,1707.374675 597.598846,1662.625325 602.000000,1652.000000 607.337041,1639.115243 631.115243,1613.337041 644.000000,1608.000000 653.971692,1603.869590 696.028308,1560.130410 706.000000,1556.000000 724.230542,1548.448662 803.769458,1501.551338 822.000000,1494.000000 896.128180,1463.295103 979.764236,1458.000000 1060.000000,1458.000000 1139.947205,1458.000000 1216.138414,1495.405529 1290.000000,1526.000000 1304.466414,1531.992185 1365.533586,1584.007815 1380.000000,1590.000000 1392.884757,1595.337041 1418.662959,1619.115243 1424.000000,1632.000000 1430.402664,1647.457399 1491.597336,1712.542601 1498.000000,1728.000000 1503.279338,1740.745450 1532.720662,1797.254550 1538.000000,1810.000000 1563.420219,1871.369837 1574.000000,1939.573767 1574.000000,2006.000000 1574.000000,2008.666667 1573.333333,2008.000000 1576.000000,2008.000000 1623.333333,2008.000000 1670.666667,2008.000000 1718.000000,2008.000000 1720.666667,2008.000000 1720.000000,2008.666667 1720.000000,2006.000000 1720.000000,1728.767296 1549.129602,1470.849714 1296.000000,1366.000000 Z M1302.000000,1104.000000 C1175.133310,1051.450096 868.866690,1051.450096 742.000000,1104.000000 688.698921,1126.078030 635.301079,1147.921970 582.000000,1170.000000 453.845290,1223.083419 235.083419,1441.845290 182.000000,1570.000000 176.756214,1582.659618 149.243786,1639.340382 144.000000,1652.000000 97.968982,1763.128708 74.000000,1885.715153 74.000000,2006.000000 74.000000,2008.666667 73.333333,2008.000000 76.000000,2008.000000 124.666667,2008.000000 173.333333,2008.000000 222.000000,2008.000000 224.666667,2008.000000 224.000000,2008.666667 224.000000,2006.000000 224.000000,1897.741051 248.571094,1788.018227 290.000000,1688.000000 330.986648,1589.049478 400.266549,1501.733451 476.000000,1426.000000 551.755455,1350.244545 651.020729,1298.998557 750.000000,1258.000000 820.422545,1228.830027 897.775186,1212.000000 974.000000,1212.000000 1068.680750,1212.000000 1168.526393,1209.767246 1256.000000,1246.000000 1299.920732,1264.192563 1344.079268,1281.807437 1388.000000,1300.000000 1471.520163,1334.595184 1540.076435,1400.076435 1604.000000,1464.000000 1741.347896,1601.347896 1818.000000,1811.760743 1818.000000,2006.000000 1818.000000,2008.666667 1817.333333,2008.000000 1820.000000,2008.000000 1869.333333,2008.000000 1918.666667,2008.000000 1968.000000,2008.000000 1970.666667,2008.000000 1970.000000,2008.666667 1970.000000,2006.000000 1970.000000,1877.209041 1939.286166,1746.987331 1890.000000,1628.000000 1805.147186,1423.147186 1608.852814,1226.852814 1404.000000,1142.000000 1388.744883,1135.681123 1317.255117,1110.318877 1302.000000,1104.000000 Z M1714.000000,390.000000 C1710.736610,382.121480 1713.263390,388.121480 1710.000000,396.000000 1698.233055,424.407918 1673.766945,571.592082 1662.000000,600.000000 1660.196013,604.355210 1652.355210,603.803987 1648.000000,602.000000 1619.178119,590.061586 1478.821881,551.938414 1450.000000,540.000000 1438.019211,535.037395 1452.830301,546.830301 1462.000000,556.000000 1479.615893,573.615893 1588.384107,672.384107 1606.000000,690.000000 1608.666667,692.666667 1608.666667,693.333333 1606.000000,696.000000 1590.837986,711.162014 1497.162014,796.837986 1482.000000,812.000000 1476.962000,817.038000 1458.582465,837.273454 1452.000000,840.000000 1445.869646,842.539276 1443.869646,850.539276 1450.000000,848.000000 1479.067037,835.960039 1620.932963,798.039961 1650.000000,786.000000 1663.850125,780.263091 1660.263091,794.149875 1666.000000,808.000000 1676.075355,832.324058 1697.924645,957.675942 1708.000000,982.000000 1713.401899,995.041339 1708.598101,1009.041339 1714.000000,996.000000 1725.399044,968.480274 1748.600956,825.519726 1760.000000,798.000000 1763.285242,790.068723 1762.068723,780.714758 1770.000000,784.000000 1797.791082,795.511443 1934.208918,830.488557 1962.000000,842.000000 1974.940379,847.360080 1983.904137,851.904137 1974.000000,842.000000 1959.324006,827.324006 1868.675994,744.675994 1854.000000,730.000000 1841.626193,717.626193 1814.882883,695.117117 1820.000000,690.000000 1839.074017,670.925983 1956.925983,563.074017 1976.000000,544.000000 1979.660357,540.339643 1976.782486,538.019029 1972.000000,540.000000 1942.932963,552.039961 1801.067037,589.960039 1772.000000,602.000000 1768.675291,603.377139 1765.377139,605.324709 1764.000000,602.000000 1751.767262,572.467558 1726.232738,419.532442 1714.000000,390.000000 Z M642.000000,96.000000 C633.028990,74.342066 640.971010,78.342066 632.000000,100.000000 608.466110,156.815835 559.533890,451.184165 536.000000,508.000000 534.196013,512.355210 526.355210,511.803987 522.000000,510.000000 462.794972,485.476475 171.205028,412.523525 112.000000,388.000000 81.358739,375.307974 134.548194,412.548194 158.000000,436.000000 190.996779,468.996779 395.003221,657.003221 428.000000,690.000000 430.666667,692.666667 430.666667,693.333333 428.000000,696.000000 392.549025,731.450975 173.450975,932.549025 138.000000,968.000000 132.962000,973.038000 114.582465,993.273454 108.000000,996.000000 102.772861,998.165152 102.772861,1004.165152 108.000000,1002.000000 167.356518,977.413725 458.643482,902.586275 518.000000,878.000000 544.444506,867.046327 535.046327,901.555494 546.000000,928.000000 552.985802,944.865219 569.014198,1031.134781 576.000000,1048.000000 578.726146,1054.581499 575.418501,1064.726146 582.000000,1062.000000 600.653861,1054.273318 687.346139,1021.726682 706.000000,1014.000000 715.080716,1010.238644 712.238644,985.080716 716.000000,976.000000 737.109350,925.037521 719.037521,860.890650 770.000000,882.000000 809.114091,898.201587 1000.885909,947.798413 1040.000000,964.000000 1051.798397,968.887056 1126.201603,965.112944 1138.000000,970.000000 1138.000000,970.000000 1138.000000,970.000000 1138.000000,970.000000 1102.306047,934.306047 881.693953,731.693953 846.000000,696.000000 841.093709,691.093709 849.093709,688.906291 854.000000,684.000000 889.207994,648.792006 1106.792006,449.207994 1142.000000,414.000000 1154.503263,401.496737 1180.336300,379.233283 1164.000000,386.000000 1103.912205,410.889180 808.087795,485.110820 748.000000,510.000000 744.675291,511.377139 741.377139,513.324709 740.000000,510.000000 716.098324,452.296249 665.901676,153.703751 642.000000,96.000000 Z "/></g>
</svg>