<?xml version="1.0" encoding="UTF-8"?>
<!DOCTYPE svg PUBLIC "-//W3C//DTD SVG 1.1 Tiny//EN" "http://www.w3.org/Graphics/SVG/1.1/DTD/svg11-tiny.dtd">
<svg version="1.1" width="2048" height="2048" viewBox="0 0 2048 2048" xmlns="http://www.w3.org/2000/svg">
<g fill="black">
<path d="M982.000000,392.000000 C826.335118,392.000000 670.071694,481.928306 560.000000,592.000000 502.835520,649.164480 462.937194,723.311007 432.000000,798.000000 397.687238,880.838336 392.000000,974.336431 392.000000,1064.000000 392.000000,1219.664882 481.928306,1375.928306 592.000000,1486.000000 649.164480,1543.164480 723.311007,1583.062806 798.000000,1614.000000 880.838336,1648.312762 974.336431,1654.000000 1064.000000,1654.000000 1219.664882,1654.000000 1375.928306,1564.071694 1486.000000,1454.000000 1543.164480,1396.835520 1583.062806,1322.688993 1614.000000,1248.000000 1618.255910,1237.725325 1622.274675,1235.744090 1612.000000,1240.000000 1602.417813,1243.969072 1561.582187,1274.030928 1552.000000,1278.000000 1537.509724,1284.002069 1470.490276,1309.997931 1456.000000,1316.000000 1427.860595,1327.655723 1320.457872,1332.000000 1290.000000,1332.000000 1117.553830,1332.000000 933.992292,1179.319487 868.000000,1020.000000 840.398409,953.363866 836.000000,878.126432 836.000000,806.000000 836.000000,737.226620 867.681567,671.538318 894.000000,608.000000 898.779037,596.462384 937.220963,547.537616 942.000000,536.000000 948.738009,519.733006 979.733006,486.738009 996.000000,480.000000 1002.749397,477.204308 1031.250603,446.795692 1038.000000,444.000000 1050.383306,438.870667 1103.616694,403.129333 1116.000000,398.000000 1121.657962,395.656395 1111.657962,398.343605 1106.000000,396.000000 1086.140201,387.773802 1003.496092,392.000000 982.000000,392.000000 Z "/></g>
</svg>