<?xml version="1.0" encoding="UTF-8"?>
<!DOCTYPE svg PUBLIC "-//W3C//DTD SVG 1.1 Tiny//EN" "http://www.w3.org/Graphics/SVG/1.1/DTD/svg11-tiny.dtd">
<svg version="1.1" width="2048" height="2048" viewBox="0 0 2048 2048" xmlns="http://www.w3.org/2000/svg">
<g fill="black">
<path d="M1338.000000,1394.000000 C1333.457134,1383.032552 1338.542866,1375.032552 1334.000000,1386.000000 1313.508313,1435.471309 1266.491687,1688.528691 1246.000000,1738.000000 1239.967251,1752.564344 1241.967251,1787.435656 1248.000000,1802.000000 1267.083570,1848.071813 1292.774194,1864.000000 1348.000000,1864.000000 1382.800502,1864.000000 1412.682425,1826.151471 1426.000000,1794.000000 1434.387913,1773.749787 1422.387913,1726.250213 1414.000000,1706.000000 1395.908798,1662.323976 1356.091202,1437.676024 1338.000000,1394.000000 Z M824.000000,1168.000000 C821.649436,1162.325237 824.350564,1160.325237 822.000000,1166.000000 804.717457,1207.723749 769.282543,1424.276251 752.000000,1466.000000 736.434200,1503.579166 701.565800,1696.420834 686.000000,1734.000000 658.422870,1800.577081 698.510500,1888.388080 770.000000,1918.000000 857.430501,1954.214899 929.785101,1911.430501 966.000000,1824.000000 973.023621,1807.043478 975.023621,1764.956522 968.000000,1748.000000 934.271026,1666.571053 857.728974,1249.428947 824.000000,1168.000000 Z M1056.000000,1074.000000 C1052.636557,1065.879929 1057.363443,1067.879929 1054.000000,1076.000000 1035.528533,1120.594065 988.471467,1345.405935 970.000000,1390.000000 943.047122,1455.070004 1015.272277,1533.982673 1078.000000,1508.000000 1161.063542,1473.593954 1152.406046,1399.063542 1118.000000,1316.000000 1103.858878,1281.860311 1070.141122,1108.139689 1056.000000,1074.000000 Z M1144.000000,436.000000 C1117.321963,424.949595 1050.678037,412.949595 1024.000000,424.000000 1007.476547,430.844238 977.155762,415.476547 984.000000,432.000000 990.401019,447.453428 1031.598981,514.546572 1038.000000,530.000000 1062.673671,589.567512 1096.673671,726.432488 1072.000000,786.000000 1065.311270,802.148024 1038.148024,829.311270 1022.000000,836.000000 985.577320,851.086768 943.423625,844.000000 904.000000,844.000000 887.963309,844.000000 798.036691,844.000000 782.000000,844.000000 749.060187,844.000000 710.605521,816.432419 698.000000,786.000000 694.323188,777.123390 691.676812,726.876610 688.000000,718.000000 679.975809,698.627889 691.372111,760.024191 672.000000,752.000000 659.616694,746.870667 606.383306,711.129333 594.000000,706.000000 515.123794,673.328406 416.876206,665.328406 338.000000,698.000000 322.403298,704.460366 334.460366,752.403298 328.000000,768.000000 314.650496,800.228553 286.228553,828.650496 254.000000,842.000000 231.459354,851.336641 161.336641,829.459354 152.000000,852.000000 141.949347,876.264422 130.050653,899.735578 120.000000,924.000000 100.091031,972.064502 100.091031,1087.935498 120.000000,1136.000000 130.050653,1160.264422 141.949347,1183.735578 152.000000,1208.000000 168.412119,1247.622361 238.377639,1317.587881 278.000000,1334.000000 302.264422,1344.050653 325.735578,1355.949347 350.000000,1366.000000 401.799075,1387.455879 611.933086,1382.000000 668.000000,1382.000000 670.666667,1382.000000 672.057047,1372.690705 674.000000,1368.000000 687.997749,1334.206444 718.002251,1159.793556 732.000000,1126.000000 766.678573,1042.278519 879.004284,1043.512868 914.000000,1128.000000 915.961157,1132.734653 920.038843,1157.265347 922.000000,1162.000000 923.613535,1165.895418 926.000000,1176.666667 926.000000,1174.000000 926.000000,1145.732270 951.182408,1062.115977 962.000000,1036.000000 997.000293,951.501819 1110.251431,946.523747 1144.000000,1028.000000 1164.166589,1076.686452 1213.833411,1323.313548 1234.000000,1372.000000 1237.470038,1380.377413 1238.529962,1354.377413 1242.000000,1346.000000 1264.740292,1291.100078 1320.028741,1267.644373 1374.000000,1290.000000 1403.441992,1302.195272 1419.804728,1336.558008 1432.000000,1366.000000 1434.273069,1371.487675 1432.060184,1382.000000 1438.000000,1382.000000 1512.000000,1382.000000 1586.000000,1382.000000 1660.000000,1382.000000 1735.163757,1382.000000 1821.236076,1319.442256 1850.000000,1250.000000 1897.377393,1135.620854 1846.300292,1005.687877 1736.000000,960.000000 1706.274317,947.687219 1635.725683,933.687219 1606.000000,946.000000 1595.359887,950.407279 1586.407279,956.640113 1582.000000,946.000000 1564.221935,903.079954 1478.920046,851.778065 1436.000000,834.000000 1426.894413,830.228342 1408.000000,833.855817 1408.000000,824.000000 1408.000000,768.182838 1407.360303,709.568333 1386.000000,658.000000 1363.636381,604.009448 1327.322579,555.322579 1286.000000,514.000000 1247.813324,475.813324 1193.893297,456.666480 1144.000000,436.000000 Z M570.000000,404.000000 C518.050820,382.481945 397.949180,418.481945 346.000000,440.000000 239.709816,484.026836 162.000000,630.952334 162.000000,746.000000 162.000000,748.666667 161.333333,748.000000 164.000000,748.000000 186.666667,748.000000 209.333333,748.000000 232.000000,748.000000 243.595545,748.000000 231.562577,720.712886 236.000000,710.000000 239.894203,700.598562 250.105797,653.401438 254.000000,644.000000 270.782920,603.482447 329.482447,526.782920 370.000000,510.000000 408.609072,494.007599 493.390928,458.007599 532.000000,474.000000 540.187722,477.391466 585.812278,480.608534 594.000000,484.000000 640.346286,503.197260 730.802740,561.653714 750.000000,608.000000 758.107913,627.574234 767.892087,646.425766 776.000000,666.000000 779.572041,674.623670 784.427959,721.376330 788.000000,730.000000 790.237062,735.400746 784.154275,748.000000 790.000000,748.000000 818.086982,748.000000 870.748423,763.948988 860.000000,738.000000 856.604371,729.802226 855.395629,682.197774 852.000000,674.000000 848.507801,665.569085 837.492199,624.430915 834.000000,616.000000 800.443902,534.988413 731.011587,461.556098 650.000000,428.000000 638.432972,423.208780 581.567028,408.791220 570.000000,404.000000 Z M690.000000,310.000000 C582.822895,265.605790 449.177105,261.605790 342.000000,306.000000 225.708556,354.169493 120.169493,453.708556 72.000000,570.000000 49.341632,624.702139 38.000000,683.411765 38.000000,746.000000 38.000000,748.666667 37.333333,748.000000 40.000000,748.000000 63.333333,748.000000 86.666667,748.000000 110.000000,748.000000 112.666667,748.000000 112.000000,748.666667 112.000000,746.000000 112.000000,584.365591 208.891423,440.591222 360.000000,378.000000 417.925929,354.006295 483.301427,350.000000 546.000000,350.000000 682.710427,350.000000 829.683185,473.696035 882.000000,600.000000 886.526204,610.927224 899.473796,665.072776 904.000000,676.000000 906.546722,682.148330 907.453278,717.851670 910.000000,724.000000 912.851849,730.884974 904.547758,748.000000 912.000000,748.000000 935.333333,748.000000 958.666667,748.000000 982.000000,748.000000 984.666667,748.000000 984.000000,748.666667 984.000000,746.000000 984.000000,554.761905 868.931268,384.115758 690.000000,310.000000 Z M1558.000000,198.000000 C1526.078643,184.777741 1449.921357,204.777741 1418.000000,218.000000 1368.593032,238.465036 1278.465036,310.593032 1258.000000,360.000000 1254.788753,367.752635 1248.247365,372.788753 1256.000000,376.000000 1318.999053,402.095062 1427.904938,511.000947 1454.000000,574.000000 1466.602111,604.424188 1477.397889,635.575812 1490.000000,666.000000 1493.379290,674.158327 1498.620710,717.841673 1502.000000,726.000000 1504.964290,733.156429 1498.843571,753.035710 1506.000000,756.000000 1520.722556,762.098282 1583.277444,809.901718 1598.000000,816.000000 1621.041728,825.544196 1662.958272,797.544196 1686.000000,788.000000 1753.675533,759.967876 1801.967876,689.675533 1830.000000,622.000000 1831.447085,618.506428 1797.692519,641.985227 1788.000000,646.000000 1723.620972,672.666667 1650.379028,672.666667 1586.000000,646.000000 1535.924868,625.258201 1482.741799,572.075132 1462.000000,522.000000 1435.333333,457.620972 1435.333333,384.379028 1462.000000,320.000000 1477.902419,281.608165 1539.608165,215.902419 1578.000000,200.000000 1586.463176,196.494438 1566.463176,201.505562 1558.000000,198.000000 Z "/></g>
</svg>