<?xml version="1.0" encoding="UTF-8"?>
<!DOCTYPE svg PUBLIC "-//W3C//DTD SVG 1.1 Tiny//EN" "http://www.w3.org/Graphics/SVG/1.1/DTD/svg11-tiny.dtd">
<svg version="1.1" width="2048" height="2048" viewBox="0 0 2048 2048" xmlns="http://www.w3.org/2000/svg">
<g fill="black">
<path d="M766.000000,1408.000000 C762.636557,1399.879929 767.363443,1401.879929 764.000000,1410.000000 745.528533,1454.594065 698.471467,1679.405935 680.000000,1724.000000 653.047122,1789.070004 725.272277,1867.982673 788.000000,1842.000000 871.063542,1807.593954 862.406046,1733.063542 828.000000,1650.000000 813.858878,1615.860311 780.141122,1442.139689 766.000000,1408.000000 Z M1338.000000,1394.000000 C1333.457134,1383.032552 1338.542866,1375.032552 1334.000000,1386.000000 1313.508313,1435.471309 1266.491687,1688.528691 1246.000000,1738.000000 1239.967251,1752.564344 1241.967251,1787.435656 1248.000000,1802.000000 1267.083570,1848.071813 1292.774194,1864.000000 1348.000000,1864.000000 1382.800502,1864.000000 1412.682425,1826.151471 1426.000000,1794.000000 1434.387913,1773.749787 1422.387913,1726.250213 1414.000000,1706.000000 1395.908798,1662.323976 1356.091202,1437.676024 1338.000000,1394.000000 Z M1712.000000,890.000000 C1710.159207,885.555932 1714.444068,882.159207 1710.000000,884.000000 1687.003832,893.525325 1662.996168,900.474675 1640.000000,910.000000 1631.144405,913.668108 1582.855595,918.331892 1574.000000,922.000000 1568.666667,924.209139 1574.000000,951.333333 1574.000000,966.000000 1574.000000,972.036923 1573.333333,984.000000 1576.000000,984.000000 1623.333333,984.000000 1670.666667,984.000000 1718.000000,984.000000 1720.666667,984.000000 1720.000000,984.666667 1720.000000,982.000000 1720.000000,965.250764 1718.409655,905.474276 1712.000000,890.000000 Z M1916.000000,674.000000 C1913.790861,668.666667 1916.209139,668.666667 1914.000000,674.000000 1891.697584,727.842796 1853.209492,774.790508 1812.000000,816.000000 1808.410500,819.589500 1800.057377,823.310092 1802.000000,828.000000 1812.879065,854.264386 1818.000000,953.571633 1818.000000,982.000000 1818.000000,984.666667 1817.333333,984.000000 1820.000000,984.000000 1869.333333,984.000000 1918.666667,984.000000 1968.000000,984.000000 1970.666667,984.000000 1970.000000,984.666667 1970.000000,982.000000 1970.000000,877.767354 1955.888107,770.298408 1916.000000,674.000000 Z M1172.000000,304.000000 C1074.058755,263.431408 843.941245,301.431408 746.000000,342.000000 727.081197,349.836425 644.918803,400.163575 626.000000,408.000000 613.447365,413.199472 560.552635,466.800528 548.000000,472.000000 531.169335,478.971490 498.971490,513.169335 492.000000,530.000000 486.132647,544.165043 431.867353,603.834957 426.000000,618.000000 420.027643,632.418545 383.972357,695.581455 378.000000,710.000000 369.350891,730.880797 342.649109,833.119203 334.000000,854.000000 328.341350,867.661191 327.658650,948.338809 322.000000,962.000000 319.813265,967.279246 321.333333,984.000000 324.000000,984.000000 372.000000,984.000000 420.000000,984.000000 468.000000,984.000000 470.666667,984.000000 470.000000,984.666667 470.000000,982.000000 470.000000,915.573767 480.579781,847.369837 506.000000,786.000000 511.279338,773.254550 540.720662,716.745450 546.000000,704.000000 551.065472,691.770869 596.934528,640.229131 602.000000,628.000000 607.337041,615.115243 631.115243,589.337041 644.000000,584.000000 659.457399,577.597336 724.542601,516.402664 740.000000,510.000000 752.745450,504.720662 809.254550,475.279338 822.000000,470.000000 896.128180,439.295103 979.764236,434.000000 1060.000000,434.000000 1072.010759,434.000000 1112.903505,437.403681 1124.000000,442.000000 1132.823890,445.654975 1126.345025,434.823890 1130.000000,426.000000 1135.742523,412.136322 1156.257477,345.863678 1162.000000,332.000000 1168.233676,316.950575 1187.049425,310.233676 1172.000000,304.000000 Z M1644.000000,272.000000 C1640.734694,270.647466 1635.265306,278.647466 1632.000000,280.000000 1597.147435,294.436405 1564.436405,323.147435 1550.000000,358.000000 1541.999813,377.314159 1542.685841,391.999813 1562.000000,400.000000 1571.216136,403.817449 1596.946275,432.946275 1604.000000,440.000000 1624.990387,460.990387 1688.640084,538.574737 1700.000000,566.000000 1702.310231,571.577390 1712.422610,566.310231 1718.000000,564.000000 1759.887067,546.649809 1794.666667,524.000000 1848.000000,524.000000 1853.055608,524.000000 1845.934698,520.670773 1844.000000,516.000000 1828.001640,477.376542 1743.561115,367.561115 1714.000000,338.000000 1702.244010,326.244010 1659.359941,278.362296 1644.000000,272.000000 Z M1558.000000,198.000000 C1516.935901,180.990693 1425.064099,216.990693 1384.000000,234.000000 1334.593032,254.465036 1262.465036,344.593032 1242.000000,394.000000 1177.908037,548.731686 1253.967909,737.026246 1406.000000,800.000000 1455.919901,820.677500 1511.967088,826.000000 1566.000000,826.000000 1676.206000,826.000000 1787.825990,723.817068 1830.000000,622.000000 1831.447085,618.506428 1797.692519,641.985227 1788.000000,646.000000 1723.620972,672.666667 1650.379028,672.666667 1586.000000,646.000000 1535.924868,625.258201 1482.741799,572.075132 1462.000000,522.000000 1435.333333,457.620972 1435.333333,384.379028 1462.000000,320.000000 1477.902419,281.608165 1539.608165,215.902419 1578.000000,200.000000 1586.463176,196.494438 1566.463176,201.505562 1558.000000,198.000000 Z M1282.000000,74.000000 C1231.061107,52.900420 1045.135860,40.000000 990.000000,40.000000 870.471296,40.000000 750.430123,72.258345 640.000000,118.000000 541.774809,158.686206 449.178307,218.821693 374.000000,294.000000 344.857663,323.142337 243.771719,429.923702 228.000000,468.000000 217.605726,493.093998 154.394274,602.906002 144.000000,628.000000 97.968982,739.128708 74.000000,861.715153 74.000000,982.000000 74.000000,984.666667 73.333333,984.000000 76.000000,984.000000 124.666667,984.000000 173.333333,984.000000 222.000000,984.000000 224.666667,984.000000 224.000000,984.666667 224.000000,982.000000 224.000000,873.741051 248.571094,764.018227 290.000000,664.000000 394.054591,412.789995 702.092250,188.000000 974.000000,188.000000 1022.480186,188.000000 1191.210149,197.447436 1236.000000,216.000000 1253.721055,223.340301 1280.278945,179.340301 1298.000000,172.000000 1313.941660,165.396748 1384.058340,126.603252 1400.000000,120.000000 1407.182796,117.024788 1387.182796,110.975212 1380.000000,108.000000 1365.503585,101.995388 1296.496415,80.004612 1282.000000,74.000000 Z "/></g>
</svg>