<?xml version="1.0" encoding="UTF-8"?>
<!DOCTYPE svg PUBLIC "-//W3C//DTD SVG 1.1 Tiny//EN" "http://www.w3.org/Graphics/SVG/1.1/DTD/svg11-tiny.dtd">
<svg version="1.1" width="2048" height="2048" viewBox="0 0 2048 2048" xmlns="http://www.w3.org/2000/svg">
<g fill="black">
<path d="M766.000000,1408.000000 C762.636557,1399.879929 767.363443,1401.879929 764.000000,1410.000000 745.528533,1454.594065 698.471467,1679.405935 680.000000,1724.000000 653.047122,1789.070004 725.272277,1867.982673 788.000000,1842.000000 871.063542,1807.593954 862.406046,1733.063542 828.000000,1650.000000 813.858878,1615.860311 780.141122,1442.139689 766.000000,1408.000000 Z M1338.000000,1394.000000 C1333.457134,1383.032552 1338.542866,1375.032552 1334.000000,1386.000000 1313.508313,1435.471309 1266.491687,1688.528691 1246.000000,1738.000000 1239.967251,1752.564344 1241.967251,1787.435656 1248.000000,1802.000000 1267.083570,1848.071813 1292.774194,1864.000000 1348.000000,1864.000000 1382.800502,1864.000000 1412.682425,1826.151471 1426.000000,1794.000000 1434.387913,1773.749787 1422.387913,1726.250213 1414.000000,1706.000000 1395.908798,1662.323976 1356.091202,1437.676024 1338.000000,1394.000000 Z M1182.000000,558.000000 C1091.869360,520.666667 950.130640,520.666667 860.000000,558.000000 843.987097,564.632762 774.012903,605.367238 758.000000,612.000000 749.319937,615.595400 712.680063,654.404600 704.000000,658.000000 687.612125,664.788080 688.788080,705.612125 682.000000,722.000000 678.074312,731.477450 686.258318,756.000000 676.000000,756.000000 660.931724,756.000000 645.766379,722.078729 640.000000,736.000000 634.286043,749.794712 599.713957,810.205288 594.000000,824.000000 588.609030,837.014953 575.390970,902.985047 570.000000,916.000000 565.579365,926.672357 568.420635,993.327643 564.000000,1004.000000 548.807247,1040.678551 513.700577,1080.000000 474.000000,1080.000000 440.418082,1080.000000 313.025647,1084.851244 282.000000,1072.000000 265.797683,1065.288780 246.202317,1073.288780 230.000000,1080.000000 183.841332,1099.119546 90.880454,1049.841332 110.000000,1096.000000 113.062007,1103.392338 120.937993,1140.607662 124.000000,1148.000000 147.147723,1203.883548 222.116452,1310.852277 278.000000,1334.000000 302.264422,1344.050653 325.735578,1355.949347 350.000000,1366.000000 401.488297,1387.327151 610.269469,1382.000000 666.000000,1382.000000 672.753297,1382.000000 671.415625,1370.239233 674.000000,1364.000000 708.016945,1281.875830 821.358012,1284.366843 856.000000,1368.000000 857.942953,1372.690705 856.922818,1382.000000 862.000000,1382.000000 984.666667,1382.000000 1107.333333,1382.000000 1230.000000,1382.000000 1242.375989,1382.000000 1237.263914,1357.433923 1242.000000,1346.000000 1264.740292,1291.100078 1320.028741,1267.644373 1374.000000,1290.000000 1403.441992,1302.195272 1419.804728,1336.558008 1432.000000,1366.000000 1434.273069,1371.487675 1432.060184,1382.000000 1438.000000,1382.000000 1512.000000,1382.000000 1586.000000,1382.000000 1660.000000,1382.000000 1799.666667,1382.000000 1908.843861,1221.576367 1856.000000,1094.000000 1854.057047,1089.309295 1855.077182,1080.000000 1850.000000,1080.000000 1822.928079,1080.000000 1795.011193,1076.359976 1770.000000,1066.000000 1761.099814,1062.313422 1733.633491,1080.000000 1724.000000,1080.000000 1690.754266,1080.000000 1564.715053,1084.722591 1534.000000,1072.000000 1506.871552,1060.763029 1489.236971,1031.128448 1478.000000,1004.000000 1466.034206,975.112019 1476.109904,862.109904 1454.000000,840.000000 1444.859249,830.859249 1408.000000,836.926973 1408.000000,824.000000 1408.000000,808.860291 1411.793716,753.987267 1406.000000,740.000000 1378.514266,673.643568 1248.356432,585.485734 1182.000000,558.000000 Z M1296.000000,342.000000 C1126.622086,271.841371 915.377914,271.841371 746.000000,342.000000 727.081197,349.836425 644.918803,400.163575 626.000000,408.000000 613.447365,413.199472 560.552635,466.800528 548.000000,472.000000 531.169335,478.971490 498.971490,513.169335 492.000000,530.000000 487.998730,539.659920 448.001270,580.340080 444.000000,590.000000 437.315925,606.136784 392.684075,675.863216 386.000000,692.000000 376.763944,714.297812 345.236056,821.702188 336.000000,844.000000 329.774781,859.029008 328.225219,946.970992 322.000000,962.000000 319.813265,967.279246 321.333333,984.000000 324.000000,984.000000 372.000000,984.000000 420.000000,984.000000 468.000000,984.000000 470.666667,984.000000 470.000000,984.666667 470.000000,982.000000 470.000000,915.573767 480.579781,847.369837 506.000000,786.000000 511.279338,773.254550 540.720662,716.745450 546.000000,704.000000 551.065472,691.770869 596.934528,640.229131 602.000000,628.000000 607.337041,615.115243 631.115243,589.337041 644.000000,584.000000 650.410306,581.344765 677.589694,550.655235 684.000000,548.000000 695.207373,543.357754 742.792627,506.642246 754.000000,502.000000 769.591113,495.541949 840.408887,464.458051 856.000000,458.000000 919.257081,431.798059 991.531029,434.000000 1060.000000,434.000000 1139.947205,434.000000 1216.138414,471.405529 1290.000000,502.000000 1301.207373,506.642246 1348.792627,543.357754 1360.000000,548.000000 1366.410306,550.655235 1393.589694,581.344765 1400.000000,584.000000 1412.884757,589.337041 1436.662959,615.115243 1442.000000,628.000000 1446.401154,638.625325 1487.598846,683.374675 1492.000000,694.000000 1497.941672,708.344465 1532.058328,771.655535 1538.000000,786.000000 1563.420219,847.369837 1574.000000,915.573767 1574.000000,982.000000 1574.000000,984.666667 1573.333333,984.000000 1576.000000,984.000000 1623.333333,984.000000 1670.666667,984.000000 1718.000000,984.000000 1720.666667,984.000000 1722.186735,967.279246 1720.000000,962.000000 1713.774781,946.970992 1712.225219,859.029008 1706.000000,844.000000 1696.763944,821.702188 1665.236056,714.297812 1656.000000,692.000000 1648.376017,673.594076 1595.623983,594.405924 1588.000000,576.000000 1583.737229,565.708760 1538.262771,522.291240 1534.000000,512.000000 1527.028510,495.169335 1492.830665,462.971490 1476.000000,456.000000 1461.834957,450.132647 1402.165043,395.867353 1388.000000,390.000000 1373.581455,384.027643 1310.418545,347.972357 1296.000000,342.000000 Z M1282.000000,74.000000 C1231.061107,52.900420 1045.135860,40.000000 990.000000,40.000000 870.471296,40.000000 750.430123,72.258345 640.000000,118.000000 541.774809,158.686206 449.178307,218.821693 374.000000,294.000000 343.861654,324.138346 240.310755,434.622353 224.000000,474.000000 214.007902,498.123058 153.992098,603.876942 144.000000,628.000000 97.968982,739.128708 74.000000,861.715153 74.000000,982.000000 74.000000,984.666667 73.333333,984.000000 76.000000,984.000000 124.666667,984.000000 173.333333,984.000000 222.000000,984.000000 224.666667,984.000000 224.000000,984.666667 224.000000,982.000000 224.000000,873.741051 248.571094,764.018227 290.000000,664.000000 394.054591,412.789995 702.092250,188.000000 974.000000,188.000000 1068.680750,188.000000 1168.526393,185.767246 1256.000000,222.000000 1268.859745,227.326681 1329.140255,248.673319 1342.000000,254.000000 1527.992449,331.040595 1684.959405,502.007551 1762.000000,688.000000 1799.379402,778.241858 1818.000000,876.000000 1818.000000,982.000000 1818.000000,984.666667 1817.333333,984.000000 1820.000000,984.000000 1869.333333,984.000000 1918.666667,984.000000 1968.000000,984.000000 1970.666667,984.000000 1970.000000,984.666667 1970.000000,982.000000 1970.000000,929.157772 1948.221845,754.819853 1928.000000,706.000000 1905.921970,652.698921 1884.078030,599.301079 1862.000000,546.000000 1843.344904,500.962613 1748.470124,372.470124 1714.000000,338.000000 1629.988096,253.988096 1535.766842,173.466915 1426.000000,128.000000 1404.441747,119.070279 1303.558253,82.929721 1282.000000,74.000000 Z "/></g>
</svg>