<?xml version="1.0" encoding="UTF-8"?>
<!DOCTYPE svg PUBLIC "-//W3C//DTD SVG 1.1 Tiny//EN" "http://www.w3.org/Graphics/SVG/1.1/DTD/svg11-tiny.dtd">
<svg version="1.1" width="2048" height="2048" viewBox="0 0 2048 2048" xmlns="http://www.w3.org/2000/svg">
<g fill="black">
<path d="M1468.000000,1504.000000 C1463.065767,1504.000000 1466.111751,1509.441363 1468.000000,1514.000000 1477.511335,1536.962393 1498.488665,1655.037607 1508.000000,1678.000000 1510.273069,1683.487675 1508.060184,1694.000000 1514.000000,1694.000000 1555.419266,1694.000000 1599.733588,1701.850467 1638.000000,1686.000000 1715.840219,1653.757526 1712.070057,1543.166103 1632.000000,1510.000000 1605.625362,1499.075267 1496.547702,1504.000000 1468.000000,1504.000000 Z M1200.000000,1504.000000 C1162.384509,1504.000000 1018.752182,1497.605175 984.000000,1512.000000 892.202261,1550.023868 919.098901,1694.000000 1018.000000,1694.000000 1063.333333,1694.000000 1108.666667,1694.000000 1154.000000,1694.000000 1160.504028,1694.000000 1157.511016,1682.008938 1160.000000,1676.000000 1169.511335,1653.037607 1190.488665,1534.962393 1200.000000,1512.000000 1201.648104,1508.021124 1204.306704,1504.000000 1200.000000,1504.000000 Z M250.000000,1504.000000 C185.601990,1504.000000 142.005332,1575.243320 168.000000,1638.000000 180.312097,1667.724031 217.826941,1694.000000 250.000000,1694.000000 290.976077,1694.000000 448.143041,1701.680866 486.000000,1686.000000 560.666667,1655.072054 560.666667,1542.927946 486.000000,1512.000000 448.143041,1496.319134 290.976077,1504.000000 250.000000,1504.000000 Z M766.000000,1408.000000 C762.636557,1399.879929 767.363443,1401.879929 764.000000,1410.000000 745.528533,1454.594065 698.471467,1679.405935 680.000000,1724.000000 653.047122,1789.070004 725.272277,1867.982673 788.000000,1842.000000 871.063542,1807.593954 862.406046,1733.063542 828.000000,1650.000000 813.858878,1615.860311 780.141122,1442.139689 766.000000,1408.000000 Z M1338.000000,1394.000000 C1333.457134,1383.032552 1338.542866,1375.032552 1334.000000,1386.000000 1313.508313,1435.471309 1266.491687,1688.528691 1246.000000,1738.000000 1239.967251,1752.564344 1241.967251,1787.435656 1248.000000,1802.000000 1267.083570,1848.071813 1292.774194,1864.000000 1348.000000,1864.000000 1382.800502,1864.000000 1412.682425,1826.151471 1426.000000,1794.000000 1434.387913,1773.749787 1422.387913,1726.250213 1414.000000,1706.000000 1395.908798,1662.323976 1356.091202,1437.676024 1338.000000,1394.000000 Z M442.000000,1120.000000 C377.601990,1120.000000 334.005332,1191.243320 360.000000,1254.000000 372.312097,1283.724031 409.826941,1310.000000 442.000000,1310.000000 539.333333,1310.000000 636.666667,1310.000000 734.000000,1310.000000 741.304818,1310.000000 765.251228,1301.204567 772.000000,1304.000000 776.515007,1305.870177 791.112992,1310.000000 796.000000,1310.000000 937.333333,1310.000000 1078.666667,1310.000000 1220.000000,1310.000000 1252.173059,1310.000000 1289.687903,1283.724031 1302.000000,1254.000000 1327.994668,1191.243320 1284.398010,1120.000000 1220.000000,1120.000000 960.666667,1120.000000 701.333333,1120.000000 442.000000,1120.000000 Z M826.000000,736.000000 C793.826941,736.000000 756.312097,762.275969 744.000000,792.000000 718.005332,854.756680 761.601990,926.000000 826.000000,926.000000 1040.666667,926.000000 1255.333333,926.000000 1470.000000,926.000000 1475.561762,926.000000 1472.128394,919.138398 1470.000000,914.000000 1465.784961,903.823995 1458.215039,850.176005 1454.000000,840.000000 1440.760653,808.037388 1423.239347,777.962612 1410.000000,746.000000 1408.114382,741.447715 1402.666667,736.000000 1400.000000,736.000000 1208.666667,736.000000 1017.333333,736.000000 826.000000,736.000000 Z M1056.000000,532.000000 C1026.442397,519.756840 949.557603,529.756840 920.000000,542.000000 915.883315,543.705187 909.544133,542.000000 914.000000,542.000000 939.510111,542.000000 1034.431730,543.762297 1058.000000,534.000000 1068.565379,529.623677 1066.565379,536.376323 1056.000000,532.000000 Z M1296.000000,342.000000 C1126.622086,271.841371 915.377914,271.841371 746.000000,342.000000 727.081197,349.836425 644.918803,400.163575 626.000000,408.000000 613.447365,413.199472 560.552635,466.800528 548.000000,472.000000 531.169335,478.971490 498.971490,513.169335 492.000000,530.000000 487.998730,539.659920 448.001270,580.340080 444.000000,590.000000 437.315925,606.136784 392.684075,675.863216 386.000000,692.000000 376.763944,714.297812 345.236056,821.702188 336.000000,844.000000 329.774781,859.029008 328.225219,946.970992 322.000000,962.000000 319.813265,967.279246 321.333333,984.000000 324.000000,984.000000 372.000000,984.000000 420.000000,984.000000 468.000000,984.000000 470.666667,984.000000 470.000000,984.666667 470.000000,982.000000 470.000000,915.573767 480.579781,847.369837 506.000000,786.000000 511.279338,773.254550 540.720662,716.745450 546.000000,704.000000 551.065472,691.770869 596.934528,640.229131 602.000000,628.000000 607.337041,615.115243 631.115243,589.337041 644.000000,584.000000 650.410306,581.344765 677.589694,550.655235 684.000000,548.000000 695.207373,543.357754 742.792627,506.642246 754.000000,502.000000 769.591113,495.541949 840.408887,464.458051 856.000000,458.000000 919.257081,431.798059 991.531029,434.000000 1060.000000,434.000000 1139.947205,434.000000 1216.138414,471.405529 1290.000000,502.000000 1301.207373,506.642246 1348.792627,543.357754 1360.000000,548.000000 1366.410306,550.655235 1393.589694,581.344765 1400.000000,584.000000 1412.884757,589.337041 1436.662959,615.115243 1442.000000,628.000000 1446.401154,638.625325 1487.598846,683.374675 1492.000000,694.000000 1497.941672,708.344465 1532.058328,771.655535 1538.000000,786.000000 1563.420219,847.369837 1574.000000,915.573767 1574.000000,982.000000 1574.000000,984.666667 1573.333333,984.000000 1576.000000,984.000000 1623.333333,984.000000 1670.666667,984.000000 1718.000000,984.000000 1720.666667,984.000000 1722.186735,967.279246 1720.000000,962.000000 1713.774781,946.970992 1712.225219,859.029008 1706.000000,844.000000 1696.763944,821.702188 1665.236056,714.297812 1656.000000,692.000000 1648.376017,673.594076 1595.623983,594.405924 1588.000000,576.000000 1583.737229,565.708760 1538.262771,522.291240 1534.000000,512.000000 1527.028510,495.169335 1492.830665,462.971490 1476.000000,456.000000 1461.834957,450.132647 1402.165043,395.867353 1388.000000,390.000000 1373.581455,384.027643 1310.418545,347.972357 1296.000000,342.000000 Z M1282.000000,74.000000 C1231.061107,52.900420 1045.135860,40.000000 990.000000,40.000000 870.471296,40.000000 750.430123,72.258345 640.000000,118.000000 541.774809,158.686206 449.178307,218.821693 374.000000,294.000000 343.861654,324.138346 240.310755,434.622353 224.000000,474.000000 214.007902,498.123058 153.992098,603.876942 144.000000,628.000000 97.968982,739.128708 74.000000,861.715153 74.000000,982.000000 74.000000,984.666667 73.333333,984.000000 76.000000,984.000000 124.666667,984.000000 173.333333,984.000000 222.000000,984.000000 224.666667,984.000000 224.000000,984.666667 224.000000,982.000000 224.000000,873.741051 248.571094,764.018227 290.000000,664.000000 394.054591,412.789995 702.092250,188.000000 974.000000,188.000000 1068.680750,188.000000 1168.526393,185.767246 1256.000000,222.000000 1268.859745,227.326681 1329.140255,248.673319 1342.000000,254.000000 1527.992449,331.040595 1684.959405,502.007551 1762.000000,688.000000 1799.379402,778.241858 1818.000000,876.000000 1818.000000,982.000000 1818.000000,984.666667 1817.333333,984.000000 1820.000000,984.000000 1869.333333,984.000000 1918.666667,984.000000 1968.000000,984.000000 1970.666667,984.000000 1970.000000,984.666667 1970.000000,982.000000 1970.000000,929.157772 1948.221845,754.819853 1928.000000,706.000000 1905.921970,652.698921 1884.078030,599.301079 1862.000000,546.000000 1843.344904,500.962613 1748.470124,372.470124 1714.000000,338.000000 1629.988096,253.988096 1535.766842,173.466915 1426.000000,128.000000 1404.441747,119.070279 1303.558253,82.929721 1282.000000,74.000000 Z "/></g>
</svg>