<?xml version="1.0" encoding="UTF-8"?>
<!DOCTYPE svg PUBLIC "-//W3C//DTD SVG 1.1 Tiny//EN" "http://www.w3.org/Graphics/SVG/1.1/DTD/svg11-tiny.dtd">
<svg version="1.1" width="2048" height="2048" viewBox="0 0 2048 2048" xmlns="http://www.w3.org/2000/svg">
<g fill="black">
<path d="M1468.000000,1504.000000 C1463.065767,1504.000000 1466.111751,1509.441363 1468.000000,1514.000000 1477.511335,1536.962393 1498.488665,1655.037607 1508.000000,1678.000000 1510.273069,1683.487675 1508.060184,1694.000000 1514.000000,1694.000000 1555.419266,1694.000000 1599.733588,1701.850467 1638.000000,1686.000000 1715.840219,1653.757526 1712.070057,1543.166103 1632.000000,1510.000000 1605.625362,1499.075267 1496.547702,1504.000000 1468.000000,1504.000000 Z M1200.000000,1504.000000 C1162.384509,1504.000000 1018.752182,1497.605175 984.000000,1512.000000 892.202261,1550.023868 919.098901,1694.000000 1018.000000,1694.000000 1063.333333,1694.000000 1108.666667,1694.000000 1154.000000,1694.000000 1160.504028,1694.000000 1157.511016,1682.008938 1160.000000,1676.000000 1169.511335,1653.037607 1190.488665,1534.962393 1200.000000,1512.000000 1201.648104,1508.021124 1204.306704,1504.000000 1200.000000,1504.000000 Z M250.000000,1504.000000 C185.601990,1504.000000 142.005332,1575.243320 168.000000,1638.000000 180.312097,1667.724031 217.826941,1694.000000 250.000000,1694.000000 290.976077,1694.000000 448.143041,1701.680866 486.000000,1686.000000 560.666667,1655.072054 560.666667,1542.927946 486.000000,1512.000000 448.143041,1496.319134 290.976077,1504.000000 250.000000,1504.000000 Z M766.000000,1408.000000 C762.636557,1399.879929 767.363443,1401.879929 764.000000,1410.000000 745.528533,1454.594065 698.471467,1679.405935 680.000000,1724.000000 653.047122,1789.070004 725.272277,1867.982673 788.000000,1842.000000 871.063542,1807.593954 862.406046,1733.063542 828.000000,1650.000000 813.858878,1615.860311 780.141122,1442.139689 766.000000,1408.000000 Z M1338.000000,1394.000000 C1333.457134,1383.032552 1338.542866,1375.032552 1334.000000,1386.000000 1313.508313,1435.471309 1266.491687,1688.528691 1246.000000,1738.000000 1239.967251,1752.564344 1241.967251,1787.435656 1248.000000,1802.000000 1267.083570,1848.071813 1292.774194,1864.000000 1348.000000,1864.000000 1382.800502,1864.000000 1412.682425,1826.151471 1426.000000,1794.000000 1434.387913,1773.749787 1422.387913,1726.250213 1414.000000,1706.000000 1395.908798,1662.323976 1356.091202,1437.676024 1338.000000,1394.000000 Z M442.000000,1120.000000 C377.601990,1120.000000 334.005332,1191.243320 360.000000,1254.000000 372.312097,1283.724031 409.826941,1310.000000 442.000000,1310.000000 539.333333,1310.000000 636.666667,1310.000000 734.000000,1310.000000 741.304818,1310.000000 765.251228,1301.204567 772.000000,1304.000000 776.515007,1305.870177 791.112992,1310.000000 796.000000,1310.000000 937.333333,1310.000000 1078.666667,1310.000000 1220.000000,1310.000000 1252.173059,1310.000000 1289.687903,1283.724031 1302.000000,1254.000000 1327.994668,1191.243320 1284.398010,1120.000000 1220.000000,1120.000000 960.666667,1120.000000 701.333333,1120.000000 442.000000,1120.000000 Z M1082.000000,736.000000 C1076.154275,736.000000 1082.237062,748.599254 1080.000000,754.000000 1078.137119,758.497392 1073.862881,781.502608 1072.000000,786.000000 1065.311270,802.148024 1038.148024,829.311270 1022.000000,836.000000 985.577320,851.086768 943.423625,844.000000 904.000000,844.000000 875.078392,844.000000 774.720082,847.067820 748.000000,836.000000 743.868285,834.288588 736.000000,825.527864 736.000000,830.000000 736.000000,881.377778 777.833333,926.000000 826.000000,926.000000 1149.333333,926.000000 1472.666667,926.000000 1796.000000,926.000000 1834.944009,926.000000 1869.096773,887.979573 1884.000000,852.000000 1891.333675,834.294942 1877.333675,795.705058 1870.000000,778.000000 1859.782322,753.332343 1844.879807,783.120193 1826.000000,802.000000 1789.387919,838.612081 1745.835989,870.185685 1698.000000,890.000000 1563.417672,945.745825 1369.004854,927.004854 1266.000000,824.000000 1251.570905,809.570905 1197.808970,756.852521 1190.000000,738.000000 1189.639203,737.128958 1190.666667,736.000000 1188.000000,736.000000 1152.666667,736.000000 1117.333333,736.000000 1082.000000,736.000000 Z M332.000000,736.000000 C326.154275,736.000000 332.237062,748.599254 330.000000,754.000000 328.137119,758.497392 323.862881,781.502608 322.000000,786.000000 315.311270,802.148024 288.148024,829.311270 272.000000,836.000000 238.649214,849.814348 200.098630,844.000000 164.000000,844.000000 153.091440,844.000000 163.825475,859.921805 168.000000,870.000000 202.148759,952.442397 362.764993,926.000000 452.000000,926.000000 516.398010,926.000000 559.994668,854.756680 534.000000,792.000000 521.687903,762.275969 484.173059,736.000000 452.000000,736.000000 412.000000,736.000000 372.000000,736.000000 332.000000,736.000000 Z M570.000000,404.000000 C518.050820,382.481945 397.949180,418.481945 346.000000,440.000000 239.709816,484.026836 162.000000,630.952334 162.000000,746.000000 162.000000,748.666667 161.333333,748.000000 164.000000,748.000000 186.666667,748.000000 209.333333,748.000000 232.000000,748.000000 243.595545,748.000000 231.562577,720.712886 236.000000,710.000000 239.894203,700.598562 250.105797,653.401438 254.000000,644.000000 270.782920,603.482447 329.482447,526.782920 370.000000,510.000000 408.609072,494.007599 493.390928,458.007599 532.000000,474.000000 540.187722,477.391466 585.812278,480.608534 594.000000,484.000000 640.346286,503.197260 730.802740,561.653714 750.000000,608.000000 758.107913,627.574234 767.892087,646.425766 776.000000,666.000000 779.572041,674.623670 784.427959,721.376330 788.000000,730.000000 790.237062,735.400746 784.154275,748.000000 790.000000,748.000000 818.086982,748.000000 870.748423,763.948988 860.000000,738.000000 856.604371,729.802226 855.395629,682.197774 852.000000,674.000000 848.507801,665.569085 837.492199,624.430915 834.000000,616.000000 800.443902,534.988413 731.011587,461.556098 650.000000,428.000000 638.432972,423.208780 581.567028,408.791220 570.000000,404.000000 Z M1796.000000,352.000000 C1755.023923,352.000000 1597.856959,344.319134 1560.000000,360.000000 1528.709098,372.961116 1529.038884,428.709098 1542.000000,460.000000 1549.564154,478.261482 1563.738518,518.435846 1582.000000,526.000000 1586.366405,527.808624 1597.273838,542.000000 1602.000000,542.000000 1658.000000,542.000000 1714.000000,542.000000 1770.000000,542.000000 1774.607516,542.000000 1785.743211,531.763220 1790.000000,530.000000 1811.513150,521.088962 1841.534548,530.465452 1858.000000,514.000000 1916.404762,455.595238 1876.757202,352.000000 1796.000000,352.000000 Z M922.000000,352.000000 C914.209722,352.000000 929.018790,358.802722 932.000000,366.000000 935.865463,375.332054 976.134537,414.667946 980.000000,424.000000 986.918320,440.702301 1031.081680,513.297699 1038.000000,530.000000 1043.782335,543.959791 1050.040209,537.782335 1064.000000,532.000000 1154.133127,494.665636 1125.600000,352.000000 1028.000000,352.000000 992.666667,352.000000 957.333333,352.000000 922.000000,352.000000 Z M690.000000,310.000000 C582.822895,265.605790 449.177105,261.605790 342.000000,306.000000 225.708556,354.169493 120.169493,453.708556 72.000000,570.000000 49.341632,624.702139 38.000000,683.411765 38.000000,746.000000 38.000000,748.666667 37.333333,748.000000 40.000000,748.000000 63.333333,748.000000 86.666667,748.000000 110.000000,748.000000 112.666667,748.000000 112.000000,748.666667 112.000000,746.000000 112.000000,584.365591 208.891423,440.591222 360.000000,378.000000 417.925929,354.006295 483.301427,350.000000 546.000000,350.000000 682.710427,350.000000 829.683185,473.696035 882.000000,600.000000 886.526204,610.927224 899.473796,665.072776 904.000000,676.000000 906.546722,682.148330 907.453278,717.851670 910.000000,724.000000 912.851849,730.884974 904.547758,748.000000 912.000000,748.000000 935.333333,748.000000 958.666667,748.000000 982.000000,748.000000 984.666667,748.000000 984.000000,748.666667 984.000000,746.000000 984.000000,554.761905 868.931268,384.115758 690.000000,310.000000 Z M1558.000000,198.000000 C1516.935901,180.990693 1425.064099,216.990693 1384.000000,234.000000 1334.593032,254.465036 1262.465036,344.593032 1242.000000,394.000000 1177.908037,548.731686 1253.967909,737.026246 1406.000000,800.000000 1455.919901,820.677500 1511.967088,826.000000 1566.000000,826.000000 1676.206000,826.000000 1787.825990,723.817068 1830.000000,622.000000 1831.447085,618.506428 1797.692519,641.985227 1788.000000,646.000000 1723.620972,672.666667 1650.379028,672.666667 1586.000000,646.000000 1535.924868,625.258201 1482.741799,572.075132 1462.000000,522.000000 1435.333333,457.620972 1435.333333,384.379028 1462.000000,320.000000 1477.902419,281.608165 1539.608165,215.902419 1578.000000,200.000000 1586.463176,196.494438 1566.463176,201.505562 1558.000000,198.000000 Z "/></g>
</svg>