<?xml version="1.0" encoding="UTF-8"?>
<!DOCTYPE svg PUBLIC "-//W3C//DTD SVG 1.1 Tiny//EN" "http://www.w3.org/Graphics/SVG/1.1/DTD/svg11-tiny.dtd">
<svg version="1.1" width="2048" height="2048" viewBox="0 0 2048 2048" xmlns="http://www.w3.org/2000/svg">
<g fill="black">
<path d="M1068.000000,1052.000000 C1052.536027,1014.666667 995.463973,1014.666667 980.000000,1052.000000 975.876679,1061.954577 977.915022,1127.278509 970.000000,1124.000000 951.812110,1116.466329 936.187890,1103.533671 918.000000,1096.000000 879.784343,1080.170556 841.533537,1122.246442 858.000000,1162.000000 865.262541,1179.533325 900.466675,1198.737459 918.000000,1206.000000 924.695810,1208.773495 953.304190,1229.226505 960.000000,1232.000000 965.991954,1234.481949 976.000000,1237.514356 976.000000,1244.000000 976.000000,1311.333333 976.000000,1378.666667 976.000000,1446.000000 976.000000,1450.753774 972.391915,1449.819191 968.000000,1448.000000 941.068891,1436.844769 824.931109,1361.155231 798.000000,1350.000000 793.447715,1348.114382 790.000000,1344.666667 790.000000,1342.000000 790.000000,1293.149370 805.132097,1206.694327 760.000000,1188.000000 729.204734,1175.244183 706.755817,1195.204734 694.000000,1226.000000 685.280355,1247.051085 711.051085,1294.719645 690.000000,1286.000000 662.147079,1274.462942 631.852921,1246.462942 604.000000,1258.000000 566.018234,1273.732562 562.104659,1331.131663 598.000000,1346.000000 629.362266,1358.990676 659.362266,1369.009324 628.000000,1382.000000 591.179711,1397.251463 560.748537,1423.179711 576.000000,1460.000000 604.061275,1527.745910 664.254090,1464.061275 732.000000,1436.000000 736.131715,1434.288588 739.868285,1428.288588 744.000000,1430.000000 771.270302,1441.295729 888.729698,1518.704271 916.000000,1530.000000 923.243444,1533.000333 929.243444,1534.999667 922.000000,1538.000000 893.765204,1549.695235 772.234796,1630.304765 744.000000,1642.000000 741.779270,1642.919856 740.220730,1638.919856 738.000000,1638.000000 669.515562,1609.632817 606.367183,1539.515562 578.000000,1608.000000 559.694668,1652.192982 597.807018,1677.694668 642.000000,1696.000000 649.022565,1698.908842 631.022565,1707.091158 624.000000,1710.000000 610.170760,1715.728259 583.728259,1734.170760 578.000000,1748.000000 561.533537,1787.753558 599.784343,1829.829444 638.000000,1814.000000 645.554939,1810.870642 678.445061,1791.129358 686.000000,1788.000000 691.958288,1785.531996 696.000000,1779.550796 696.000000,1786.000000 696.000000,1798.091944 693.372613,1844.828500 698.000000,1856.000000 714.251762,1895.235224 772.044696,1896.519512 788.000000,1858.000000 796.611934,1837.208951 792.000000,1750.504069 792.000000,1728.000000 792.000000,1724.441145 796.712046,1723.361915 800.000000,1722.000000 826.931109,1710.844769 943.068891,1635.155231 970.000000,1624.000000 971.847759,1623.234633 976.000000,1618.666667 976.000000,1624.000000 976.000000,1692.000000 976.000000,1760.000000 976.000000,1828.000000 976.000000,1834.485644 965.991954,1837.518051 960.000000,1840.000000 951.713911,1843.432210 916.286089,1868.567790 908.000000,1872.000000 893.166197,1878.144362 864.144362,1895.166197 858.000000,1910.000000 841.533537,1949.753558 879.784343,1991.829444 918.000000,1976.000000 936.187890,1968.466329 951.812110,1955.533671 970.000000,1948.000000 977.915022,1944.721491 975.876679,2010.045423 980.000000,2020.000000 994.359403,2054.666667 1053.640597,2054.666667 1068.000000,2020.000000 1072.123321,2010.045423 1070.084978,1944.721491 1078.000000,1948.000000 1096.187890,1955.533671 1111.812110,1968.466329 1130.000000,1976.000000 1168.215657,1991.829444 1206.466463,1949.753558 1190.000000,1910.000000 1183.855638,1895.166197 1154.833803,1878.144362 1140.000000,1872.000000 1131.713911,1868.567790 1096.286089,1843.432210 1088.000000,1840.000000 1082.008046,1837.518051 1072.000000,1834.485644 1072.000000,1828.000000 1072.000000,1760.000000 1072.000000,1692.000000 1072.000000,1624.000000 1072.000000,1617.550796 1076.041712,1623.531996 1082.000000,1626.000000 1108.250796,1636.873436 1221.749204,1709.126564 1248.000000,1720.000000 1252.552285,1721.885618 1256.000000,1725.333333 1256.000000,1728.000000 1256.000000,1776.850630 1240.867903,1863.305673 1286.000000,1882.000000 1316.795266,1894.755817 1339.244183,1874.795266 1352.000000,1844.000000 1360.719645,1822.948915 1334.948915,1775.280355 1356.000000,1784.000000 1383.852921,1795.537058 1414.147079,1823.537058 1442.000000,1812.000000 1479.981766,1796.267438 1483.895341,1738.868337 1448.000000,1724.000000 1416.637734,1711.009324 1386.637734,1700.990676 1418.000000,1688.000000 1454.820289,1672.748537 1485.251463,1646.820289 1470.000000,1610.000000 1440.465827,1538.698198 1377.301802,1610.465827 1306.000000,1640.000000 1302.414284,1641.485252 1295.585716,1635.485252 1292.000000,1634.000000 1265.694420,1623.103872 1152.305580,1548.896128 1126.000000,1538.000000 1119.902706,1535.474418 1133.902706,1526.525582 1140.000000,1524.000000 1165.965983,1513.244538 1278.034017,1440.755462 1304.000000,1430.000000 1306.220730,1429.080144 1307.779270,1433.080144 1310.000000,1434.000000 1378.484438,1462.367183 1441.632817,1532.484438 1470.000000,1464.000000 1488.305332,1419.807018 1450.192982,1394.305332 1406.000000,1376.000000 1398.977435,1373.091158 1416.977435,1364.908842 1424.000000,1362.000000 1437.829240,1356.271741 1464.271741,1337.829240 1470.000000,1324.000000 1486.466463,1284.246442 1448.215657,1242.170556 1410.000000,1258.000000 1402.445061,1261.129358 1369.554939,1280.870642 1362.000000,1284.000000 1356.041712,1286.468004 1352.000000,1292.449204 1352.000000,1286.000000 1352.000000,1273.908056 1354.627387,1227.171500 1350.000000,1216.000000 1333.748238,1176.764776 1275.955304,1175.480488 1260.000000,1214.000000 1251.388066,1234.791049 1256.000000,1321.495931 1256.000000,1344.000000 1256.000000,1347.558855 1251.287954,1348.638085 1248.000000,1350.000000 1221.068891,1361.155231 1104.931109,1436.844769 1078.000000,1448.000000 1076.152241,1448.765367 1072.000000,1453.333333 1072.000000,1448.000000 1072.000000,1380.000000 1072.000000,1312.000000 1072.000000,1244.000000 1072.000000,1237.514356 1082.008046,1234.481949 1088.000000,1232.000000 1094.695810,1229.226505 1123.304190,1208.773495 1130.000000,1206.000000 1147.533325,1198.737459 1182.737459,1179.533325 1190.000000,1162.000000 1206.466463,1122.246442 1168.215657,1080.170556 1130.000000,1096.000000 1111.812110,1103.533671 1096.187890,1116.466329 1078.000000,1124.000000 1070.084978,1127.278509 1072.123321,1061.954577 1068.000000,1052.000000 Z M1144.000000,436.000000 C1117.321963,424.949595 1050.678037,412.949595 1024.000000,424.000000 1008.520194,430.411946 977.588054,414.520194 984.000000,430.000000 991.149643,447.260766 1034.850357,522.739234 1042.000000,540.000000 1065.589137,596.949214 1095.589137,729.050786 1072.000000,786.000000 1065.311270,802.148024 1038.148024,829.311270 1022.000000,836.000000 985.577320,851.086768 943.423625,844.000000 904.000000,844.000000 887.963309,844.000000 798.036691,844.000000 782.000000,844.000000 749.060187,844.000000 710.605521,816.432419 698.000000,786.000000 694.323188,777.123390 691.676812,726.876610 688.000000,718.000000 679.975809,698.627889 691.372111,760.024191 672.000000,752.000000 659.616694,746.870667 606.383306,711.129333 594.000000,706.000000 515.123794,673.328406 416.876206,665.328406 338.000000,698.000000 333.790987,699.743430 335.743430,711.790987 334.000000,716.000000 330.140292,725.318159 325.859708,776.681841 322.000000,786.000000 310.763029,813.128448 281.128448,830.763029 254.000000,842.000000 231.459354,851.336641 161.336641,829.459354 152.000000,852.000000 141.949347,876.264422 130.050653,899.735578 120.000000,924.000000 100.091031,972.064502 100.091031,1087.935498 120.000000,1136.000000 130.050653,1160.264422 141.949347,1183.735578 152.000000,1208.000000 168.412119,1247.622361 238.377639,1317.587881 278.000000,1334.000000 302.264422,1344.050653 325.735578,1355.949347 350.000000,1366.000000 373.447299,1375.712189 460.620827,1382.000000 486.000000,1382.000000 489.428571,1382.000000 493.685081,1372.068145 492.000000,1368.000000 452.079039,1271.622274 491.622274,1199.920961 588.000000,1160.000000 595.156429,1157.035710 615.035710,1163.156429 618.000000,1156.000000 632.236647,1121.629695 673.629695,1104.236647 708.000000,1090.000000 726.641112,1082.278598 760.278598,1100.641112 768.000000,1082.000000 784.299899,1042.648564 826.648564,1016.299899 866.000000,1000.000000 869.298999,998.633510 898.808323,996.876963 900.000000,994.000000 907.837174,975.079388 945.079388,945.837174 964.000000,938.000000 1000.339262,922.947785 1045.660738,922.947785 1082.000000,938.000000 1100.920612,945.837174 1138.162826,975.079388 1146.000000,994.000000 1147.191677,996.876963 1176.701001,998.633510 1180.000000,1000.000000 1220.153051,1016.631938 1261.368062,1045.846949 1278.000000,1086.000000 1279.813411,1090.377961 1283.622039,1091.813411 1288.000000,1090.000000 1329.265875,1072.907115 1386.416467,1112.416467 1418.000000,1144.000000 1420.320854,1146.320854 1424.967658,1156.743963 1428.000000,1158.000000 1435.690651,1161.185572 1476.309349,1166.814428 1484.000000,1170.000000 1569.637161,1205.472074 1587.472074,1286.362839 1552.000000,1372.000000 1550.910910,1374.629295 1555.333333,1382.000000 1558.000000,1382.000000 1617.635932,1382.000000 1680.903583,1386.821683 1736.000000,1364.000000 1912.000000,1291.098413 1912.000000,1032.901587 1736.000000,960.000000 1706.274317,947.687219 1635.725683,933.687219 1606.000000,946.000000 1595.359887,950.407279 1586.407279,956.640113 1582.000000,946.000000 1564.221935,903.079954 1478.920046,851.778065 1436.000000,834.000000 1426.894413,830.228342 1408.000000,833.855817 1408.000000,824.000000 1408.000000,768.182838 1407.360303,709.568333 1386.000000,658.000000 1363.636381,604.009448 1327.322579,555.322579 1286.000000,514.000000 1247.813324,475.813324 1193.893297,456.666480 1144.000000,436.000000 Z M570.000000,404.000000 C518.050820,382.481945 397.949180,418.481945 346.000000,440.000000 239.709816,484.026836 162.000000,630.952334 162.000000,746.000000 162.000000,748.666667 161.333333,748.000000 164.000000,748.000000 186.666667,748.000000 209.333333,748.000000 232.000000,748.000000 243.595545,748.000000 231.562577,720.712886 236.000000,710.000000 239.894203,700.598562 250.105797,653.401438 254.000000,644.000000 270.782920,603.482447 329.482447,526.782920 370.000000,510.000000 408.609072,494.007599 493.390928,458.007599 532.000000,474.000000 540.187722,477.391466 585.812278,480.608534 594.000000,484.000000 640.346286,503.197260 730.802740,561.653714 750.000000,608.000000 758.107913,627.574234 767.892087,646.425766 776.000000,666.000000 779.572041,674.623670 784.427959,721.376330 788.000000,730.000000 790.237062,735.400746 784.154275,748.000000 790.000000,748.000000 818.086982,748.000000 870.748423,763.948988 860.000000,738.000000 856.604371,729.802226 855.395629,682.197774 852.000000,674.000000 848.507801,665.569085 837.492199,624.430915 834.000000,616.000000 800.443902,534.988413 731.011587,461.556098 650.000000,428.000000 638.432972,423.208780 581.567028,408.791220 570.000000,404.000000 Z M690.000000,310.000000 C582.822895,265.605790 449.177105,261.605790 342.000000,306.000000 225.708556,354.169493 120.169493,453.708556 72.000000,570.000000 49.341632,624.702139 38.000000,683.411765 38.000000,746.000000 38.000000,748.666667 37.333333,748.000000 40.000000,748.000000 63.333333,748.000000 86.666667,748.000000 110.000000,748.000000 112.666667,748.000000 112.000000,748.666667 112.000000,746.000000 112.000000,584.365591 208.891423,440.591222 360.000000,378.000000 417.925929,354.006295 483.301427,350.000000 546.000000,350.000000 682.710427,350.000000 829.683185,473.696035 882.000000,600.000000 886.526204,610.927224 899.473796,665.072776 904.000000,676.000000 906.546722,682.148330 907.453278,717.851670 910.000000,724.000000 912.851849,730.884974 904.547758,748.000000 912.000000,748.000000 935.333333,748.000000 958.666667,748.000000 982.000000,748.000000 984.666667,748.000000 984.000000,748.666667 984.000000,746.000000 984.000000,554.761905 868.931268,384.115758 690.000000,310.000000 Z M1640.000000,264.000000 C1572.853454,236.186990 1489.146546,240.186990 1422.000000,268.000000 1384.154619,283.676070 1317.676070,344.154619 1302.000000,382.000000 1298.247051,391.060420 1286.939580,396.247051 1296.000000,400.000000 1347.857672,421.480151 1432.519849,522.142328 1454.000000,574.000000 1466.602111,604.424188 1477.397889,635.575812 1490.000000,666.000000 1494.135317,675.983539 1499.864683,730.016461 1504.000000,740.000000 1506.056862,744.965703 1501.034297,753.943138 1506.000000,756.000000 1514.789990,759.640933 1538.485783,778.000000 1548.000000,778.000000 1646.200000,778.000000 1743.197846,711.676687 1782.000000,618.000000 1839.870656,478.287878 1776.611913,320.586507 1640.000000,264.000000 Z M1428.000000,96.000000 C1424.221919,94.435068 1423.564932,90.221919 1422.000000,94.000000 1416.058328,108.344465 1381.941672,171.655535 1376.000000,186.000000 1369.820506,200.918619 1366.918619,220.179494 1352.000000,214.000000 1338.576232,208.439693 1257.423768,209.560307 1244.000000,204.000000 1239.054526,201.951518 1228.000000,203.333333 1228.000000,206.000000 1228.000000,228.117906 1229.535844,307.565720 1238.000000,328.000000 1244.292083,343.190433 1196.809567,349.707917 1212.000000,356.000000 1224.697510,361.259481 1249.059465,374.270652 1250.000000,372.000000 1268.224424,328.002348 1340.002348,250.224424 1384.000000,232.000000 1432.019709,212.109585 1541.980291,178.109585 1590.000000,198.000000 1599.801437,202.059888 1648.198563,213.940112 1658.000000,218.000000 1820.431862,285.281480 1896.152529,471.465239 1828.000000,636.000000 1809.131233,681.553234 1741.553234,767.131233 1696.000000,786.000000 1684.423527,790.795132 1631.576473,813.204868 1620.000000,818.000000 1615.358976,819.922375 1604.000000,816.976591 1604.000000,822.000000 1604.000000,827.111111 1624.159601,845.590745 1628.000000,844.000000 1635.265100,840.990697 1680.734900,851.009303 1688.000000,848.000000 1701.005351,842.613007 1702.994649,802.613007 1716.000000,808.000000 1736.745999,816.593274 1817.544692,818.000000 1840.000000,818.000000 1842.666667,818.000000 1842.000000,818.666667 1842.000000,816.000000 1842.000000,793.544692 1840.593274,712.745999 1832.000000,692.000000 1828.104861,682.596304 1838.596304,679.895139 1848.000000,676.000000 1863.864011,669.428911 1934.135989,632.571089 1950.000000,626.000000 1952.350924,625.026215 1954.973785,624.350924 1954.000000,622.000000 1946.684996,604.340019 1885.315004,529.659981 1878.000000,512.000000 1876.409458,508.160091 1886.409458,501.839909 1888.000000,498.000000 1893.040513,485.831125 1932.959487,434.168875 1938.000000,422.000000 1942.567739,410.972502 1963.027498,400.567739 1952.000000,396.000000 1934.348393,388.688465 1855.651607,349.311535 1838.000000,342.000000 1825.022564,336.624570 1836.000000,314.046675 1836.000000,300.000000 1836.000000,287.716902 1842.000000,218.283098 1842.000000,206.000000 1842.000000,203.333333 1830.945474,201.951518 1826.000000,204.000000 1812.576232,209.560307 1731.423768,208.439693 1718.000000,214.000000 1703.081381,220.179494 1700.179494,200.918619 1694.000000,186.000000 1688.574995,172.902880 1657.425005,115.097120 1652.000000,102.000000 1650.091458,97.392373 1650.607627,90.091458 1646.000000,92.000000 1628.340019,99.315004 1553.659981,160.684996 1536.000000,168.000000 1532.734694,169.352534 1527.265306,161.352534 1524.000000,160.000000 1508.616511,153.627950 1443.383489,102.372050 1428.000000,96.000000 Z "/></g>
</svg>