<?xml version="1.0" encoding="UTF-8"?>
<!DOCTYPE svg PUBLIC "-//W3C//DTD SVG 1.1 Tiny//EN" "http://www.w3.org/Graphics/SVG/1.1/DTD/svg11-tiny.dtd">
<svg version="1.1" width="2048" height="2048" viewBox="0 0 2048 2048" xmlns="http://www.w3.org/2000/svg">
<g fill="black">
<path d="M1012.000000,1520.000000 C1016.452888,1509.249777 1010.000000,1498.364042 1010.000000,1510.000000 1010.000000,1548.372444 1008.684499,1588.548485 994.000000,1624.000000 981.516550,1654.137713 953.862287,1673.516550 984.000000,1686.000000 1008.759665,1696.255789 1037.200332,1694.000000 1064.000000,1694.000000 1067.333333,1694.000000 1056.406819,1683.810575 1054.000000,1678.000000 1051.246382,1671.352179 1032.753618,1642.647821 1030.000000,1636.000000 1018.905976,1609.216656 1000.905976,1546.783344 1012.000000,1520.000000 Z M1552.000000,1504.000000 C1529.605261,1504.000000 1501.429904,1499.309959 1510.000000,1520.000000 1521.094024,1546.783344 1503.094024,1609.216656 1492.000000,1636.000000 1488.846706,1643.612724 1467.153294,1676.387276 1464.000000,1684.000000 1461.712058,1689.523581 1452.021319,1694.000000 1458.000000,1694.000000 1489.564665,1694.000000 1608.838052,1698.079274 1638.000000,1686.000000 1664.261591,1675.122093 1681.122093,1646.261591 1692.000000,1620.000000 1704.209482,1590.523704 1680.766128,1531.915320 1652.000000,1520.000000 1620.812318,1507.081639 1585.757304,1504.000000 1552.000000,1504.000000 Z M250.000000,1504.000000 C185.601990,1504.000000 142.005332,1575.243320 168.000000,1638.000000 180.312097,1667.724031 217.826941,1694.000000 250.000000,1694.000000 290.976077,1694.000000 448.143041,1701.680866 486.000000,1686.000000 507.557189,1677.070720 536.929280,1651.557189 528.000000,1630.000000 524.671728,1621.964841 515.328272,1582.035159 512.000000,1574.000000 504.943666,1556.964503 517.035497,1527.056334 500.000000,1520.000000 422.852525,1488.044469 333.503826,1504.000000 250.000000,1504.000000 Z M1288.000000,1386.000000 C1264.051244,1376.080100 1209.948756,1394.080100 1186.000000,1404.000000 1162.142207,1413.882221 1127.882221,1460.142207 1118.000000,1484.000000 1067.447560,1606.044387 1197.916624,1731.397017 1322.000000,1680.000000 1400.079210,1647.658532 1436.802828,1557.193033 1404.000000,1478.000000 1394.779766,1455.740386 1360.259614,1413.220234 1338.000000,1404.000000 1321.634607,1397.221232 1304.365393,1392.778768 1288.000000,1386.000000 Z M842.000000,1404.000000 C804.631386,1388.521413 759.368614,1370.521413 722.000000,1386.000000 695.643487,1396.917225 640.917225,1427.643487 630.000000,1454.000000 614.521413,1491.368614 596.521413,1536.631386 612.000000,1574.000000 622.917225,1600.356513 653.643487,1655.082775 680.000000,1666.000000 717.368614,1681.478587 762.631386,1699.478587 800.000000,1684.000000 826.356513,1673.082775 881.082775,1642.356513 892.000000,1616.000000 907.478587,1578.631386 925.478587,1533.368614 910.000000,1496.000000 899.082775,1469.643487 868.356513,1414.917225 842.000000,1404.000000 Z M442.000000,1120.000000 C377.601990,1120.000000 334.005332,1191.243320 360.000000,1254.000000 372.312097,1283.724031 409.826941,1310.000000 442.000000,1310.000000 480.623727,1310.000000 628.316329,1316.780660 664.000000,1302.000000 721.941125,1278.000000 798.058875,1278.000000 856.000000,1302.000000 903.479273,1321.666559 1102.608805,1310.000000 1154.000000,1310.000000 1156.981424,1310.000000 1159.245523,1307.140942 1162.000000,1306.000000 1197.643608,1291.235934 1237.419637,1286.000000 1276.000000,1286.000000 1289.740982,1286.000000 1296.741554,1262.695012 1302.000000,1250.000000 1327.108331,1189.383127 1283.343590,1120.000000 1220.000000,1120.000000 960.666667,1120.000000 701.333333,1120.000000 442.000000,1120.000000 Z M1082.000000,736.000000 C1076.154275,736.000000 1082.237062,748.599254 1080.000000,754.000000 1078.137119,758.497392 1073.862881,781.502608 1072.000000,786.000000 1065.311270,802.148024 1038.148024,829.311270 1022.000000,836.000000 985.577320,851.086768 943.423625,844.000000 904.000000,844.000000 875.078392,844.000000 774.720082,847.067820 748.000000,836.000000 743.868285,834.288588 736.000000,825.527864 736.000000,830.000000 736.000000,881.377778 777.833333,926.000000 826.000000,926.000000 1149.333333,926.000000 1472.666667,926.000000 1796.000000,926.000000 1834.944009,926.000000 1869.096773,887.979573 1884.000000,852.000000 1891.333675,834.294942 1877.333675,795.705058 1870.000000,778.000000 1859.782322,753.332343 1844.879807,783.120193 1826.000000,802.000000 1789.387919,838.612081 1745.835989,870.185685 1698.000000,890.000000 1563.417672,945.745825 1369.004854,927.004854 1266.000000,824.000000 1251.570905,809.570905 1197.808970,756.852521 1190.000000,738.000000 1189.639203,737.128958 1190.666667,736.000000 1188.000000,736.000000 1152.666667,736.000000 1117.333333,736.000000 1082.000000,736.000000 Z M332.000000,736.000000 C326.154275,736.000000 332.237062,748.599254 330.000000,754.000000 328.137119,758.497392 323.862881,781.502608 322.000000,786.000000 315.311270,802.148024 288.148024,829.311270 272.000000,836.000000 238.649214,849.814348 200.098630,844.000000 164.000000,844.000000 153.091440,844.000000 163.825475,859.921805 168.000000,870.000000 202.148759,952.442397 362.764993,926.000000 452.000000,926.000000 516.398010,926.000000 559.994668,854.756680 534.000000,792.000000 521.687903,762.275969 484.173059,736.000000 452.000000,736.000000 412.000000,736.000000 372.000000,736.000000 332.000000,736.000000 Z M570.000000,404.000000 C518.050820,382.481945 397.949180,418.481945 346.000000,440.000000 239.709816,484.026836 162.000000,630.952334 162.000000,746.000000 162.000000,748.666667 161.333333,748.000000 164.000000,748.000000 186.666667,748.000000 209.333333,748.000000 232.000000,748.000000 243.595545,748.000000 231.562577,720.712886 236.000000,710.000000 239.894203,700.598562 250.105797,653.401438 254.000000,644.000000 270.782920,603.482447 329.482447,526.782920 370.000000,510.000000 408.609072,494.007599 493.390928,458.007599 532.000000,474.000000 540.187722,477.391466 585.812278,480.608534 594.000000,484.000000 640.346286,503.197260 730.802740,561.653714 750.000000,608.000000 758.107913,627.574234 767.892087,646.425766 776.000000,666.000000 779.572041,674.623670 784.427959,721.376330 788.000000,730.000000 790.237062,735.400746 784.154275,748.000000 790.000000,748.000000 818.086982,748.000000 870.748423,763.948988 860.000000,738.000000 856.604371,729.802226 855.395629,682.197774 852.000000,674.000000 848.507801,665.569085 837.492199,624.430915 834.000000,616.000000 800.443902,534.988413 731.011587,461.556098 650.000000,428.000000 638.432972,423.208780 581.567028,408.791220 570.000000,404.000000 Z M1796.000000,352.000000 C1755.023923,352.000000 1597.856959,344.319134 1560.000000,360.000000 1528.709098,372.961116 1529.038884,428.709098 1542.000000,460.000000 1549.564154,478.261482 1563.738518,518.435846 1582.000000,526.000000 1586.366405,527.808624 1597.273838,542.000000 1602.000000,542.000000 1658.000000,542.000000 1714.000000,542.000000 1770.000000,542.000000 1774.607516,542.000000 1785.743211,531.763220 1790.000000,530.000000 1811.513150,521.088962 1841.534548,530.465452 1858.000000,514.000000 1916.404762,455.595238 1876.757202,352.000000 1796.000000,352.000000 Z M922.000000,352.000000 C914.209722,352.000000 929.018790,358.802722 932.000000,366.000000 935.865463,375.332054 976.134537,414.667946 980.000000,424.000000 986.918320,440.702301 1031.081680,513.297699 1038.000000,530.000000 1043.782335,543.959791 1050.040209,537.782335 1064.000000,532.000000 1154.133127,494.665636 1125.600000,352.000000 1028.000000,352.000000 992.666667,352.000000 957.333333,352.000000 922.000000,352.000000 Z M690.000000,310.000000 C582.822895,265.605790 449.177105,261.605790 342.000000,306.000000 225.708556,354.169493 120.169493,453.708556 72.000000,570.000000 49.341632,624.702139 38.000000,683.411765 38.000000,746.000000 38.000000,748.666667 37.333333,748.000000 40.000000,748.000000 63.333333,748.000000 86.666667,748.000000 110.000000,748.000000 112.666667,748.000000 112.000000,748.666667 112.000000,746.000000 112.000000,584.365591 208.891423,440.591222 360.000000,378.000000 417.925929,354.006295 483.301427,350.000000 546.000000,350.000000 682.710427,350.000000 829.683185,473.696035 882.000000,600.000000 886.526204,610.927224 899.473796,665.072776 904.000000,676.000000 906.546722,682.148330 907.453278,717.851670 910.000000,724.000000 912.851849,730.884974 904.547758,748.000000 912.000000,748.000000 935.333333,748.000000 958.666667,748.000000 982.000000,748.000000 984.666667,748.000000 984.000000,748.666667 984.000000,746.000000 984.000000,554.761905 868.931268,384.115758 690.000000,310.000000 Z M1558.000000,198.000000 C1516.935901,180.990693 1425.064099,216.990693 1384.000000,234.000000 1334.593032,254.465036 1262.465036,344.593032 1242.000000,394.000000 1177.908037,548.731686 1253.967909,737.026246 1406.000000,800.000000 1455.919901,820.677500 1511.967088,826.000000 1566.000000,826.000000 1676.206000,826.000000 1787.825990,723.817068 1830.000000,622.000000 1831.447085,618.506428 1797.692519,641.985227 1788.000000,646.000000 1723.620972,672.666667 1650.379028,672.666667 1586.000000,646.000000 1535.924868,625.258201 1482.741799,572.075132 1462.000000,522.000000 1435.333333,457.620972 1435.333333,384.379028 1462.000000,320.000000 1477.902419,281.608165 1539.608165,215.902419 1578.000000,200.000000 1586.463176,196.494438 1566.463176,201.505562 1558.000000,198.000000 Z "/></g>
</svg>