<?xml version="1.0" encoding="UTF-8"?>
<!DOCTYPE svg PUBLIC "-//W3C//DTD SVG 1.1 Tiny//EN" "http://www.w3.org/Graphics/SVG/1.1/DTD/svg11-tiny.dtd">
<svg version="1.1" width="2048" height="2048" viewBox="0 0 2048 2048" xmlns="http://www.w3.org/2000/svg">
<g fill="black">
<path d="M1012.000000,1520.000000 C1016.452888,1509.249777 1010.000000,1498.364042 1010.000000,1510.000000 1010.000000,1548.372444 1008.684499,1588.548485 994.000000,1624.000000 981.516550,1654.137713 953.862287,1673.516550 984.000000,1686.000000 1008.759665,1696.255789 1037.200332,1694.000000 1064.000000,1694.000000 1067.333333,1694.000000 1056.406819,1683.810575 1054.000000,1678.000000 1051.246382,1671.352179 1032.753618,1642.647821 1030.000000,1636.000000 1018.905976,1609.216656 1000.905976,1546.783344 1012.000000,1520.000000 Z M1552.000000,1504.000000 C1529.605261,1504.000000 1501.429904,1499.309959 1510.000000,1520.000000 1521.094024,1546.783344 1503.094024,1609.216656 1492.000000,1636.000000 1488.846706,1643.612724 1467.153294,1676.387276 1464.000000,1684.000000 1461.712058,1689.523581 1452.021319,1694.000000 1458.000000,1694.000000 1489.564665,1694.000000 1608.838052,1698.079274 1638.000000,1686.000000 1664.261591,1675.122093 1681.122093,1646.261591 1692.000000,1620.000000 1704.209482,1590.523704 1680.766128,1531.915320 1652.000000,1520.000000 1620.812318,1507.081639 1585.757304,1504.000000 1552.000000,1504.000000 Z M250.000000,1504.000000 C185.601990,1504.000000 142.005332,1575.243320 168.000000,1638.000000 180.312097,1667.724031 217.826941,1694.000000 250.000000,1694.000000 290.976077,1694.000000 448.143041,1701.680866 486.000000,1686.000000 507.557189,1677.070720 536.929280,1651.557189 528.000000,1630.000000 524.671728,1621.964841 515.328272,1582.035159 512.000000,1574.000000 504.943666,1556.964503 517.035497,1527.056334 500.000000,1520.000000 422.852525,1488.044469 333.503826,1504.000000 250.000000,1504.000000 Z M1288.000000,1386.000000 C1264.051244,1376.080100 1209.948756,1394.080100 1186.000000,1404.000000 1162.142207,1413.882221 1127.882221,1460.142207 1118.000000,1484.000000 1067.447560,1606.044387 1197.916624,1731.397017 1322.000000,1680.000000 1400.079210,1647.658532 1436.802828,1557.193033 1404.000000,1478.000000 1394.779766,1455.740386 1360.259614,1413.220234 1338.000000,1404.000000 1321.634607,1397.221232 1304.365393,1392.778768 1288.000000,1386.000000 Z M842.000000,1404.000000 C804.631386,1388.521413 759.368614,1370.521413 722.000000,1386.000000 695.643487,1396.917225 640.917225,1427.643487 630.000000,1454.000000 614.521413,1491.368614 596.521413,1536.631386 612.000000,1574.000000 622.917225,1600.356513 653.643487,1655.082775 680.000000,1666.000000 717.368614,1681.478587 762.631386,1699.478587 800.000000,1684.000000 826.356513,1673.082775 881.082775,1642.356513 892.000000,1616.000000 907.478587,1578.631386 925.478587,1533.368614 910.000000,1496.000000 899.082775,1469.643487 868.356513,1414.917225 842.000000,1404.000000 Z M442.000000,1120.000000 C377.601990,1120.000000 334.005332,1191.243320 360.000000,1254.000000 372.312097,1283.724031 409.826941,1310.000000 442.000000,1310.000000 480.623727,1310.000000 628.316329,1316.780660 664.000000,1302.000000 721.941125,1278.000000 798.058875,1278.000000 856.000000,1302.000000 903.479273,1321.666559 1102.608805,1310.000000 1154.000000,1310.000000 1156.981424,1310.000000 1159.245523,1307.140942 1162.000000,1306.000000 1197.643608,1291.235934 1237.419637,1286.000000 1276.000000,1286.000000 1289.740982,1286.000000 1296.741554,1262.695012 1302.000000,1250.000000 1327.108331,1189.383127 1283.343590,1120.000000 1220.000000,1120.000000 960.666667,1120.000000 701.333333,1120.000000 442.000000,1120.000000 Z M1082.000000,736.000000 C1076.154275,736.000000 1082.237062,748.599254 1080.000000,754.000000 1078.137119,758.497392 1073.862881,781.502608 1072.000000,786.000000 1065.311270,802.148024 1038.148024,829.311270 1022.000000,836.000000 985.577320,851.086768 943.423625,844.000000 904.000000,844.000000 875.078392,844.000000 774.720082,847.067820 748.000000,836.000000 743.868285,834.288588 736.000000,825.527864 736.000000,830.000000 736.000000,881.377778 777.833333,926.000000 826.000000,926.000000 1052.000000,926.000000 1278.000000,926.000000 1504.000000,926.000000 1507.399346,926.000000 1503.300874,919.140587 1502.000000,916.000000 1487.701767,881.481012 1505.580310,834.419690 1532.000000,808.000000 1537.011099,802.988901 1520.711987,798.547316 1518.000000,792.000000 1515.416664,785.763276 1500.583336,758.236724 1498.000000,752.000000 1495.835743,746.775022 1499.655475,736.000000 1494.000000,736.000000 1456.613134,736.000000 1416.540961,727.692666 1382.000000,742.000000 1357.363212,752.204892 1326.636788,752.204892 1302.000000,742.000000 1266.933668,727.475050 1119.955525,736.000000 1082.000000,736.000000 Z M332.000000,736.000000 C326.154275,736.000000 332.237062,748.599254 330.000000,754.000000 328.137119,758.497392 323.862881,781.502608 322.000000,786.000000 315.311270,802.148024 288.148024,829.311270 272.000000,836.000000 238.649214,849.814348 200.098630,844.000000 164.000000,844.000000 153.091440,844.000000 163.825475,859.921805 168.000000,870.000000 202.148759,952.442397 362.764993,926.000000 452.000000,926.000000 516.398010,926.000000 559.994668,854.756680 534.000000,792.000000 521.687903,762.275969 484.173059,736.000000 452.000000,736.000000 412.000000,736.000000 372.000000,736.000000 332.000000,736.000000 Z M1730.000000,664.000000 C1726.311752,655.095783 1729.688248,651.095783 1726.000000,660.000000 1720.877078,672.367827 1709.122922,735.632173 1704.000000,748.000000 1700.883728,755.523347 1705.523347,765.116272 1698.000000,762.000000 1683.785315,756.112085 1614.214685,737.887915 1600.000000,732.000000 1594.124238,729.566180 1593.502887,729.502887 1598.000000,734.000000 1607.038733,743.038733 1662.961267,794.961267 1672.000000,804.000000 1674.666667,806.666667 1674.666667,807.333333 1672.000000,810.000000 1662.718356,819.281644 1605.281644,872.718356 1596.000000,882.000000 1589.395214,888.604786 1603.370432,881.574484 1612.000000,878.000000 1623.810311,873.108009 1682.189689,858.891991 1694.000000,854.000000 1706.156197,848.964738 1700.964738,863.843803 1706.000000,876.000000 1709.161240,883.631909 1716.838760,922.368091 1720.000000,930.000000 1727.518626,948.151569 1720.481374,970.151569 1728.000000,952.000000 1732.092727,942.119284 1741.907273,891.880716 1746.000000,882.000000 1751.943121,867.652036 1745.652036,848.056879 1760.000000,854.000000 1768.918409,857.694126 1813.081591,868.305874 1822.000000,872.000000 1847.291083,882.475910 1869.356957,895.356957 1850.000000,876.000000 1842.930762,868.930762 1799.069238,827.069238 1792.000000,820.000000 1786.334619,814.334619 1774.334619,811.665381 1780.000000,806.000000 1793.099739,792.900261 1840.884366,739.089528 1858.000000,732.000000 1861.193240,730.677317 1861.193240,728.677317 1858.000000,730.000000 1843.147938,736.151925 1770.852062,755.848075 1756.000000,762.000000 1749.122392,764.848799 1752.848799,756.877608 1750.000000,750.000000 1745.048149,738.045173 1734.951851,675.954827 1730.000000,664.000000 Z M1708.000000,512.000000 C1695.113391,506.662192 1703.337808,519.113391 1698.000000,532.000000 1696.699126,535.140587 1692.600654,542.000000 1696.000000,542.000000 1727.333333,542.000000 1758.666667,542.000000 1790.000000,542.000000 1793.428571,542.000000 1785.888798,515.610793 1782.000000,514.000000 1777.516037,512.142682 1772.483963,516.142682 1768.000000,518.000000 1754.297006,523.675966 1721.702994,517.675966 1708.000000,512.000000 Z M570.000000,404.000000 C518.050820,382.481945 397.949180,418.481945 346.000000,440.000000 239.709816,484.026836 162.000000,630.952334 162.000000,746.000000 162.000000,748.666667 161.333333,748.000000 164.000000,748.000000 186.666667,748.000000 209.333333,748.000000 232.000000,748.000000 243.595545,748.000000 231.562577,720.712886 236.000000,710.000000 239.894203,700.598562 250.105797,653.401438 254.000000,644.000000 270.782920,603.482447 329.482447,526.782920 370.000000,510.000000 408.609072,494.007599 493.390928,458.007599 532.000000,474.000000 540.187722,477.391466 585.812278,480.608534 594.000000,484.000000 640.346286,503.197260 730.802740,561.653714 750.000000,608.000000 758.107913,627.574234 767.892087,646.425766 776.000000,666.000000 779.572041,674.623670 784.427959,721.376330 788.000000,730.000000 790.237062,735.400746 784.154275,748.000000 790.000000,748.000000 818.086982,748.000000 870.748423,763.948988 860.000000,738.000000 856.604371,729.802226 855.395629,682.197774 852.000000,674.000000 848.507801,665.569085 837.492199,624.430915 834.000000,616.000000 800.443902,534.988413 731.011587,461.556098 650.000000,428.000000 638.432972,423.208780 581.567028,408.791220 570.000000,404.000000 Z M1594.000000,352.000000 C1591.333333,352.000000 1591.333333,351.333333 1594.000000,354.000000 1602.731642,362.731642 1634.591560,397.274470 1646.000000,402.000000 1650.011774,403.661731 1652.000000,410.342313 1652.000000,406.000000 1652.000000,392.501029 1660.834167,380.471423 1666.000000,368.000000 1669.324895,359.972993 1686.688370,352.000000 1678.000000,352.000000 1650.000000,352.000000 1622.000000,352.000000 1594.000000,352.000000 Z M922.000000,352.000000 C907.067229,352.000000 942.285476,368.203918 948.000000,382.000000 952.262686,392.291034 989.737314,435.708966 994.000000,446.000000 995.633580,449.943810 998.981538,439.018462 1002.000000,436.000000 1010.552879,427.447121 1063.447121,378.552879 1072.000000,370.000000 1075.333333,366.666667 1066.355210,361.803987 1062.000000,360.000000 1039.053578,350.495281 946.837029,352.000000 922.000000,352.000000 Z M690.000000,310.000000 C582.822895,265.605790 449.177105,261.605790 342.000000,306.000000 225.708556,354.169493 120.169493,453.708556 72.000000,570.000000 49.341632,624.702139 38.000000,683.411765 38.000000,746.000000 38.000000,748.666667 37.333333,748.000000 40.000000,748.000000 63.333333,748.000000 86.666667,748.000000 110.000000,748.000000 112.666667,748.000000 112.000000,748.666667 112.000000,746.000000 112.000000,584.365591 208.891423,440.591222 360.000000,378.000000 417.925929,354.006295 483.301427,350.000000 546.000000,350.000000 682.710427,350.000000 829.683185,473.696035 882.000000,600.000000 886.526204,610.927224 899.473796,665.072776 904.000000,676.000000 906.546722,682.148330 907.453278,717.851670 910.000000,724.000000 912.851849,730.884974 904.547758,748.000000 912.000000,748.000000 935.333333,748.000000 958.666667,748.000000 982.000000,748.000000 984.666667,748.000000 984.000000,748.666667 984.000000,746.000000 984.000000,554.761905 868.931268,384.115758 690.000000,310.000000 Z M1882.000000,204.000000 C1879.120366,197.047948 1882.879634,191.047948 1880.000000,198.000000 1874.116528,212.203959 1861.883472,285.796041 1856.000000,300.000000 1853.454741,306.144800 1846.144800,300.545259 1840.000000,298.000000 1827.306752,292.742284 1764.693248,277.257716 1752.000000,272.000000 1747.845209,270.279029 1746.820061,268.820061 1750.000000,272.000000 1759.281644,281.281644 1816.718356,334.718356 1826.000000,344.000000 1828.666667,346.666667 1828.666667,347.333333 1826.000000,350.000000 1817.204188,358.795812 1762.795812,409.204188 1754.000000,418.000000 1749.523510,422.476490 1744.151183,424.422659 1750.000000,422.000000 1763.819160,416.275917 1832.180840,399.724083 1846.000000,394.000000 1849.920424,392.376107 1854.376107,390.079576 1856.000000,394.000000 1861.883472,408.203959 1874.116528,481.796041 1880.000000,496.000000 1881.242551,498.999783 1878.757449,500.999783 1880.000000,498.000000 1885.588642,484.507825 1898.411358,415.492175 1904.000000,402.000000 1906.574529,395.784537 1903.784537,389.425471 1910.000000,392.000000 1921.810311,396.891991 1980.189689,411.108009 1992.000000,416.000000 2002.984635,420.549985 2018.407275,428.407275 2010.000000,420.000000 1997.574874,407.574874 1952.234210,358.724430 1936.000000,352.000000 1921.462497,345.978369 1946.873477,333.126523 1958.000000,322.000000 1966.731642,313.268358 1998.591560,278.725530 2010.000000,274.000000 2012.837816,272.824538 2012.837816,268.824538 2010.000000,270.000000 1996.912472,275.421032 1933.087528,292.578968 1920.000000,298.000000 1913.350583,300.754279 1906.754279,304.649417 1904.000000,298.000000 1898.582330,284.920588 1887.417670,217.079412 1882.000000,204.000000 Z M1344.000000,48.000000 C1340.636557,39.879929 1345.363443,37.879929 1342.000000,46.000000 1330.233055,74.407918 1305.766945,221.592082 1294.000000,250.000000 1290.788753,257.752635 1285.752635,255.211247 1278.000000,252.000000 1249.235955,240.085542 1106.764045,205.914458 1078.000000,194.000000 1073.447715,192.114382 1095.333333,211.333333 1098.000000,214.000000 1115.129782,231.129782 1220.870218,326.870218 1238.000000,344.000000 1240.666667,346.666667 1240.666667,345.333333 1238.000000,348.000000 1197.654272,388.345728 1154.345728,425.654272 1114.000000,466.000000 1100.599355,479.400645 1062.491213,507.252377 1080.000000,500.000000 1109.161119,487.921069 1252.838881,452.078931 1282.000000,440.000000 1287.948326,437.536123 1291.536123,438.051674 1294.000000,444.000000 1305.301145,471.283379 1328.698855,612.716621 1340.000000,640.000000 1345.289149,652.769136 1338.710851,658.769136 1344.000000,646.000000 1355.766945,617.592082 1380.233055,470.407918 1392.000000,442.000000 1395.061467,434.608964 1408.608964,438.938533 1416.000000,442.000000 1441.537528,452.577990 1566.462472,485.422010 1592.000000,496.000000 1596.355210,497.803987 1609.333333,501.333333 1606.000000,498.000000 1588.165452,480.165452 1477.834548,377.834548 1460.000000,360.000000 1453.787740,353.787740 1441.787740,350.212260 1448.000000,344.000000 1467.317010,324.682990 1586.682990,215.317010 1606.000000,196.000000 1608.666667,193.333333 1608.666667,194.000000 1606.000000,194.000000 1597.998709,194.000000 1575.392229,202.938038 1568.000000,206.000000 1545.748646,215.216813 1436.251354,242.783187 1414.000000,252.000000 1407.224883,254.806345 1394.806345,258.775117 1392.000000,252.000000 1380.233055,223.592082 1355.766945,76.407918 1344.000000,48.000000 Z "/></g>
</svg>