<?xml version="1.0" encoding="UTF-8"?>
<!DOCTYPE svg PUBLIC "-//W3C//DTD SVG 1.1 Tiny//EN" "http://www.w3.org/Graphics/SVG/1.1/DTD/svg11-tiny.dtd">
<svg version="1.1" width="2048" height="2048" viewBox="0 0 2048 2048" xmlns="http://www.w3.org/2000/svg">
<g fill="black">
<path d="M1410.000000,1320.000000 C1406.406336,1311.324127 1407.593664,1303.324127 1404.000000,1312.000000 1391.767262,1341.532442 1366.232738,1494.467558 1354.000000,1524.000000 1352.869614,1526.728994 1350.728994,1525.130386 1348.000000,1524.000000 1318.932963,1511.960039 1177.067037,1474.039961 1148.000000,1462.000000 1130.146234,1454.604728 1159.889650,1481.889650 1168.000000,1490.000000 1183.890976,1505.890976 1282.109024,1596.109024 1298.000000,1612.000000 1300.666667,1614.666667 1300.666667,1615.333333 1298.000000,1618.000000 1257.654272,1658.345728 1214.345728,1695.654272 1174.000000,1736.000000 1168.632495,1741.367505 1149.012983,1761.095127 1142.000000,1764.000000 1136.528400,1766.266411 1142.528400,1770.266411 1148.000000,1768.000000 1177.067037,1755.960039 1318.932963,1718.039961 1348.000000,1706.000000 1350.728994,1704.869614 1352.869614,1703.271006 1354.000000,1706.000000 1364.737367,1731.922296 1387.262633,1866.077704 1398.000000,1892.000000 1403.282253,1904.752486 1402.717747,1934.752486 1408.000000,1922.000000 1420.255663,1892.412212 1443.744337,1737.587788 1456.000000,1708.000000 1458.507526,1701.946298 1463.946298,1705.492474 1470.000000,1708.000000 1497.791082,1719.511443 1634.208918,1754.488557 1662.000000,1766.000000 1676.537674,1772.021702 1674.537674,1762.021702 1660.000000,1756.000000 1653.417535,1753.273454 1635.038000,1733.038000 1630.000000,1728.000000 1615.567032,1713.567032 1526.432968,1632.432968 1512.000000,1618.000000 1509.333333,1615.333333 1509.333333,1614.666667 1512.000000,1612.000000 1526.432968,1597.567032 1615.567032,1516.432968 1630.000000,1502.000000 1651.456966,1480.543034 1690.034877,1452.387574 1662.000000,1464.000000 1633.326342,1475.877018 1492.673658,1512.122982 1464.000000,1524.000000 1454.715914,1527.845594 1457.845594,1517.284086 1454.000000,1508.000000 1443.164661,1481.841177 1420.835339,1346.158823 1410.000000,1320.000000 Z M1714.000000,390.000000 C1710.736610,382.121480 1713.263390,388.121480 1710.000000,396.000000 1698.233055,424.407918 1673.766945,571.592082 1662.000000,600.000000 1660.196013,604.355210 1652.355210,603.803987 1648.000000,602.000000 1619.178119,590.061586 1478.821881,551.938414 1450.000000,540.000000 1438.019211,535.037395 1452.830301,546.830301 1462.000000,556.000000 1479.615893,573.615893 1588.384107,672.384107 1606.000000,690.000000 1608.666667,692.666667 1608.666667,693.333333 1606.000000,696.000000 1590.837986,711.162014 1497.162014,796.837986 1482.000000,812.000000 1476.962000,817.038000 1458.582465,837.273454 1452.000000,840.000000 1445.869646,842.539276 1443.869646,850.539276 1450.000000,848.000000 1479.067037,835.960039 1620.932963,798.039961 1650.000000,786.000000 1663.850125,780.263091 1660.263091,794.149875 1666.000000,808.000000 1676.075355,832.324058 1697.924645,957.675942 1708.000000,982.000000 1713.401899,995.041339 1708.598101,1009.041339 1714.000000,996.000000 1725.399044,968.480274 1748.600956,825.519726 1760.000000,798.000000 1763.285242,790.068723 1762.068723,780.714758 1770.000000,784.000000 1797.791082,795.511443 1934.208918,830.488557 1962.000000,842.000000 1974.940379,847.360080 1983.904137,851.904137 1974.000000,842.000000 1959.324006,827.324006 1868.675994,744.675994 1854.000000,730.000000 1841.626193,717.626193 1814.882883,695.117117 1820.000000,690.000000 1839.074017,670.925983 1956.925983,563.074017 1976.000000,544.000000 1979.660357,540.339643 1976.782486,538.019029 1972.000000,540.000000 1942.932963,552.039961 1801.067037,589.960039 1772.000000,602.000000 1768.675291,603.377139 1765.377139,605.324709 1764.000000,602.000000 1751.767262,572.467558 1726.232738,419.532442 1714.000000,390.000000 Z M648.000000,122.000000 C642.916724,109.727887 639.504027,75.540530 636.000000,84.000000 611.534524,143.064885 560.465476,448.935115 536.000000,508.000000 534.196013,512.355210 526.355210,511.803987 522.000000,510.000000 462.794972,485.476475 171.205028,412.523525 112.000000,388.000000 81.358739,375.307974 134.548194,412.548194 158.000000,436.000000 190.996779,468.996779 395.003221,657.003221 428.000000,690.000000 430.666667,692.666667 430.666667,693.333333 428.000000,696.000000 392.549025,731.450975 173.450975,932.549025 138.000000,968.000000 132.962000,973.038000 114.582465,993.273454 108.000000,996.000000 102.772861,998.165152 102.772861,1004.165152 108.000000,1002.000000 168.087795,977.110820 463.912205,902.889180 524.000000,878.000000 538.542858,871.976151 533.976151,887.457142 540.000000,902.000000 563.166028,957.927739 610.833972,1248.072261 634.000000,1304.000000 640.241774,1319.068975 639.758226,1295.068975 646.000000,1280.000000 668.895914,1224.724375 715.104086,937.275625 738.000000,882.000000 742.081957,872.145285 760.145285,877.918043 770.000000,882.000000 824.699560,904.657299 1093.300440,973.342701 1148.000000,996.000000 1156.902404,999.687496 1170.000000,1009.635892 1170.000000,1000.000000 1170.000000,997.333333 1158.552285,985.885618 1154.000000,984.000000 1146.107102,980.730654 1124.040963,958.040963 1118.000000,952.000000 1084.760267,918.760267 879.239733,729.239733 846.000000,696.000000 841.093709,691.093709 849.093709,688.906291 854.000000,684.000000 889.207994,648.792006 1106.792006,449.207994 1142.000000,414.000000 1154.503263,401.496737 1180.336300,379.233283 1164.000000,386.000000 1103.912205,410.889180 808.087795,485.110820 748.000000,510.000000 744.675291,511.377139 741.377139,513.324709 740.000000,510.000000 717.593705,455.906418 670.406295,176.093582 648.000000,122.000000 Z "/></g>
</svg>