<?xml version="1.0" encoding="UTF-8"?>
<!DOCTYPE svg PUBLIC "-//W3C//DTD SVG 1.1 Tiny//EN" "http://www.w3.org/Graphics/SVG/1.1/DTD/svg11-tiny.dtd">
<svg version="1.1" width="2048" height="2048" viewBox="0 0 2048 2048" xmlns="http://www.w3.org/2000/svg">
<g fill="black">
<path d="M1208.000000,1504.000000 C1169.712346,1504.000000 1023.373180,1497.347949 988.000000,1512.000000 972.110139,1518.581796 955.418204,1522.110139 962.000000,1538.000000 970.579865,1558.713628 989.420135,1665.286372 998.000000,1686.000000 1001.046633,1693.355224 1010.038763,1694.000000 1018.000000,1694.000000 1150.666667,1694.000000 1283.333333,1694.000000 1416.000000,1694.000000 1426.890384,1694.000000 1417.832430,1670.061403 1422.000000,1660.000000 1426.070549,1650.172826 1428.666667,1632.000000 1426.000000,1632.000000 1362.450438,1632.000000 1246.319365,1646.712140 1222.000000,1588.000000 1215.172808,1571.517700 1201.172808,1536.482300 1208.000000,1520.000000 1210.666667,1513.562097 1210.666667,1504.000000 1208.000000,1504.000000 Z M398.000000,1504.000000 C386.708686,1504.000000 377.679001,1501.568186 382.000000,1512.000000 391.582659,1535.134586 414.417341,1652.865414 424.000000,1676.000000 426.488984,1682.008938 423.495972,1694.000000 430.000000,1694.000000 463.203086,1694.000000 513.293729,1682.675651 526.000000,1652.000000 550.770523,1592.198668 545.801332,1536.770523 486.000000,1512.000000 458.787779,1500.728329 427.454296,1504.000000 398.000000,1504.000000 Z M254.000000,1408.000000 C250.636557,1399.879929 255.363443,1401.879929 252.000000,1410.000000 233.528533,1454.594065 186.471467,1679.405935 168.000000,1724.000000 141.047122,1789.070004 213.272277,1867.982673 276.000000,1842.000000 359.063542,1807.593954 350.406046,1733.063542 316.000000,1650.000000 301.858878,1615.860311 268.141122,1442.139689 254.000000,1408.000000 Z M826.000000,1394.000000 C821.457134,1383.032552 826.542866,1375.032552 822.000000,1386.000000 801.508313,1435.471309 754.491687,1688.528691 734.000000,1738.000000 727.967251,1752.564344 729.967251,1787.435656 736.000000,1802.000000 755.083570,1848.071813 780.774194,1864.000000 836.000000,1864.000000 886.983051,1864.000000 933.640320,1793.415926 914.000000,1746.000000 893.508313,1696.528691 846.491687,1443.471309 826.000000,1394.000000 Z M442.000000,1120.000000 C377.601990,1120.000000 334.005332,1191.243320 360.000000,1254.000000 372.312097,1283.724031 409.826941,1310.000000 442.000000,1310.000000 545.333333,1310.000000 648.666667,1310.000000 752.000000,1310.000000 760.310865,1310.000000 780.321762,1291.180430 788.000000,1288.000000 812.052433,1278.037156 841.947567,1282.037156 866.000000,1292.000000 871.616244,1294.326324 885.921022,1310.000000 892.000000,1310.000000 1001.333333,1310.000000 1110.666667,1310.000000 1220.000000,1310.000000 1230.200407,1310.000000 1240.096473,1307.423947 1244.000000,1298.000000 1252.482298,1277.521922 1259.517702,1162.478078 1268.000000,1142.000000 1270.525582,1135.902706 1260.097294,1130.525582 1254.000000,1128.000000 1247.656665,1125.372505 1226.865976,1120.000000 1220.000000,1120.000000 960.666667,1120.000000 701.333333,1120.000000 442.000000,1120.000000 Z M1378.000000,1098.000000 C1372.344525,1098.000000 1376.164257,1108.775022 1374.000000,1114.000000 1361.198076,1144.906578 1346.801924,1315.093422 1334.000000,1346.000000 1324.103986,1369.891091 1315.896014,1504.108909 1306.000000,1528.000000 1302.412140,1536.661861 1304.624469,1536.000000 1314.000000,1536.000000 1388.666667,1536.000000 1463.333333,1536.000000 1538.000000,1536.000000 1544.034767,1536.000000 1542.309405,1542.424602 1540.000000,1548.000000 1530.016363,1572.102631 1519.983637,1705.897369 1510.000000,1730.000000 1497.466852,1760.257696 1486.533148,1929.742304 1474.000000,1960.000000 1472.132411,1964.508758 1470.132411,1970.508758 1472.000000,1966.000000 1505.655850,1884.747591 1728.344150,1533.252409 1762.000000,1452.000000 1763.569409,1448.211111 1768.101064,1446.000000 1764.000000,1446.000000 1686.666667,1446.000000 1609.333333,1446.000000 1532.000000,1446.000000 1523.885943,1446.000000 1532.894885,1439.496411 1536.000000,1432.000000 1557.464231,1380.180763 1698.535769,1155.819237 1720.000000,1104.000000 1721.569409,1100.211111 1726.101064,1098.000000 1722.000000,1098.000000 1607.333333,1098.000000 1492.666667,1098.000000 1378.000000,1098.000000 Z M1766.000000,910.000000 C1763.333333,910.000000 1755.333333,926.000000 1758.000000,926.000000 1782.147694,926.000000 1807.690440,927.240922 1830.000000,918.000000 1834.028477,916.331350 1838.360392,914.000000 1834.000000,914.000000 1825.161510,914.000000 1774.838490,910.000000 1766.000000,910.000000 Z M1082.000000,736.000000 C1076.154275,736.000000 1082.237062,748.599254 1080.000000,754.000000 1078.137119,758.497392 1073.862881,781.502608 1072.000000,786.000000 1065.311270,802.148024 1038.148024,829.311270 1022.000000,836.000000 985.577320,851.086768 943.423625,844.000000 904.000000,844.000000 875.078392,844.000000 774.720082,847.067820 748.000000,836.000000 743.868285,834.288588 736.000000,825.527864 736.000000,830.000000 736.000000,881.377778 777.833333,926.000000 826.000000,926.000000 987.333333,926.000000 1148.666667,926.000000 1310.000000,926.000000 1314.000000,926.000000 1306.000000,910.000000 1302.000000,910.000000 1284.845088,910.000000 1221.849072,918.564900 1206.000000,912.000000 1178.871552,900.763029 1149.236971,883.128448 1138.000000,856.000000 1126.253288,827.640928 1134.000000,794.695638 1134.000000,764.000000 1134.000000,750.768967 1137.231033,736.000000 1124.000000,736.000000 1110.000000,736.000000 1096.000000,736.000000 1082.000000,736.000000 Z M332.000000,736.000000 C326.154275,736.000000 332.237062,748.599254 330.000000,754.000000 328.137119,758.497392 323.862881,781.502608 322.000000,786.000000 315.311270,802.148024 288.148024,829.311270 272.000000,836.000000 238.649214,849.814348 200.098630,844.000000 164.000000,844.000000 153.091440,844.000000 163.825475,859.921805 168.000000,870.000000 202.148759,952.442397 362.764993,926.000000 452.000000,926.000000 516.398010,926.000000 559.994668,854.756680 534.000000,792.000000 521.687903,762.275969 484.173059,736.000000 452.000000,736.000000 412.000000,736.000000 372.000000,736.000000 332.000000,736.000000 Z M570.000000,404.000000 C518.050820,382.481945 397.949180,418.481945 346.000000,440.000000 239.709816,484.026836 162.000000,630.952334 162.000000,746.000000 162.000000,748.666667 161.333333,748.000000 164.000000,748.000000 186.666667,748.000000 209.333333,748.000000 232.000000,748.000000 243.595545,748.000000 231.562577,720.712886 236.000000,710.000000 239.894203,700.598562 250.105797,653.401438 254.000000,644.000000 270.782920,603.482447 329.482447,526.782920 370.000000,510.000000 408.609072,494.007599 493.390928,458.007599 532.000000,474.000000 540.187722,477.391466 585.812278,480.608534 594.000000,484.000000 640.346286,503.197260 730.802740,561.653714 750.000000,608.000000 758.107913,627.574234 767.892087,646.425766 776.000000,666.000000 779.572041,674.623670 784.427959,721.376330 788.000000,730.000000 790.237062,735.400746 784.154275,748.000000 790.000000,748.000000 818.086982,748.000000 870.748423,763.948988 860.000000,738.000000 856.604371,729.802226 855.395629,682.197774 852.000000,674.000000 848.507801,665.569085 837.492199,624.430915 834.000000,616.000000 800.443902,534.988413 731.011587,461.556098 650.000000,428.000000 638.432972,423.208780 581.567028,408.791220 570.000000,404.000000 Z M922.000000,352.000000 C914.209722,352.000000 929.018790,358.802722 932.000000,366.000000 935.865463,375.332054 976.134537,414.667946 980.000000,424.000000 986.918320,440.702301 1031.081680,513.297699 1038.000000,530.000000 1045.993721,549.298550 1079.993721,525.298550 1072.000000,506.000000 1067.744996,495.727511 1032.255004,452.272489 1028.000000,442.000000 1017.281827,416.124042 1015.281827,383.875958 1026.000000,358.000000 1027.569409,354.211111 1032.101064,352.000000 1028.000000,352.000000 992.666667,352.000000 957.333333,352.000000 922.000000,352.000000 Z M690.000000,310.000000 C582.822895,265.605790 449.177105,261.605790 342.000000,306.000000 225.708556,354.169493 120.169493,453.708556 72.000000,570.000000 49.341632,624.702139 38.000000,683.411765 38.000000,746.000000 38.000000,748.666667 37.333333,748.000000 40.000000,748.000000 63.333333,748.000000 86.666667,748.000000 110.000000,748.000000 112.666667,748.000000 112.000000,748.666667 112.000000,746.000000 112.000000,584.365591 208.891423,440.591222 360.000000,378.000000 417.925929,354.006295 483.301427,350.000000 546.000000,350.000000 682.710427,350.000000 829.683185,473.696035 882.000000,600.000000 886.526204,610.927224 899.473796,665.072776 904.000000,676.000000 906.546722,682.148330 907.453278,717.851670 910.000000,724.000000 912.851849,730.884974 904.547758,748.000000 912.000000,748.000000 935.333333,748.000000 958.666667,748.000000 982.000000,748.000000 984.666667,748.000000 984.000000,748.666667 984.000000,746.000000 984.000000,554.761905 868.931268,384.115758 690.000000,310.000000 Z M1640.000000,264.000000 C1505.624683,208.339921 1344.929540,270.216786 1292.000000,398.000000 1264.186990,465.146546 1260.186990,548.853454 1288.000000,616.000000 1344.586507,752.611913 1502.287878,815.870656 1642.000000,758.000000 1701.179702,733.486965 1757.486965,677.179702 1782.000000,618.000000 1839.870656,478.287878 1776.611913,320.586507 1640.000000,264.000000 Z M1384.000000,232.000000 C1432.019709,212.109585 1541.980291,178.109585 1590.000000,198.000000 1599.801437,202.059888 1648.198563,213.940112 1658.000000,218.000000 1820.431862,285.281480 1896.152529,471.465239 1828.000000,636.000000 1795.149600,715.307882 1719.307882,779.149600 1640.000000,812.000000 1567.871623,841.876552 1478.128377,831.876552 1406.000000,802.000000 1333.698269,772.051642 1271.948358,706.301731 1242.000000,634.000000 1237.940112,624.198563 1226.059888,575.801437 1222.000000,566.000000 1202.109585,517.980291 1236.109585,408.019709 1256.000000,360.000000 1272.858767,319.299337 1343.299337,248.858767 1384.000000,232.000000 Z M1428.000000,96.000000 C1424.221919,94.435068 1423.564932,90.221919 1422.000000,94.000000 1416.058328,108.344465 1381.941672,171.655535 1376.000000,186.000000 1369.820506,200.918619 1366.918619,220.179494 1352.000000,214.000000 1338.576232,208.439693 1257.423768,209.560307 1244.000000,204.000000 1239.054526,201.951518 1228.000000,203.333333 1228.000000,206.000000 1228.000000,218.039338 1234.000000,285.960662 1234.000000,298.000000 1234.000000,311.513658 1246.484992,336.828547 1234.000000,342.000000 1215.994012,349.458324 1136.005988,390.541676 1118.000000,398.000000 1114.221919,399.564932 1118.435068,400.221919 1120.000000,404.000000 1127.043074,421.003486 1184.956926,492.996514 1192.000000,510.000000 1193.352534,513.265306 1185.352534,518.734694 1184.000000,522.000000 1177.355206,538.041952 1122.644794,605.958048 1116.000000,622.000000 1114.091458,626.607627 1121.392373,626.091458 1126.000000,628.000000 1139.720792,633.683338 1200.279208,666.316662 1214.000000,672.000000 1227.343001,677.526852 1243.526852,680.656999 1238.000000,694.000000 1232.439693,707.423768 1233.560307,788.576232 1228.000000,802.000000 1225.951518,806.945474 1227.333333,818.000000 1230.000000,818.000000 1242.283098,818.000000 1311.716902,812.000000 1324.000000,812.000000 1338.046675,812.000000 1360.624570,801.022564 1366.000000,814.000000 1373.311535,831.651607 1412.688465,910.348393 1420.000000,928.000000 1423.568377,936.614825 1431.385175,921.568377 1440.000000,918.000000 1453.130371,912.561222 1508.869629,869.438778 1522.000000,864.000000 1525.839909,862.409458 1532.160091,852.409458 1536.000000,854.000000 1550.774756,860.119904 1613.225244,911.880096 1628.000000,918.000000 1638.604865,922.392679 1645.607321,936.604865 1650.000000,926.000000 1656.054393,911.383403 1689.945607,846.616597 1696.000000,832.000000 1701.203504,819.437629 1703.437629,802.796496 1716.000000,808.000000 1736.745999,816.593274 1817.544692,818.000000 1840.000000,818.000000 1842.666667,818.000000 1842.000000,818.666667 1842.000000,816.000000 1842.000000,793.544692 1840.593274,712.745999 1832.000000,692.000000 1828.104861,682.596304 1838.596304,679.895139 1848.000000,676.000000 1863.864011,669.428911 1934.135989,632.571089 1950.000000,626.000000 1952.350924,625.026215 1954.973785,624.350924 1954.000000,622.000000 1946.684996,604.340019 1885.315004,529.659981 1878.000000,512.000000 1876.409458,508.160091 1886.409458,501.839909 1888.000000,498.000000 1893.040513,485.831125 1932.959487,434.168875 1938.000000,422.000000 1942.567739,410.972502 1963.027498,400.567739 1952.000000,396.000000 1934.348393,388.688465 1855.651607,349.311535 1838.000000,342.000000 1825.022564,336.624570 1836.000000,314.046675 1836.000000,300.000000 1836.000000,287.716902 1842.000000,218.283098 1842.000000,206.000000 1842.000000,203.333333 1830.945474,201.951518 1826.000000,204.000000 1812.576232,209.560307 1731.423768,208.439693 1718.000000,214.000000 1703.081381,220.179494 1700.179494,200.918619 1694.000000,186.000000 1688.574995,172.902880 1657.425005,115.097120 1652.000000,102.000000 1650.091458,97.392373 1650.607627,90.091458 1646.000000,92.000000 1628.340019,99.315004 1553.659981,160.684996 1536.000000,168.000000 1532.734694,169.352534 1527.265306,161.352534 1524.000000,160.000000 1508.616511,153.627950 1443.383489,102.372050 1428.000000,96.000000 Z "/></g>
</svg>