<?xml version="1.0" encoding="UTF-8"?>
<!DOCTYPE svg PUBLIC "-//W3C//DTD SVG 1.1 Tiny//EN" "http://www.w3.org/Graphics/SVG/1.1/DTD/svg11-tiny.dtd">
<svg version="1.1" width="2048" height="2048" viewBox="0 0 2048 2048" xmlns="http://www.w3.org/2000/svg">
<g fill="black">
<path d="M1046.000000,1504.000000 C1041.294118,1504.000000 1024.055521,1533.305614 1026.000000,1538.000000 1028.114727,1543.105402 1043.885273,1564.894598 1046.000000,1570.000000 1060.541970,1605.107422 1060.541970,1648.892578 1046.000000,1684.000000 1044.626124,1687.316829 1038.409890,1694.000000 1042.000000,1694.000000 1166.666667,1694.000000 1291.333333,1694.000000 1416.000000,1694.000000 1426.890384,1694.000000 1417.832430,1670.061403 1422.000000,1660.000000 1426.070549,1650.172826 1428.666667,1632.000000 1426.000000,1632.000000 1383.333333,1632.000000 1340.666667,1632.000000 1298.000000,1632.000000 1250.106600,1632.000000 1189.671989,1564.247732 1208.000000,1520.000000 1210.666667,1513.562097 1210.666667,1504.000000 1208.000000,1504.000000 1154.000000,1504.000000 1100.000000,1504.000000 1046.000000,1504.000000 Z M884.000000,1120.000000 C870.747164,1120.000000 902.928359,1133.755976 908.000000,1146.000000 915.084791,1163.104198 954.895802,1162.915209 972.000000,1170.000000 995.940254,1179.916378 1036.083622,1220.059746 1046.000000,1244.000000 1048.695485,1250.507477 1055.304515,1283.492523 1058.000000,1290.000000 1060.442182,1295.895949 1053.618271,1310.000000 1060.000000,1310.000000 1102.000000,1310.000000 1144.000000,1310.000000 1186.000000,1310.000000 1205.742791,1310.000000 1236.444761,1316.239960 1244.000000,1298.000000 1252.482298,1277.521922 1259.517702,1162.478078 1268.000000,1142.000000 1270.525582,1135.902706 1260.097294,1130.525582 1254.000000,1128.000000 1247.656665,1125.372505 1226.865976,1120.000000 1220.000000,1120.000000 1108.000000,1120.000000 996.000000,1120.000000 884.000000,1120.000000 Z M1378.000000,1098.000000 C1372.344525,1098.000000 1376.164257,1108.775022 1374.000000,1114.000000 1361.198076,1144.906578 1346.801924,1315.093422 1334.000000,1346.000000 1324.103986,1369.891091 1315.896014,1504.108909 1306.000000,1528.000000 1302.412140,1536.661861 1304.624469,1536.000000 1314.000000,1536.000000 1388.666667,1536.000000 1463.333333,1536.000000 1538.000000,1536.000000 1544.034767,1536.000000 1542.309405,1542.424602 1540.000000,1548.000000 1530.016363,1572.102631 1519.983637,1705.897369 1510.000000,1730.000000 1497.466852,1760.257696 1486.533148,1929.742304 1474.000000,1960.000000 1472.132411,1964.508758 1470.132411,1970.508758 1472.000000,1966.000000 1505.655850,1884.747591 1728.344150,1533.252409 1762.000000,1452.000000 1763.569409,1448.211111 1768.101064,1446.000000 1764.000000,1446.000000 1686.666667,1446.000000 1609.333333,1446.000000 1532.000000,1446.000000 1523.885943,1446.000000 1532.894885,1439.496411 1536.000000,1432.000000 1557.464231,1380.180763 1698.535769,1155.819237 1720.000000,1104.000000 1721.569409,1100.211111 1726.101064,1098.000000 1722.000000,1098.000000 1607.333333,1098.000000 1492.666667,1098.000000 1378.000000,1098.000000 Z M556.000000,1052.000000 C540.536027,1014.666667 483.463973,1014.666667 468.000000,1052.000000 463.876679,1061.954577 465.915022,1127.278509 458.000000,1124.000000 439.812110,1116.466329 424.187890,1103.533671 406.000000,1096.000000 367.784343,1080.170556 329.533537,1122.246442 346.000000,1162.000000 353.262541,1179.533325 388.466675,1198.737459 406.000000,1206.000000 412.695810,1208.773495 441.304190,1229.226505 448.000000,1232.000000 453.991954,1234.481949 464.000000,1237.514356 464.000000,1244.000000 464.000000,1311.333333 464.000000,1378.666667 464.000000,1446.000000 464.000000,1450.753774 460.391915,1449.819191 456.000000,1448.000000 429.068891,1436.844769 312.931109,1361.155231 286.000000,1350.000000 281.447715,1348.114382 278.000000,1344.666667 278.000000,1342.000000 278.000000,1293.149370 293.132097,1206.694327 248.000000,1188.000000 217.204734,1175.244183 194.755817,1195.204734 182.000000,1226.000000 173.280355,1247.051085 199.051085,1294.719645 178.000000,1286.000000 150.147079,1274.462942 119.852921,1246.462942 92.000000,1258.000000 54.018234,1273.732562 50.104659,1331.131663 86.000000,1346.000000 117.362266,1358.990676 147.362266,1369.009324 116.000000,1382.000000 79.179711,1397.251463 48.748537,1423.179711 64.000000,1460.000000 93.534173,1531.301802 156.698198,1459.534173 228.000000,1430.000000 231.585716,1428.514748 238.414284,1434.514748 242.000000,1436.000000 267.000567,1446.355574 374.999433,1515.644426 400.000000,1526.000000 411.791792,1530.884320 417.791792,1537.115680 406.000000,1542.000000 378.443443,1553.414299 259.556557,1630.585701 232.000000,1642.000000 229.779270,1642.919856 228.220730,1638.919856 226.000000,1638.000000 157.515562,1609.632817 94.367183,1539.515562 66.000000,1608.000000 47.694668,1652.192982 85.807018,1677.694668 130.000000,1696.000000 137.022565,1698.908842 119.022565,1707.091158 112.000000,1710.000000 98.170760,1715.728259 71.728259,1734.170760 66.000000,1748.000000 49.533537,1787.753558 87.784343,1829.829444 126.000000,1814.000000 133.554939,1810.870642 166.445061,1791.129358 174.000000,1788.000000 179.958288,1785.531996 184.000000,1779.550796 184.000000,1786.000000 184.000000,1798.091944 181.372613,1844.828500 186.000000,1856.000000 202.251762,1895.235224 260.044696,1896.519512 276.000000,1858.000000 284.611934,1837.208951 280.000000,1750.504069 280.000000,1728.000000 280.000000,1724.441145 284.712046,1723.361915 288.000000,1722.000000 314.931109,1710.844769 431.068891,1635.155231 458.000000,1624.000000 459.847759,1623.234633 464.000000,1618.666667 464.000000,1624.000000 464.000000,1692.000000 464.000000,1760.000000 464.000000,1828.000000 464.000000,1834.485644 453.991954,1837.518051 448.000000,1840.000000 439.713911,1843.432210 404.286089,1868.567790 396.000000,1872.000000 381.166197,1878.144362 352.144362,1895.166197 346.000000,1910.000000 329.533537,1949.753558 367.784343,1991.829444 406.000000,1976.000000 424.187890,1968.466329 439.812110,1955.533671 458.000000,1948.000000 465.915022,1944.721491 463.876679,2010.045423 468.000000,2020.000000 482.359403,2054.666667 541.640597,2054.666667 556.000000,2020.000000 560.123321,2010.045423 558.084978,1944.721491 566.000000,1948.000000 584.187890,1955.533671 599.812110,1968.466329 618.000000,1976.000000 656.215657,1991.829444 694.466463,1949.753558 678.000000,1910.000000 671.855638,1895.166197 642.833803,1878.144362 628.000000,1872.000000 619.713911,1868.567790 584.286089,1843.432210 576.000000,1840.000000 570.008046,1837.518051 560.000000,1834.485644 560.000000,1828.000000 560.000000,1760.000000 560.000000,1692.000000 560.000000,1624.000000 560.000000,1617.550796 564.041712,1623.531996 570.000000,1626.000000 596.250796,1636.873436 709.749204,1709.126564 736.000000,1720.000000 740.552285,1721.885618 744.000000,1725.333333 744.000000,1728.000000 744.000000,1776.850630 728.867903,1863.305673 774.000000,1882.000000 804.795266,1894.755817 827.244183,1874.795266 840.000000,1844.000000 848.719645,1822.948915 822.948915,1775.280355 844.000000,1784.000000 871.852921,1795.537058 902.147079,1823.537058 930.000000,1812.000000 992.785076,1785.993570 956.785076,1726.006430 894.000000,1700.000000 884.404504,1696.025416 896.404504,1691.974584 906.000000,1688.000000 942.820289,1672.748537 973.251463,1646.820289 958.000000,1610.000000 928.465827,1538.698198 865.301802,1610.465827 794.000000,1640.000000 790.414284,1641.485252 783.585716,1635.485252 780.000000,1634.000000 753.694420,1623.103872 640.305580,1548.896128 614.000000,1538.000000 607.902706,1535.474418 621.902706,1526.525582 628.000000,1524.000000 653.965983,1513.244538 766.034017,1440.755462 792.000000,1430.000000 794.220730,1429.080144 795.779270,1433.080144 798.000000,1434.000000 866.484438,1462.367183 929.632817,1532.484438 958.000000,1464.000000 976.305332,1419.807018 938.192982,1394.305332 894.000000,1376.000000 886.977435,1373.091158 904.977435,1364.908842 912.000000,1362.000000 925.829240,1356.271741 952.271741,1337.829240 958.000000,1324.000000 974.466463,1284.246442 936.215657,1242.170556 898.000000,1258.000000 890.445061,1261.129358 857.554939,1280.870642 850.000000,1284.000000 844.041712,1286.468004 840.000000,1292.449204 840.000000,1286.000000 840.000000,1273.908056 842.627387,1227.171500 838.000000,1216.000000 821.748238,1176.764776 763.955304,1175.480488 748.000000,1214.000000 739.388066,1234.791049 744.000000,1321.495931 744.000000,1344.000000 744.000000,1347.558855 739.287954,1348.638085 736.000000,1350.000000 709.068891,1361.155231 592.931109,1436.844769 566.000000,1448.000000 564.152241,1448.765367 560.000000,1453.333333 560.000000,1448.000000 560.000000,1380.000000 560.000000,1312.000000 560.000000,1244.000000 560.000000,1237.514356 570.008046,1234.481949 576.000000,1232.000000 588.044793,1227.010884 639.955207,1192.989116 652.000000,1188.000000 691.175415,1171.773012 692.460793,1113.930982 654.000000,1098.000000 625.741433,1086.294918 594.258567,1112.294918 566.000000,1124.000000 558.084978,1127.278509 560.123321,1061.954577 556.000000,1052.000000 Z M1082.000000,736.000000 C1076.154275,736.000000 1082.237062,748.599254 1080.000000,754.000000 1078.137119,758.497392 1073.862881,781.502608 1072.000000,786.000000 1065.311270,802.148024 1038.148024,829.311270 1022.000000,836.000000 985.577320,851.086768 943.423625,844.000000 904.000000,844.000000 875.078392,844.000000 774.720082,847.067820 748.000000,836.000000 743.868285,834.288588 736.000000,825.527864 736.000000,830.000000 736.000000,881.377778 777.833333,926.000000 826.000000,926.000000 1149.333333,926.000000 1472.666667,926.000000 1796.000000,926.000000 1834.944009,926.000000 1869.096773,887.979573 1884.000000,852.000000 1891.333675,834.294942 1877.333675,795.705058 1870.000000,778.000000 1859.782322,753.332343 1844.879807,783.120193 1826.000000,802.000000 1789.387919,838.612081 1745.835989,870.185685 1698.000000,890.000000 1563.417672,945.745825 1369.004854,927.004854 1266.000000,824.000000 1251.570905,809.570905 1197.808970,756.852521 1190.000000,738.000000 1189.639203,737.128958 1190.666667,736.000000 1188.000000,736.000000 1152.666667,736.000000 1117.333333,736.000000 1082.000000,736.000000 Z M332.000000,736.000000 C326.154275,736.000000 332.237062,748.599254 330.000000,754.000000 328.137119,758.497392 323.862881,781.502608 322.000000,786.000000 315.311270,802.148024 288.148024,829.311270 272.000000,836.000000 238.649214,849.814348 200.098630,844.000000 164.000000,844.000000 153.091440,844.000000 163.825475,859.921805 168.000000,870.000000 202.148759,952.442397 362.764993,926.000000 452.000000,926.000000 516.398010,926.000000 559.994668,854.756680 534.000000,792.000000 521.687903,762.275969 484.173059,736.000000 452.000000,736.000000 412.000000,736.000000 372.000000,736.000000 332.000000,736.000000 Z M570.000000,404.000000 C518.050820,382.481945 397.949180,418.481945 346.000000,440.000000 239.709816,484.026836 162.000000,630.952334 162.000000,746.000000 162.000000,748.666667 161.333333,748.000000 164.000000,748.000000 186.666667,748.000000 209.333333,748.000000 232.000000,748.000000 243.595545,748.000000 231.562577,720.712886 236.000000,710.000000 239.894203,700.598562 250.105797,653.401438 254.000000,644.000000 270.782920,603.482447 329.482447,526.782920 370.000000,510.000000 408.609072,494.007599 493.390928,458.007599 532.000000,474.000000 540.187722,477.391466 585.812278,480.608534 594.000000,484.000000 640.346286,503.197260 730.802740,561.653714 750.000000,608.000000 758.107913,627.574234 767.892087,646.425766 776.000000,666.000000 779.572041,674.623670 784.427959,721.376330 788.000000,730.000000 790.237062,735.400746 784.154275,748.000000 790.000000,748.000000 818.086982,748.000000 870.748423,763.948988 860.000000,738.000000 856.604371,729.802226 855.395629,682.197774 852.000000,674.000000 848.507801,665.569085 837.492199,624.430915 834.000000,616.000000 800.443902,534.988413 731.011587,461.556098 650.000000,428.000000 638.432972,423.208780 581.567028,408.791220 570.000000,404.000000 Z M1796.000000,352.000000 C1755.023923,352.000000 1597.856959,344.319134 1560.000000,360.000000 1528.709098,372.961116 1529.038884,428.709098 1542.000000,460.000000 1549.564154,478.261482 1563.738518,518.435846 1582.000000,526.000000 1586.366405,527.808624 1597.273838,542.000000 1602.000000,542.000000 1658.000000,542.000000 1714.000000,542.000000 1770.000000,542.000000 1774.607516,542.000000 1785.743211,531.763220 1790.000000,530.000000 1811.513150,521.088962 1841.534548,530.465452 1858.000000,514.000000 1916.404762,455.595238 1876.757202,352.000000 1796.000000,352.000000 Z M922.000000,352.000000 C914.209722,352.000000 929.018790,358.802722 932.000000,366.000000 935.865463,375.332054 976.134537,414.667946 980.000000,424.000000 986.918320,440.702301 1031.081680,513.297699 1038.000000,530.000000 1043.782335,543.959791 1050.040209,537.782335 1064.000000,532.000000 1154.133127,494.665636 1125.600000,352.000000 1028.000000,352.000000 992.666667,352.000000 957.333333,352.000000 922.000000,352.000000 Z M690.000000,310.000000 C582.822895,265.605790 449.177105,261.605790 342.000000,306.000000 225.708556,354.169493 120.169493,453.708556 72.000000,570.000000 49.341632,624.702139 38.000000,683.411765 38.000000,746.000000 38.000000,748.666667 37.333333,748.000000 40.000000,748.000000 63.333333,748.000000 86.666667,748.000000 110.000000,748.000000 112.666667,748.000000 112.000000,748.666667 112.000000,746.000000 112.000000,584.365591 208.891423,440.591222 360.000000,378.000000 417.925929,354.006295 483.301427,350.000000 546.000000,350.000000 682.710427,350.000000 829.683185,473.696035 882.000000,600.000000 886.526204,610.927224 899.473796,665.072776 904.000000,676.000000 906.546722,682.148330 907.453278,717.851670 910.000000,724.000000 912.851849,730.884974 904.547758,748.000000 912.000000,748.000000 935.333333,748.000000 958.666667,748.000000 982.000000,748.000000 984.666667,748.000000 984.000000,748.666667 984.000000,746.000000 984.000000,554.761905 868.931268,384.115758 690.000000,310.000000 Z M1558.000000,198.000000 C1516.935901,180.990693 1425.064099,216.990693 1384.000000,234.000000 1334.593032,254.465036 1262.465036,344.593032 1242.000000,394.000000 1177.908037,548.731686 1253.967909,737.026246 1406.000000,800.000000 1455.919901,820.677500 1511.967088,826.000000 1566.000000,826.000000 1676.206000,826.000000 1787.825990,723.817068 1830.000000,622.000000 1831.447085,618.506428 1797.692519,641.985227 1788.000000,646.000000 1723.620972,672.666667 1650.379028,672.666667 1586.000000,646.000000 1535.924868,625.258201 1482.741799,572.075132 1462.000000,522.000000 1435.333333,457.620972 1435.333333,384.379028 1462.000000,320.000000 1477.902419,281.608165 1539.608165,215.902419 1578.000000,200.000000 1586.463176,196.494438 1566.463176,201.505562 1558.000000,198.000000 Z "/></g>
</svg>