<?xml version="1.0" encoding="UTF-8"?>
<!DOCTYPE svg PUBLIC "-//W3C//DTD SVG 1.1 Tiny//EN" "http://www.w3.org/Graphics/SVG/1.1/DTD/svg11-tiny.dtd">
<svg version="1.1" width="2048" height="2048" viewBox="0 0 2048 2048" xmlns="http://www.w3.org/2000/svg">
<g fill="black">
<path d="M1276.000000,1628.000000 C1272.883709,1626.709190 1275.290810,1626.883709 1274.000000,1630.000000 1267.211772,1646.388233 1250.788228,1729.611767 1244.000000,1746.000000 1218.479855,1807.611080 1296.831155,1887.336965 1358.000000,1862.000000 1368.205174,1857.772878 1389.772878,1850.205174 1394.000000,1840.000000 1399.185500,1827.481097 1402.814500,1756.518903 1408.000000,1744.000000 1420.288317,1714.333379 1412.288317,1677.666621 1400.000000,1648.000000 1397.726931,1642.512325 1399.939816,1632.000000 1394.000000,1632.000000 1373.511961,1632.000000 1294.928480,1635.840433 1276.000000,1628.000000 Z M824.000000,1168.000000 C821.649436,1162.325237 824.350564,1160.325237 822.000000,1166.000000 804.717457,1207.723749 769.282543,1424.276251 752.000000,1466.000000 736.434200,1503.579166 701.565800,1696.420834 686.000000,1734.000000 658.422870,1800.577081 698.510500,1888.388080 770.000000,1918.000000 857.430501,1954.214899 929.785101,1911.430501 966.000000,1824.000000 973.023621,1807.043478 975.023621,1764.956522 968.000000,1748.000000 934.271026,1666.571053 857.728974,1249.428947 824.000000,1168.000000 Z M1378.000000,1098.000000 C1372.344525,1098.000000 1376.164257,1108.775022 1374.000000,1114.000000 1361.198076,1144.906578 1346.801924,1315.093422 1334.000000,1346.000000 1324.103986,1369.891091 1315.896014,1504.108909 1306.000000,1528.000000 1302.412140,1536.661861 1304.624469,1536.000000 1314.000000,1536.000000 1388.666667,1536.000000 1463.333333,1536.000000 1538.000000,1536.000000 1544.034767,1536.000000 1542.309405,1542.424602 1540.000000,1548.000000 1530.016363,1572.102631 1519.983637,1705.897369 1510.000000,1730.000000 1497.466852,1760.257696 1486.533148,1929.742304 1474.000000,1960.000000 1472.132411,1964.508758 1470.132411,1970.508758 1472.000000,1966.000000 1505.655850,1884.747591 1728.344150,1533.252409 1762.000000,1452.000000 1763.569409,1448.211111 1768.101064,1446.000000 1764.000000,1446.000000 1686.666667,1446.000000 1609.333333,1446.000000 1532.000000,1446.000000 1523.885943,1446.000000 1532.894885,1439.496411 1536.000000,1432.000000 1557.464231,1380.180763 1698.535769,1155.819237 1720.000000,1104.000000 1721.569409,1100.211111 1726.101064,1098.000000 1722.000000,1098.000000 1607.333333,1098.000000 1492.666667,1098.000000 1378.000000,1098.000000 Z M1056.000000,1074.000000 C1052.636557,1065.879929 1057.363443,1067.879929 1054.000000,1076.000000 1035.528533,1120.594065 988.471467,1345.405935 970.000000,1390.000000 943.047122,1455.070004 1015.272277,1533.982673 1078.000000,1508.000000 1161.063542,1473.593954 1152.406046,1399.063542 1118.000000,1316.000000 1103.858878,1281.860311 1070.141122,1108.139689 1056.000000,1074.000000 Z M556.000000,1052.000000 C540.536027,1014.666667 483.463973,1014.666667 468.000000,1052.000000 463.876679,1061.954577 465.915022,1127.278509 458.000000,1124.000000 439.812110,1116.466329 424.187890,1103.533671 406.000000,1096.000000 367.784343,1080.170556 329.533537,1122.246442 346.000000,1162.000000 353.262541,1179.533325 388.466675,1198.737459 406.000000,1206.000000 412.695810,1208.773495 441.304190,1229.226505 448.000000,1232.000000 453.991954,1234.481949 464.000000,1237.514356 464.000000,1244.000000 464.000000,1311.333333 464.000000,1378.666667 464.000000,1446.000000 464.000000,1450.753774 460.391915,1449.819191 456.000000,1448.000000 429.068891,1436.844769 312.931109,1361.155231 286.000000,1350.000000 281.447715,1348.114382 278.000000,1344.666667 278.000000,1342.000000 278.000000,1293.149370 293.132097,1206.694327 248.000000,1188.000000 217.204734,1175.244183 194.755817,1195.204734 182.000000,1226.000000 173.280355,1247.051085 199.051085,1294.719645 178.000000,1286.000000 150.147079,1274.462942 119.852921,1246.462942 92.000000,1258.000000 54.018234,1273.732562 50.104659,1331.131663 86.000000,1346.000000 117.362266,1358.990676 147.362266,1369.009324 116.000000,1382.000000 79.179711,1397.251463 48.748537,1423.179711 64.000000,1460.000000 93.534173,1531.301802 156.698198,1459.534173 228.000000,1430.000000 231.585716,1428.514748 238.414284,1434.514748 242.000000,1436.000000 267.679961,1446.636988 378.320039,1519.363012 404.000000,1530.000000 413.978153,1534.133086 415.978153,1537.866914 406.000000,1542.000000 378.443443,1553.414299 259.556557,1630.585701 232.000000,1642.000000 229.779270,1642.919856 228.220730,1638.919856 226.000000,1638.000000 157.515562,1609.632817 94.367183,1539.515562 66.000000,1608.000000 47.694668,1652.192982 85.807018,1677.694668 130.000000,1696.000000 137.022565,1698.908842 119.022565,1707.091158 112.000000,1710.000000 98.170760,1715.728259 71.728259,1734.170760 66.000000,1748.000000 49.533537,1787.753558 87.784343,1829.829444 126.000000,1814.000000 133.554939,1810.870642 166.445061,1791.129358 174.000000,1788.000000 179.958288,1785.531996 184.000000,1779.550796 184.000000,1786.000000 184.000000,1798.091944 181.372613,1844.828500 186.000000,1856.000000 202.251762,1895.235224 260.044696,1896.519512 276.000000,1858.000000 284.611934,1837.208951 280.000000,1750.504069 280.000000,1728.000000 280.000000,1724.441145 284.712046,1723.361915 288.000000,1722.000000 314.931109,1710.844769 431.068891,1635.155231 458.000000,1624.000000 459.847759,1623.234633 464.000000,1618.666667 464.000000,1624.000000 464.000000,1692.000000 464.000000,1760.000000 464.000000,1828.000000 464.000000,1834.485644 453.991954,1837.518051 448.000000,1840.000000 439.713911,1843.432210 404.286089,1868.567790 396.000000,1872.000000 381.166197,1878.144362 352.144362,1895.166197 346.000000,1910.000000 329.533537,1949.753558 367.784343,1991.829444 406.000000,1976.000000 424.187890,1968.466329 439.812110,1955.533671 458.000000,1948.000000 465.915022,1944.721491 463.876679,2010.045423 468.000000,2020.000000 482.359403,2054.666667 541.640597,2054.666667 556.000000,2020.000000 560.123321,2010.045423 558.084978,1944.721491 566.000000,1948.000000 594.258567,1959.705082 625.741433,1985.705082 654.000000,1974.000000 681.820350,1962.476434 637.523566,1949.820350 626.000000,1922.000000 622.987446,1914.727051 603.012554,1883.272949 600.000000,1876.000000 597.912947,1870.961408 595.856371,1853.856371 592.000000,1850.000000 584.917445,1842.917445 560.000000,1838.016245 560.000000,1828.000000 560.000000,1760.000000 560.000000,1692.000000 560.000000,1624.000000 560.000000,1617.550796 564.041712,1623.531996 570.000000,1626.000000 590.643004,1634.550612 601.449388,1656.643004 610.000000,1636.000000 614.681124,1624.698766 623.318876,1565.301234 628.000000,1554.000000 630.655554,1547.588925 610.000000,1542.939298 610.000000,1536.000000 610.000000,1529.500429 635.512722,1524.004821 638.000000,1518.000000 645.010829,1501.074360 658.989171,1412.925640 666.000000,1396.000000 667.891771,1391.432861 670.567139,1390.108229 666.000000,1392.000000 650.204300,1398.542793 581.795700,1441.457207 566.000000,1448.000000 564.152241,1448.765367 560.000000,1453.333333 560.000000,1448.000000 560.000000,1380.000000 560.000000,1312.000000 560.000000,1244.000000 560.000000,1237.514356 570.008046,1234.481949 576.000000,1232.000000 582.695810,1229.226505 611.304190,1208.773495 618.000000,1206.000000 635.533325,1198.737459 670.737459,1179.533325 678.000000,1162.000000 694.466463,1122.246442 656.215657,1080.170556 618.000000,1096.000000 599.812110,1103.533671 584.187890,1116.466329 566.000000,1124.000000 558.084978,1127.278509 560.123321,1061.954577 556.000000,1052.000000 Z M1944.000000,764.000000 C1939.521460,753.187847 1934.000000,730.297010 1934.000000,742.000000 1934.000000,780.023385 1944.550919,820.870973 1930.000000,856.000000 1923.311270,872.148024 1896.148024,899.311270 1880.000000,906.000000 1849.269198,918.729115 1803.270885,903.269198 1816.000000,934.000000 1821.666479,947.680091 1805.192776,984.000000 1820.000000,984.000000 1869.333333,984.000000 1918.666667,984.000000 1968.000000,984.000000 1970.666667,984.000000 1970.000000,984.666667 1970.000000,982.000000 1970.000000,941.267714 1959.587571,801.631726 1944.000000,764.000000 Z M1042.000000,286.000000 C941.583091,286.000000 838.773127,303.572113 746.000000,342.000000 727.081197,349.836425 644.918803,400.163575 626.000000,408.000000 613.447365,413.199472 560.552635,466.800528 548.000000,472.000000 531.169335,478.971490 498.971490,513.169335 492.000000,530.000000 487.998730,539.659920 448.001270,580.340080 444.000000,590.000000 437.315925,606.136784 392.684075,675.863216 386.000000,692.000000 376.763944,714.297812 345.236056,821.702188 336.000000,844.000000 329.774781,859.029008 328.225219,946.970992 322.000000,962.000000 319.813265,967.279246 321.333333,984.000000 324.000000,984.000000 342.068208,984.000000 387.223848,990.776152 400.000000,978.000000 416.878652,961.121348 435.946979,945.134661 458.000000,936.000000 460.684008,934.888247 469.945749,934.054251 472.000000,932.000000 478.369667,925.630333 474.552761,892.322371 478.000000,884.000000 483.824476,869.938471 500.175524,800.061529 506.000000,786.000000 511.279338,773.254550 540.720662,716.745450 546.000000,704.000000 551.065472,691.770869 596.934528,640.229131 602.000000,628.000000 607.337041,615.115243 631.115243,589.337041 644.000000,584.000000 650.410306,581.344765 677.589694,550.655235 684.000000,548.000000 695.207373,543.357754 742.792627,506.642246 754.000000,502.000000 769.591113,495.541949 840.408887,464.458051 856.000000,458.000000 885.517952,445.773264 992.049999,434.000000 1024.000000,434.000000 1026.748737,434.000000 1023.051896,428.539502 1022.000000,426.000000 995.816373,362.787133 1044.787133,318.183627 1108.000000,292.000000 1112.663210,290.068435 1104.663210,293.931565 1100.000000,292.000000 1090.111771,287.904162 1052.702942,286.000000 1042.000000,286.000000 Z M1640.000000,264.000000 C1505.624683,208.339921 1344.929540,270.216786 1292.000000,398.000000 1264.186990,465.146546 1260.186990,548.853454 1288.000000,616.000000 1344.586507,752.611913 1502.287878,815.870656 1642.000000,758.000000 1701.179702,733.486965 1757.486965,677.179702 1782.000000,618.000000 1839.870656,478.287878 1776.611913,320.586507 1640.000000,264.000000 Z M1384.000000,232.000000 C1432.019709,212.109585 1541.980291,178.109585 1590.000000,198.000000 1599.801437,202.059888 1648.198563,213.940112 1658.000000,218.000000 1820.431862,285.281480 1896.152529,471.465239 1828.000000,636.000000 1795.149600,715.307882 1719.307882,779.149600 1640.000000,812.000000 1567.871623,841.876552 1478.128377,831.876552 1406.000000,802.000000 1333.698269,772.051642 1271.948358,706.301731 1242.000000,634.000000 1237.940112,624.198563 1226.059888,575.801437 1222.000000,566.000000 1202.109585,517.980291 1236.109585,408.019709 1256.000000,360.000000 1272.858767,319.299337 1343.299337,248.858767 1384.000000,232.000000 Z M1428.000000,96.000000 C1424.221919,94.435068 1423.564932,90.221919 1422.000000,94.000000 1416.058328,108.344465 1381.941672,171.655535 1376.000000,186.000000 1369.820506,200.918619 1366.918619,220.179494 1352.000000,214.000000 1338.576232,208.439693 1257.423768,209.560307 1244.000000,204.000000 1239.054526,201.951518 1228.000000,203.333333 1228.000000,206.000000 1228.000000,218.039338 1234.000000,285.960662 1234.000000,298.000000 1234.000000,311.513658 1246.484992,336.828547 1234.000000,342.000000 1215.994012,349.458324 1136.005988,390.541676 1118.000000,398.000000 1114.221919,399.564932 1118.435068,400.221919 1120.000000,404.000000 1127.043074,421.003486 1184.956926,492.996514 1192.000000,510.000000 1193.352534,513.265306 1185.352534,518.734694 1184.000000,522.000000 1177.355206,538.041952 1122.644794,605.958048 1116.000000,622.000000 1114.091458,626.607627 1121.392373,626.091458 1126.000000,628.000000 1139.720792,633.683338 1200.279208,666.316662 1214.000000,672.000000 1227.343001,677.526852 1243.526852,680.656999 1238.000000,694.000000 1232.439693,707.423768 1233.560307,788.576232 1228.000000,802.000000 1225.951518,806.945474 1227.333333,818.000000 1230.000000,818.000000 1242.283098,818.000000 1311.716902,812.000000 1324.000000,812.000000 1338.046675,812.000000 1360.624570,801.022564 1366.000000,814.000000 1373.311535,831.651607 1412.688465,910.348393 1420.000000,928.000000 1423.568377,936.614825 1431.385175,921.568377 1440.000000,918.000000 1453.130371,912.561222 1508.869629,869.438778 1522.000000,864.000000 1525.839909,862.409458 1532.160091,852.409458 1536.000000,854.000000 1550.774756,860.119904 1613.225244,911.880096 1628.000000,918.000000 1638.604865,922.392679 1645.607321,936.604865 1650.000000,926.000000 1656.054393,911.383403 1689.945607,846.616597 1696.000000,832.000000 1701.203504,819.437629 1703.437629,802.796496 1716.000000,808.000000 1736.745999,816.593274 1817.544692,818.000000 1840.000000,818.000000 1842.666667,818.000000 1842.000000,818.666667 1842.000000,816.000000 1842.000000,793.544692 1840.593274,712.745999 1832.000000,692.000000 1828.104861,682.596304 1838.596304,679.895139 1848.000000,676.000000 1863.864011,669.428911 1934.135989,632.571089 1950.000000,626.000000 1952.350924,625.026215 1954.973785,624.350924 1954.000000,622.000000 1946.684996,604.340019 1885.315004,529.659981 1878.000000,512.000000 1876.409458,508.160091 1886.409458,501.839909 1888.000000,498.000000 1893.040513,485.831125 1932.959487,434.168875 1938.000000,422.000000 1942.567739,410.972502 1963.027498,400.567739 1952.000000,396.000000 1934.348393,388.688465 1855.651607,349.311535 1838.000000,342.000000 1825.022564,336.624570 1836.000000,314.046675 1836.000000,300.000000 1836.000000,287.716902 1842.000000,218.283098 1842.000000,206.000000 1842.000000,203.333333 1830.945474,201.951518 1826.000000,204.000000 1812.576232,209.560307 1731.423768,208.439693 1718.000000,214.000000 1703.081381,220.179494 1700.179494,200.918619 1694.000000,186.000000 1688.574995,172.902880 1657.425005,115.097120 1652.000000,102.000000 1650.091458,97.392373 1650.607627,90.091458 1646.000000,92.000000 1628.340019,99.315004 1553.659981,160.684996 1536.000000,168.000000 1532.734694,169.352534 1527.265306,161.352534 1524.000000,160.000000 1508.616511,153.627950 1443.383489,102.372050 1428.000000,96.000000 Z M1310.000000,84.000000 C1210.525633,42.796368 1097.670279,40.000000 990.000000,40.000000 870.471296,40.000000 750.430123,72.258345 640.000000,118.000000 541.774809,158.686206 449.178307,218.821693 374.000000,294.000000 332.019225,335.980775 204.719832,491.149474 182.000000,546.000000 176.756214,558.659618 149.243786,615.340382 144.000000,628.000000 97.968982,739.128708 74.000000,861.715153 74.000000,982.000000 74.000000,984.666667 73.333333,984.000000 76.000000,984.000000 124.666667,984.000000 173.333333,984.000000 222.000000,984.000000 224.666667,984.000000 224.000000,984.666667 224.000000,982.000000 224.000000,873.741051 248.571094,764.018227 290.000000,664.000000 367.040595,478.007551 538.007551,321.040595 724.000000,244.000000 733.203352,240.187847 776.796648,225.812153 786.000000,222.000000 892.288538,177.973846 1014.954115,194.000000 1130.000000,194.000000 1134.231790,194.000000 1130.380564,185.909664 1132.000000,182.000000 1143.236971,154.871552 1160.871552,125.236971 1188.000000,114.000000 1214.548925,103.003075 1245.263651,108.000000 1274.000000,108.000000 1284.483767,108.000000 1301.988036,115.685737 1306.000000,106.000000 1310.786086,94.445366 1321.554634,88.786086 1310.000000,84.000000 Z "/></g>
</svg>