<?xml version="1.0" encoding="UTF-8"?>
<!DOCTYPE svg PUBLIC "-//W3C//DTD SVG 1.1 Tiny//EN" "http://www.w3.org/Graphics/SVG/1.1/DTD/svg11-tiny.dtd">
<svg version="1.1" width="2048" height="2048" viewBox="0 0 2048 2048" xmlns="http://www.w3.org/2000/svg">
<g fill="black">
<path d="M640.000000,1212.000000 C530.320346,1212.000000 447.103916,1266.766369 406.000000,1366.000000 363.135186,1469.484816 407.667734,1585.269442 506.000000,1626.000000 514.675271,1629.593415 557.324729,1640.406585 566.000000,1644.000000 594.684935,1655.881689 644.118311,1648.684935 656.000000,1620.000000 666.138307,1595.523961 655.358169,1567.675270 632.000000,1558.000000 623.123390,1554.323188 572.876610,1551.676812 564.000000,1548.000000 535.909740,1536.364633 503.635367,1520.090260 492.000000,1492.000000 476.335408,1454.182331 490.335408,1407.817669 506.000000,1370.000000 522.509774,1330.141880 584.857882,1306.000000 628.000000,1306.000000 1018.000000,1306.000000 1408.000000,1306.000000 1798.000000,1306.000000 1856.666667,1306.000000 1856.666667,1212.000000 1798.000000,1212.000000 1656.848052,1212.000000 781.151948,1212.000000 640.000000,1212.000000 Z M372.000000,1030.000000 C313.333333,1030.000000 313.333333,1124.000000 372.000000,1124.000000 794.666667,1124.000000 1217.333333,1124.000000 1640.000000,1124.000000 1698.666667,1124.000000 1698.666667,1030.000000 1640.000000,1030.000000 1217.333333,1030.000000 794.666667,1030.000000 372.000000,1030.000000 Z M590.000000,418.000000 C452.578614,361.078198 283.966747,425.712747 230.000000,556.000000 201.676830,624.378182 197.676830,709.621818 226.000000,778.000000 267.316044,877.745753 402.035975,950.000000 510.000000,950.000000 780.666667,950.000000 1051.333333,950.000000 1322.000000,950.000000 1326.000000,950.000000 1306.000000,910.000000 1302.000000,910.000000 1284.845088,910.000000 1221.849072,918.564900 1206.000000,912.000000 1180.124042,901.281827 1150.718173,885.875958 1140.000000,860.000000 1139.181208,858.023262 1138.139606,856.000000 1136.000000,856.000000 923.333333,856.000000 710.666667,856.000000 498.000000,856.000000 426.376890,856.000000 337.408977,804.171125 310.000000,738.000000 274.185521,651.536198 317.619357,542.951607 402.000000,508.000000 432.613696,495.319392 505.386304,485.319392 536.000000,498.000000 572.360134,513.060861 612.939139,535.639866 628.000000,572.000000 634.754721,588.307339 631.245279,607.692661 638.000000,624.000000 647.675270,647.358169 675.523961,658.138307 700.000000,648.000000 746.076272,628.914583 731.085417,578.076272 712.000000,532.000000 690.700726,480.579005 641.420995,439.299274 590.000000,418.000000 Z M1640.000000,264.000000 C1505.624683,208.339921 1344.929540,270.216786 1292.000000,398.000000 1264.186990,465.146546 1260.186990,548.853454 1288.000000,616.000000 1344.586507,752.611913 1502.287878,815.870656 1642.000000,758.000000 1701.179702,733.486965 1757.486965,677.179702 1782.000000,618.000000 1839.870656,478.287878 1776.611913,320.586507 1640.000000,264.000000 Z M1384.000000,232.000000 C1432.019709,212.109585 1541.980291,178.109585 1590.000000,198.000000 1599.801437,202.059888 1648.198563,213.940112 1658.000000,218.000000 1820.431862,285.281480 1896.152529,471.465239 1828.000000,636.000000 1795.149600,715.307882 1719.307882,779.149600 1640.000000,812.000000 1567.871623,841.876552 1478.128377,831.876552 1406.000000,802.000000 1333.698269,772.051642 1271.948358,706.301731 1242.000000,634.000000 1237.940112,624.198563 1226.059888,575.801437 1222.000000,566.000000 1202.109585,517.980291 1236.109585,408.019709 1256.000000,360.000000 1272.858767,319.299337 1343.299337,248.858767 1384.000000,232.000000 Z M1428.000000,96.000000 C1424.221919,94.435068 1423.564932,90.221919 1422.000000,94.000000 1416.058328,108.344465 1381.941672,171.655535 1376.000000,186.000000 1369.820506,200.918619 1366.918619,220.179494 1352.000000,214.000000 1338.576232,208.439693 1257.423768,209.560307 1244.000000,204.000000 1239.054526,201.951518 1228.000000,203.333333 1228.000000,206.000000 1228.000000,218.039338 1234.000000,285.960662 1234.000000,298.000000 1234.000000,311.513658 1246.484992,336.828547 1234.000000,342.000000 1215.994012,349.458324 1136.005988,390.541676 1118.000000,398.000000 1114.221919,399.564932 1118.435068,400.221919 1120.000000,404.000000 1127.043074,421.003486 1184.956926,492.996514 1192.000000,510.000000 1193.352534,513.265306 1185.352534,518.734694 1184.000000,522.000000 1177.355206,538.041952 1122.644794,605.958048 1116.000000,622.000000 1114.091458,626.607627 1121.392373,626.091458 1126.000000,628.000000 1139.720792,633.683338 1200.279208,666.316662 1214.000000,672.000000 1227.343001,677.526852 1243.526852,680.656999 1238.000000,694.000000 1232.439693,707.423768 1233.560307,788.576232 1228.000000,802.000000 1225.951518,806.945474 1227.333333,818.000000 1230.000000,818.000000 1242.283098,818.000000 1311.716902,812.000000 1324.000000,812.000000 1338.046675,812.000000 1360.624570,801.022564 1366.000000,814.000000 1373.311535,831.651607 1412.688465,910.348393 1420.000000,928.000000 1423.568377,936.614825 1431.385175,921.568377 1440.000000,918.000000 1453.130371,912.561222 1508.869629,869.438778 1522.000000,864.000000 1525.839909,862.409458 1532.160091,852.409458 1536.000000,854.000000 1550.774756,860.119904 1613.225244,911.880096 1628.000000,918.000000 1638.604865,922.392679 1645.607321,936.604865 1650.000000,926.000000 1656.054393,911.383403 1689.945607,846.616597 1696.000000,832.000000 1701.203504,819.437629 1703.437629,802.796496 1716.000000,808.000000 1736.745999,816.593274 1817.544692,818.000000 1840.000000,818.000000 1842.666667,818.000000 1842.000000,818.666667 1842.000000,816.000000 1842.000000,793.544692 1840.593274,712.745999 1832.000000,692.000000 1828.104861,682.596304 1838.596304,679.895139 1848.000000,676.000000 1863.864011,669.428911 1934.135989,632.571089 1950.000000,626.000000 1952.350924,625.026215 1954.973785,624.350924 1954.000000,622.000000 1946.684996,604.340019 1885.315004,529.659981 1878.000000,512.000000 1876.409458,508.160091 1886.409458,501.839909 1888.000000,498.000000 1893.040513,485.831125 1932.959487,434.168875 1938.000000,422.000000 1942.567739,410.972502 1963.027498,400.567739 1952.000000,396.000000 1934.348393,388.688465 1855.651607,349.311535 1838.000000,342.000000 1825.022564,336.624570 1836.000000,314.046675 1836.000000,300.000000 1836.000000,287.716902 1842.000000,218.283098 1842.000000,206.000000 1842.000000,203.333333 1830.945474,201.951518 1826.000000,204.000000 1812.576232,209.560307 1731.423768,208.439693 1718.000000,214.000000 1703.081381,220.179494 1700.179494,200.918619 1694.000000,186.000000 1688.574995,172.902880 1657.425005,115.097120 1652.000000,102.000000 1650.091458,97.392373 1650.607627,90.091458 1646.000000,92.000000 1628.340019,99.315004 1553.659981,160.684996 1536.000000,168.000000 1532.734694,169.352534 1527.265306,161.352534 1524.000000,160.000000 1508.616511,153.627950 1443.383489,102.372050 1428.000000,96.000000 Z "/></g>
</svg>