<?xml version="1.0" encoding="UTF-8"?>
<!DOCTYPE svg PUBLIC "-//W3C//DTD SVG 1.1 Tiny//EN" "http://www.w3.org/Graphics/SVG/1.1/DTD/svg11-tiny.dtd">
<svg version="1.1" width="2048" height="2048" viewBox="0 0 2048 2048" xmlns="http://www.w3.org/2000/svg">
<g fill="black">
<path d="M362.000000,1630.000000 C329.089347,1630.000000 294.405479,1629.405638 264.000000,1642.000000 233.870256,1654.480148 212.480148,1685.870256 200.000000,1716.000000 184.144514,1754.278530 205.733175,1815.806217 240.000000,1830.000000 284.863205,1848.582948 346.582948,1860.863205 328.000000,1816.000000 320.654427,1798.266219 291.733781,1803.345573 274.000000,1796.000000 245.593223,1784.233528 232.758050,1755.140469 244.000000,1728.000000 255.484418,1700.274162 285.989769,1676.000000 316.000000,1676.000000 511.333333,1676.000000 706.666667,1676.000000 902.000000,1676.000000 929.246377,1676.000000 925.246377,1630.000000 898.000000,1630.000000 832.334926,1630.000000 427.665074,1630.000000 362.000000,1630.000000 Z M184.000000,1540.000000 C154.550725,1540.000000 158.550725,1586.000000 188.000000,1586.000000 398.000000,1586.000000 608.000000,1586.000000 818.000000,1586.000000 847.449275,1586.000000 851.449275,1540.000000 822.000000,1540.000000 609.333333,1540.000000 396.666667,1540.000000 184.000000,1540.000000 Z M352.000000,1282.000000 C331.024045,1231.359564 246.640436,1209.024045 196.000000,1230.000000 164.533797,1243.033728 131.033728,1264.533797 118.000000,1296.000000 103.931214,1329.965053 95.931214,1372.034947 110.000000,1406.000000 130.244782,1454.875227 191.097835,1498.000000 244.000000,1498.000000 409.333333,1498.000000 574.666667,1498.000000 740.000000,1498.000000 769.449275,1498.000000 765.449275,1452.000000 736.000000,1452.000000 571.333333,1452.000000 406.666667,1452.000000 242.000000,1452.000000 233.640629,1452.000000 209.723051,1443.198993 202.000000,1440.000000 126.788682,1408.846452 130.502389,1306.100561 208.000000,1274.000000 242.281893,1259.799975 299.799975,1273.718107 314.000000,1308.000000 324.046535,1332.254480 325.745520,1358.046535 350.000000,1348.000000 376.438402,1337.048855 362.951145,1308.438402 352.000000,1282.000000 Z M1580.000000,1052.000000 C1564.536027,1014.666667 1507.463973,1014.666667 1492.000000,1052.000000 1487.876679,1061.954577 1489.915022,1127.278509 1482.000000,1124.000000 1463.812110,1116.466329 1448.187890,1103.533671 1430.000000,1096.000000 1391.784343,1080.170556 1353.533537,1122.246442 1370.000000,1162.000000 1377.262541,1179.533325 1412.466675,1198.737459 1430.000000,1206.000000 1436.695810,1208.773495 1465.304190,1229.226505 1472.000000,1232.000000 1477.991954,1234.481949 1488.000000,1237.514356 1488.000000,1244.000000 1488.000000,1311.333333 1488.000000,1378.666667 1488.000000,1446.000000 1488.000000,1453.087184 1482.547704,1446.712148 1476.000000,1444.000000 1449.749204,1433.126564 1336.250796,1360.873436 1310.000000,1350.000000 1305.447715,1348.114382 1302.000000,1344.666667 1302.000000,1342.000000 1302.000000,1293.149370 1317.132097,1206.694327 1272.000000,1188.000000 1241.204734,1175.244183 1218.755817,1195.204734 1206.000000,1226.000000 1197.280355,1247.051085 1223.051085,1294.719645 1202.000000,1286.000000 1174.147079,1274.462942 1143.852921,1246.462942 1116.000000,1258.000000 1053.214924,1284.006430 1089.214924,1343.993570 1152.000000,1370.000000 1161.595496,1373.974584 1149.595496,1378.025416 1140.000000,1382.000000 1103.179711,1397.251463 1072.748537,1423.179711 1088.000000,1460.000000 1116.061275,1527.745910 1176.254090,1464.061275 1244.000000,1436.000000 1248.131715,1434.288588 1251.868285,1428.288588 1256.000000,1430.000000 1283.270302,1441.295729 1400.729698,1518.704271 1428.000000,1530.000000 1435.243444,1533.000333 1441.243444,1534.999667 1434.000000,1538.000000 1405.765204,1549.695235 1284.234796,1630.304765 1256.000000,1642.000000 1253.779270,1642.919856 1252.220730,1638.919856 1250.000000,1638.000000 1181.515562,1609.632817 1118.367183,1539.515562 1090.000000,1608.000000 1071.694668,1652.192982 1109.807018,1677.694668 1154.000000,1696.000000 1161.022565,1698.908842 1143.022565,1707.091158 1136.000000,1710.000000 1122.170760,1715.728259 1095.728259,1734.170760 1090.000000,1748.000000 1073.533537,1787.753558 1111.784343,1829.829444 1150.000000,1814.000000 1157.554939,1810.870642 1190.445061,1791.129358 1198.000000,1788.000000 1203.958288,1785.531996 1208.000000,1779.550796 1208.000000,1786.000000 1208.000000,1798.091944 1205.372613,1844.828500 1210.000000,1856.000000 1226.251762,1895.235224 1284.044696,1896.519512 1300.000000,1858.000000 1308.611934,1837.208951 1304.000000,1750.504069 1304.000000,1728.000000 1304.000000,1724.441145 1308.712046,1723.361915 1312.000000,1722.000000 1338.931109,1710.844769 1455.068891,1635.155231 1482.000000,1624.000000 1483.847759,1623.234633 1488.000000,1618.666667 1488.000000,1624.000000 1488.000000,1692.000000 1488.000000,1760.000000 1488.000000,1828.000000 1488.000000,1834.485644 1477.991954,1837.518051 1472.000000,1840.000000 1463.713911,1843.432210 1428.286089,1868.567790 1420.000000,1872.000000 1405.166197,1878.144362 1376.144362,1895.166197 1370.000000,1910.000000 1353.533537,1949.753558 1391.784343,1991.829444 1430.000000,1976.000000 1448.187890,1968.466329 1463.812110,1955.533671 1482.000000,1948.000000 1489.915022,1944.721491 1487.876679,2010.045423 1492.000000,2020.000000 1506.359403,2054.666667 1565.640597,2054.666667 1580.000000,2020.000000 1584.123321,2010.045423 1582.084978,1944.721491 1590.000000,1948.000000 1608.187890,1955.533671 1623.812110,1968.466329 1642.000000,1976.000000 1680.215657,1991.829444 1718.466463,1949.753558 1702.000000,1910.000000 1695.855638,1895.166197 1666.833803,1878.144362 1652.000000,1872.000000 1643.713911,1868.567790 1608.286089,1843.432210 1600.000000,1840.000000 1594.008046,1837.518051 1584.000000,1834.485644 1584.000000,1828.000000 1584.000000,1760.000000 1584.000000,1692.000000 1584.000000,1624.000000 1584.000000,1617.550796 1588.041712,1623.531996 1594.000000,1626.000000 1620.250796,1636.873436 1733.749204,1709.126564 1760.000000,1720.000000 1764.552285,1721.885618 1768.000000,1725.333333 1768.000000,1728.000000 1768.000000,1776.850630 1752.867903,1863.305673 1798.000000,1882.000000 1828.795266,1894.755817 1851.244183,1874.795266 1864.000000,1844.000000 1872.719645,1822.948915 1846.948915,1775.280355 1868.000000,1784.000000 1895.852921,1795.537058 1926.147079,1823.537058 1954.000000,1812.000000 1991.981766,1796.267438 1995.895341,1738.868337 1960.000000,1724.000000 1928.637734,1711.009324 1898.637734,1700.990676 1930.000000,1688.000000 1966.820289,1672.748537 1997.251463,1646.820289 1982.000000,1610.000000 1952.465827,1538.698198 1889.301802,1610.465827 1818.000000,1640.000000 1814.414284,1641.485252 1807.585716,1635.485252 1804.000000,1634.000000 1777.694420,1623.103872 1664.305580,1548.896128 1638.000000,1538.000000 1631.902706,1535.474418 1645.902706,1526.525582 1652.000000,1524.000000 1677.965983,1513.244538 1790.034017,1440.755462 1816.000000,1430.000000 1818.220730,1429.080144 1819.779270,1433.080144 1822.000000,1434.000000 1890.484438,1462.367183 1953.632817,1532.484438 1982.000000,1464.000000 2000.305332,1419.807018 1962.192982,1394.305332 1918.000000,1376.000000 1910.977435,1373.091158 1928.977435,1364.908842 1936.000000,1362.000000 1949.829240,1356.271741 1976.271741,1337.829240 1982.000000,1324.000000 1998.466463,1284.246442 1960.215657,1242.170556 1922.000000,1258.000000 1914.445061,1261.129358 1881.554939,1280.870642 1874.000000,1284.000000 1868.041712,1286.468004 1864.000000,1292.449204 1864.000000,1286.000000 1864.000000,1273.908056 1866.627387,1227.171500 1862.000000,1216.000000 1845.748238,1176.764776 1787.955304,1175.480488 1772.000000,1214.000000 1758.903645,1245.617397 1787.617397,1340.903645 1756.000000,1354.000000 1729.749204,1364.873436 1616.250796,1437.126564 1590.000000,1448.000000 1588.152241,1448.765367 1584.000000,1453.333333 1584.000000,1448.000000 1584.000000,1380.000000 1584.000000,1312.000000 1584.000000,1244.000000 1584.000000,1237.514356 1594.008046,1234.481949 1600.000000,1232.000000 1606.695810,1229.226505 1635.304190,1208.773495 1642.000000,1206.000000 1659.533325,1198.737459 1694.737459,1179.533325 1702.000000,1162.000000 1718.466463,1122.246442 1680.215657,1080.170556 1642.000000,1096.000000 1623.812110,1103.533671 1608.187890,1116.466329 1590.000000,1124.000000 1582.084978,1127.278509 1584.123321,1061.954577 1580.000000,1052.000000 Z M1636.000000,944.000000 C1600.710166,858.802803 1500.385482,819.389535 1412.000000,856.000000 1367.037863,874.623927 1334.623927,921.037863 1316.000000,966.000000 1310.460046,979.374633 1319.374633,1007.539954 1306.000000,1002.000000 1293.500440,996.822513 1264.499560,1002.822513 1252.000000,1008.000000 1205.331878,1027.330569 1156.000000,1073.486788 1156.000000,1124.000000 1156.000000,1130.137068 1160.330089,1118.348554 1166.000000,1116.000000 1170.770204,1114.024117 1191.229796,1099.975883 1196.000000,1098.000000 1218.996168,1088.474675 1245.109127,1088.000000 1270.000000,1088.000000 1276.342163,1088.000000 1277.572959,1087.859395 1280.000000,1082.000000 1296.299899,1042.648564 1338.648564,1016.299899 1378.000000,1000.000000 1381.298999,998.633510 1410.808323,996.876963 1412.000000,994.000000 1419.837174,975.079388 1457.079388,945.837174 1476.000000,938.000000 1512.339262,922.947785 1557.660738,922.947785 1594.000000,938.000000 1612.920612,945.837174 1650.162826,975.079388 1658.000000,994.000000 1659.191677,996.876963 1688.701001,998.633510 1692.000000,1000.000000 1732.153051,1016.631938 1773.368062,1045.846949 1790.000000,1086.000000 1793.175263,1093.665762 1831.175263,1089.665762 1828.000000,1082.000000 1826.436643,1078.225723 1821.563357,1059.774277 1820.000000,1056.000000 1803.399398,1015.922602 1766.077398,982.600602 1726.000000,966.000000 1700.627398,955.490324 1671.463107,958.000000 1644.000000,958.000000 1638.429212,958.000000 1638.131848,949.146737 1636.000000,944.000000 Z M644.000000,854.000000 C557.156367,818.028189 489.971811,849.156367 454.000000,936.000000 452.327763,940.037138 450.266667,976.000000 448.000000,976.000000 444.398041,976.000000 435.327776,969.378410 432.000000,968.000000 389.141548,950.247448 336.858452,968.247448 294.000000,986.000000 248.442445,1004.870557 222.000000,1074.688858 222.000000,1124.000000 222.000000,1126.666667 221.333333,1126.000000 224.000000,1126.000000 257.658415,1126.000000 292.903679,1127.119482 324.000000,1140.000000 374.132231,1160.765450 423.234550,1199.867769 444.000000,1250.000000 447.771658,1259.105587 444.144183,1278.000000 454.000000,1278.000000 567.333333,1278.000000 680.666667,1278.000000 794.000000,1278.000000 843.719752,1278.000000 896.973075,1231.935061 916.000000,1186.000000 963.964495,1070.203465 842.305210,949.824805 726.000000,998.000000 715.672469,1002.277803 703.722197,1012.327531 708.000000,1002.000000 728.568616,952.342967 693.657033,874.568616 644.000000,854.000000 Z M1640.000000,264.000000 C1505.624683,208.339921 1344.929540,270.216786 1292.000000,398.000000 1264.186990,465.146546 1260.186990,548.853454 1288.000000,616.000000 1299.885046,644.693040 1337.306960,706.114954 1366.000000,718.000000 1381.205427,724.298294 1404.794573,756.298294 1420.000000,750.000000 1457.986359,734.265535 1548.013641,750.265535 1586.000000,766.000000 1612.741131,777.076539 1643.258869,755.076539 1670.000000,744.000000 1708.352152,728.114019 1766.114019,656.352152 1782.000000,618.000000 1839.870656,478.287878 1776.611913,320.586507 1640.000000,264.000000 Z M1430.000000,96.000000 C1425.605004,94.179533 1423.820467,89.605004 1422.000000,94.000000 1416.058328,108.344465 1381.941672,171.655535 1376.000000,186.000000 1369.820506,200.918619 1366.918619,220.179494 1352.000000,214.000000 1338.576232,208.439693 1257.423768,209.560307 1244.000000,204.000000 1239.054526,201.951518 1228.000000,203.333333 1228.000000,206.000000 1228.000000,218.039338 1234.000000,285.960662 1234.000000,298.000000 1234.000000,311.513658 1246.484992,336.828547 1234.000000,342.000000 1215.994012,349.458324 1136.005988,390.541676 1118.000000,398.000000 1114.221919,399.564932 1118.435068,400.221919 1120.000000,404.000000 1127.043074,421.003486 1184.956926,492.996514 1192.000000,510.000000 1193.352534,513.265306 1185.352534,518.734694 1184.000000,522.000000 1177.355206,538.041952 1122.644794,605.958048 1116.000000,622.000000 1114.091458,626.607627 1121.392373,626.091458 1126.000000,628.000000 1139.720792,633.683338 1200.279208,666.316662 1214.000000,672.000000 1227.343001,677.526852 1243.526852,680.656999 1238.000000,694.000000 1232.439693,707.423768 1233.560307,788.576232 1228.000000,802.000000 1215.428561,832.350140 1265.149246,814.000000 1298.000000,814.000000 1306.012202,814.000000 1324.597690,791.066137 1332.000000,788.000000 1340.377413,784.529962 1362.377413,775.470038 1354.000000,772.000000 1314.116239,755.479605 1258.520395,673.883761 1242.000000,634.000000 1237.940112,624.198563 1226.059888,575.801437 1222.000000,566.000000 1202.109585,517.980291 1236.109585,408.019709 1256.000000,360.000000 1272.858767,319.299337 1343.299337,248.858767 1384.000000,232.000000 1432.019709,212.109585 1541.980291,178.109585 1590.000000,198.000000 1599.801437,202.059888 1648.198563,213.940112 1658.000000,218.000000 1820.431862,285.281480 1896.152529,471.465239 1828.000000,636.000000 1797.830111,708.836556 1732.836556,773.830111 1660.000000,804.000000 1654.639382,806.220441 1646.639382,805.779559 1652.000000,808.000000 1659.899443,811.272056 1679.954028,837.954028 1686.000000,844.000000 1694.609185,852.609185 1704.751558,803.340743 1716.000000,808.000000 1736.745999,816.593274 1817.544692,818.000000 1840.000000,818.000000 1842.666667,818.000000 1842.000000,818.666667 1842.000000,816.000000 1842.000000,793.544692 1840.593274,712.745999 1832.000000,692.000000 1828.104861,682.596304 1838.596304,679.895139 1848.000000,676.000000 1863.864011,669.428911 1934.135989,632.571089 1950.000000,626.000000 1952.350924,625.026215 1954.973785,624.350924 1954.000000,622.000000 1946.684996,604.340019 1885.315004,529.659981 1878.000000,512.000000 1876.409458,508.160091 1886.409458,501.839909 1888.000000,498.000000 1893.040513,485.831125 1932.959487,434.168875 1938.000000,422.000000 1942.567739,410.972502 1963.027498,400.567739 1952.000000,396.000000 1934.348393,388.688465 1855.651607,349.311535 1838.000000,342.000000 1825.022564,336.624570 1836.000000,314.046675 1836.000000,300.000000 1836.000000,287.716902 1842.000000,218.283098 1842.000000,206.000000 1842.000000,203.333333 1830.945474,201.951518 1826.000000,204.000000 1812.576232,209.560307 1731.423768,208.439693 1718.000000,214.000000 1703.081381,220.179494 1700.179494,200.918619 1694.000000,186.000000 1688.574995,172.902880 1657.425005,115.097120 1652.000000,102.000000 1650.091458,97.392373 1650.607627,90.091458 1646.000000,92.000000 1628.340019,99.315004 1553.659981,160.684996 1536.000000,168.000000 1532.734694,169.352534 1527.265306,161.352534 1524.000000,160.000000 1508.919591,153.753490 1445.080409,102.246510 1430.000000,96.000000 Z "/></g>
</svg>