<?xml version="1.0" encoding="UTF-8"?>
<!DOCTYPE svg PUBLIC "-//W3C//DTD SVG 1.1 Tiny//EN" "http://www.w3.org/Graphics/SVG/1.1/DTD/svg11-tiny.dtd">
<svg version="1.1" width="2048" height="2048" viewBox="0 0 2048 2048" xmlns="http://www.w3.org/2000/svg">
<g fill="black">
<path d="M362.000000,1630.000000 C329.089347,1630.000000 294.405479,1629.405638 264.000000,1642.000000 233.870256,1654.480148 212.480148,1685.870256 200.000000,1716.000000 184.144514,1754.278530 205.733175,1815.806217 240.000000,1830.000000 284.863205,1848.582948 346.582948,1860.863205 328.000000,1816.000000 320.654427,1798.266219 291.733781,1803.345573 274.000000,1796.000000 245.593223,1784.233528 232.758050,1755.140469 244.000000,1728.000000 255.484418,1700.274162 285.989769,1676.000000 316.000000,1676.000000 511.333333,1676.000000 706.666667,1676.000000 902.000000,1676.000000 929.246377,1676.000000 925.246377,1630.000000 898.000000,1630.000000 832.334926,1630.000000 427.665074,1630.000000 362.000000,1630.000000 Z M184.000000,1540.000000 C154.550725,1540.000000 158.550725,1586.000000 188.000000,1586.000000 398.000000,1586.000000 608.000000,1586.000000 818.000000,1586.000000 847.449275,1586.000000 851.449275,1540.000000 822.000000,1540.000000 609.333333,1540.000000 396.666667,1540.000000 184.000000,1540.000000 Z M1800.000000,1386.000000 C1776.051244,1376.080100 1721.948756,1394.080100 1698.000000,1404.000000 1674.142207,1413.882221 1639.882221,1460.142207 1630.000000,1484.000000 1599.294084,1558.130640 1638.039250,1648.536027 1714.000000,1680.000000 1838.083376,1731.397017 1968.552440,1606.044387 1918.000000,1484.000000 1908.117779,1460.142207 1873.857793,1413.882221 1850.000000,1404.000000 1833.634607,1397.221232 1816.365393,1392.778768 1800.000000,1386.000000 Z M1354.000000,1404.000000 C1316.631386,1388.521413 1271.368614,1370.521413 1234.000000,1386.000000 1207.643487,1396.917225 1152.917225,1427.643487 1142.000000,1454.000000 1126.521413,1491.368614 1108.521413,1536.631386 1124.000000,1574.000000 1134.917225,1600.356513 1165.643487,1655.082775 1192.000000,1666.000000 1229.368614,1681.478587 1274.631386,1699.478587 1312.000000,1684.000000 1338.356513,1673.082775 1393.082775,1642.356513 1404.000000,1616.000000 1419.478587,1578.631386 1437.478587,1533.368614 1422.000000,1496.000000 1411.082775,1469.643487 1380.356513,1414.917225 1354.000000,1404.000000 Z M352.000000,1282.000000 C331.024045,1231.359564 246.640436,1209.024045 196.000000,1230.000000 164.533797,1243.033728 131.033728,1264.533797 118.000000,1296.000000 103.931214,1329.965053 95.931214,1372.034947 110.000000,1406.000000 130.244782,1454.875227 191.097835,1498.000000 244.000000,1498.000000 409.333333,1498.000000 574.666667,1498.000000 740.000000,1498.000000 769.449275,1498.000000 765.449275,1452.000000 736.000000,1452.000000 571.333333,1452.000000 406.666667,1452.000000 242.000000,1452.000000 233.640629,1452.000000 209.723051,1443.198993 202.000000,1440.000000 126.788682,1408.846452 130.502389,1306.100561 208.000000,1274.000000 242.281893,1259.799975 299.799975,1273.718107 314.000000,1308.000000 324.046535,1332.254480 325.745520,1358.046535 350.000000,1348.000000 376.438402,1337.048855 362.951145,1308.438402 352.000000,1282.000000 Z "/></g>
</svg>