<?xml version="1.0" encoding="UTF-8"?>
<!DOCTYPE svg PUBLIC "-//W3C//DTD SVG 1.1 Tiny//EN" "http://www.w3.org/Graphics/SVG/1.1/DTD/svg11-tiny.dtd">
<svg version="1.1" width="2048" height="2048" viewBox="0 0 2048 2048" xmlns="http://www.w3.org/2000/svg">
<g fill="black">
<path d="M474.000000,1632.000000 C436.369864,1632.000000 298.765712,1627.599571 264.000000,1642.000000 233.870256,1654.480148 212.480148,1685.870256 200.000000,1716.000000 184.144514,1754.278530 205.733175,1815.806217 240.000000,1830.000000 284.863205,1848.582948 346.582948,1860.863205 328.000000,1816.000000 320.654427,1798.266219 291.733781,1803.345573 274.000000,1796.000000 227.194348,1776.612464 232.340257,1704.569739 282.000000,1684.000000 314.267940,1670.634182 447.073433,1676.000000 482.000000,1676.000000 485.636364,1676.000000 477.636364,1632.000000 474.000000,1632.000000 Z M1688.000000,1566.000000 C1683.765636,1555.777340 1678.222660,1571.765636 1668.000000,1576.000000 1635.848048,1589.317774 1602.801022,1606.000000 1568.000000,1606.000000 1565.333333,1606.000000 1568.169275,1654.762907 1566.000000,1660.000000 1561.662921,1670.470635 1554.666667,1694.000000 1566.000000,1694.000000 1606.976958,1694.000000 1664.318797,1685.857773 1680.000000,1648.000000 1688.236528,1628.115263 1696.236528,1585.884737 1688.000000,1566.000000 Z M184.000000,1540.000000 C154.550725,1540.000000 158.550725,1586.000000 188.000000,1586.000000 285.333333,1586.000000 382.666667,1586.000000 480.000000,1586.000000 483.942029,1586.000000 507.942029,1540.000000 504.000000,1540.000000 397.333333,1540.000000 290.666667,1540.000000 184.000000,1540.000000 Z M1850.000000,1394.000000 C1845.457134,1383.032552 1850.542866,1375.032552 1846.000000,1386.000000 1825.974033,1434.346961 1780.025967,1681.653039 1760.000000,1730.000000 1739.216881,1780.174887 1762.504518,1837.498300 1812.000000,1858.000000 1883.169186,1887.479242 1966.076859,1813.783533 1938.000000,1746.000000 1917.508313,1696.528691 1870.491687,1443.471309 1850.000000,1394.000000 Z M352.000000,1282.000000 C331.903552,1233.482884 252.517116,1207.903552 204.000000,1228.000000 180.992409,1237.530056 133.530056,1262.992409 124.000000,1286.000000 108.588840,1323.205832 94.588840,1368.794168 110.000000,1406.000000 130.244782,1454.875227 191.097835,1498.000000 244.000000,1498.000000 324.000000,1498.000000 404.000000,1498.000000 484.000000,1498.000000 487.826087,1498.000000 477.826087,1452.000000 474.000000,1452.000000 426.316766,1452.000000 246.053564,1458.247584 202.000000,1440.000000 126.788682,1408.846452 130.502389,1306.100561 208.000000,1274.000000 242.281893,1259.799975 299.799975,1273.718107 314.000000,1308.000000 319.595269,1321.508173 318.491827,1342.404731 332.000000,1348.000000 368.624226,1363.170251 367.170251,1318.624226 352.000000,1282.000000 Z M1336.000000,1168.000000 C1333.649436,1162.325237 1336.350564,1160.325237 1334.000000,1166.000000 1316.717457,1207.723749 1281.282543,1424.276251 1264.000000,1466.000000 1247.870071,1504.941093 1212.129929,1705.058907 1196.000000,1744.000000 1189.124526,1760.598863 1189.124526,1803.401137 1196.000000,1820.000000 1205.969678,1844.068933 1231.931067,1894.030322 1256.000000,1904.000000 1270.884372,1910.165309 1285.115628,1917.834691 1300.000000,1924.000000 1336.150866,1938.974179 1379.849134,1920.974179 1416.000000,1906.000000 1468.497896,1884.254660 1501.745340,1800.497896 1480.000000,1748.000000 1446.271026,1666.571053 1369.728974,1249.428947 1336.000000,1168.000000 Z M442.000000,1120.000000 C414.544986,1120.000000 389.413626,1140.586374 370.000000,1160.000000 366.293007,1163.706993 371.156581,1165.993790 376.000000,1168.000000 408.687609,1181.539651 442.460349,1253.312391 456.000000,1286.000000 457.667003,1290.024502 454.919779,1306.919779 458.000000,1310.000000 460.400000,1312.400000 476.000000,1310.666667 476.000000,1308.000000 476.000000,1241.575758 507.550187,1191.382278 564.000000,1168.000000 567.528024,1166.538645 584.471976,1161.461355 588.000000,1160.000000 595.156429,1157.035710 615.035710,1163.156429 618.000000,1156.000000 620.635451,1149.637459 650.666667,1120.000000 648.000000,1120.000000 579.333333,1120.000000 510.666667,1120.000000 442.000000,1120.000000 Z M1568.000000,1074.000000 C1564.636557,1065.879929 1569.363443,1067.879929 1566.000000,1076.000000 1547.528533,1120.594065 1500.471467,1345.405935 1482.000000,1390.000000 1455.047122,1455.070004 1527.272277,1533.982673 1590.000000,1508.000000 1673.063542,1473.593954 1664.406046,1399.063542 1630.000000,1316.000000 1615.858878,1281.860311 1582.141122,1108.139689 1568.000000,1074.000000 Z M1068.000000,1052.000000 C1052.536027,1014.666667 995.463973,1014.666667 980.000000,1052.000000 975.876679,1061.954577 977.915022,1127.278509 970.000000,1124.000000 951.812110,1116.466329 936.187890,1103.533671 918.000000,1096.000000 879.784343,1080.170556 841.533537,1122.246442 858.000000,1162.000000 865.262541,1179.533325 900.466675,1198.737459 918.000000,1206.000000 924.695810,1208.773495 953.304190,1229.226505 960.000000,1232.000000 965.991954,1234.481949 976.000000,1237.514356 976.000000,1244.000000 976.000000,1311.333333 976.000000,1378.666667 976.000000,1446.000000 976.000000,1450.753774 972.391915,1449.819191 968.000000,1448.000000 941.068891,1436.844769 824.931109,1361.155231 798.000000,1350.000000 793.447715,1348.114382 790.000000,1344.666667 790.000000,1342.000000 790.000000,1293.149370 805.132097,1206.694327 760.000000,1188.000000 729.204734,1175.244183 706.755817,1195.204734 694.000000,1226.000000 685.280355,1247.051085 711.051085,1294.719645 690.000000,1286.000000 662.147079,1274.462942 631.852921,1246.462942 604.000000,1258.000000 566.018234,1273.732562 562.104659,1331.131663 598.000000,1346.000000 629.362266,1358.990676 659.362266,1369.009324 628.000000,1382.000000 591.179711,1397.251463 560.748537,1423.179711 576.000000,1460.000000 604.061275,1527.745910 664.254090,1464.061275 732.000000,1436.000000 736.131715,1434.288588 739.868285,1428.288588 744.000000,1430.000000 771.270302,1441.295729 888.729698,1518.704271 916.000000,1530.000000 923.243444,1533.000333 929.243444,1534.999667 922.000000,1538.000000 893.765204,1549.695235 772.234796,1630.304765 744.000000,1642.000000 741.779270,1642.919856 740.220730,1638.919856 738.000000,1638.000000 669.515562,1609.632817 606.367183,1539.515562 578.000000,1608.000000 559.694668,1652.192982 597.807018,1677.694668 642.000000,1696.000000 649.022565,1698.908842 631.022565,1707.091158 624.000000,1710.000000 610.170760,1715.728259 583.728259,1734.170760 578.000000,1748.000000 561.533537,1787.753558 599.784343,1829.829444 638.000000,1814.000000 645.554939,1810.870642 678.445061,1791.129358 686.000000,1788.000000 691.958288,1785.531996 696.000000,1779.550796 696.000000,1786.000000 696.000000,1798.091944 693.372613,1844.828500 698.000000,1856.000000 714.251762,1895.235224 772.044696,1896.519512 788.000000,1858.000000 796.611934,1837.208951 792.000000,1750.504069 792.000000,1728.000000 792.000000,1724.441145 796.712046,1723.361915 800.000000,1722.000000 826.931109,1710.844769 943.068891,1635.155231 970.000000,1624.000000 971.847759,1623.234633 976.000000,1618.666667 976.000000,1624.000000 976.000000,1692.000000 976.000000,1760.000000 976.000000,1828.000000 976.000000,1834.485644 965.991954,1837.518051 960.000000,1840.000000 951.713911,1843.432210 916.286089,1868.567790 908.000000,1872.000000 893.166197,1878.144362 864.144362,1895.166197 858.000000,1910.000000 841.533537,1949.753558 879.784343,1991.829444 918.000000,1976.000000 936.187890,1968.466329 951.812110,1955.533671 970.000000,1948.000000 977.915022,1944.721491 975.876679,2010.045423 980.000000,2020.000000 994.359403,2054.666667 1053.640597,2054.666667 1068.000000,2020.000000 1072.123321,2010.045423 1070.084978,1944.721491 1078.000000,1948.000000 1106.258567,1959.705082 1137.741433,1985.705082 1166.000000,1974.000000 1193.820350,1962.476434 1149.523566,1949.820350 1138.000000,1922.000000 1134.987446,1914.727051 1115.012554,1883.272949 1112.000000,1876.000000 1109.912947,1870.961408 1107.856371,1853.856371 1104.000000,1850.000000 1096.917445,1842.917445 1072.000000,1838.016245 1072.000000,1828.000000 1072.000000,1760.000000 1072.000000,1692.000000 1072.000000,1624.000000 1072.000000,1617.550796 1076.041712,1623.531996 1082.000000,1626.000000 1102.643004,1634.550612 1113.449388,1656.643004 1122.000000,1636.000000 1126.681124,1624.698766 1135.318876,1565.301234 1140.000000,1554.000000 1142.655554,1547.588925 1122.000000,1542.939298 1122.000000,1536.000000 1122.000000,1529.500429 1147.512722,1524.004821 1150.000000,1518.000000 1157.010829,1501.074360 1170.989171,1412.925640 1178.000000,1396.000000 1179.891771,1391.432861 1182.567139,1390.108229 1178.000000,1392.000000 1162.204300,1398.542793 1093.795700,1441.457207 1078.000000,1448.000000 1076.152241,1448.765367 1072.000000,1453.333333 1072.000000,1448.000000 1072.000000,1380.000000 1072.000000,1312.000000 1072.000000,1244.000000 1072.000000,1237.514356 1082.008046,1234.481949 1088.000000,1232.000000 1094.695810,1229.226505 1123.304190,1208.773495 1130.000000,1206.000000 1147.533325,1198.737459 1182.737459,1179.533325 1190.000000,1162.000000 1206.466463,1122.246442 1168.215657,1080.170556 1130.000000,1096.000000 1111.812110,1103.533671 1096.187890,1116.466329 1078.000000,1124.000000 1070.084978,1127.278509 1072.123321,1061.954577 1068.000000,1052.000000 Z M826.000000,736.000000 C793.826941,736.000000 756.312097,762.275969 744.000000,792.000000 718.005332,854.756680 761.601990,926.000000 826.000000,926.000000 1149.333333,926.000000 1472.666667,926.000000 1796.000000,926.000000 1834.944009,926.000000 1869.096773,887.979573 1884.000000,852.000000 1891.333675,834.294942 1877.333675,795.705058 1870.000000,778.000000 1859.782322,753.332343 1844.879807,783.120193 1826.000000,802.000000 1789.387919,838.612081 1745.835989,870.185685 1698.000000,890.000000 1563.417672,945.745825 1369.004854,927.004854 1266.000000,824.000000 1251.570905,809.570905 1197.808970,756.852521 1190.000000,738.000000 1189.639203,737.128958 1190.666667,736.000000 1188.000000,736.000000 1067.333333,736.000000 946.666667,736.000000 826.000000,736.000000 Z M250.000000,736.000000 C185.601990,736.000000 142.005332,807.243320 168.000000,870.000000 180.312097,899.724031 217.826941,926.000000 250.000000,926.000000 290.976077,926.000000 448.143041,933.680866 486.000000,918.000000 577.797739,879.976132 550.901099,736.000000 452.000000,736.000000 384.666667,736.000000 317.333333,736.000000 250.000000,736.000000 Z M1796.000000,352.000000 C1755.023923,352.000000 1597.856959,344.319134 1560.000000,360.000000 1528.709098,372.961116 1529.038884,428.709098 1542.000000,460.000000 1549.564154,478.261482 1563.738518,518.435846 1582.000000,526.000000 1586.366405,527.808624 1597.273838,542.000000 1602.000000,542.000000 1658.000000,542.000000 1714.000000,542.000000 1770.000000,542.000000 1774.607516,542.000000 1785.743211,531.763220 1790.000000,530.000000 1811.513150,521.088962 1841.534548,530.465452 1858.000000,514.000000 1916.404762,455.595238 1876.757202,352.000000 1796.000000,352.000000 Z M250.000000,352.000000 C217.826941,352.000000 180.312097,378.275969 168.000000,408.000000 142.005332,470.756680 185.601990,542.000000 250.000000,542.000000 509.333333,542.000000 768.666667,542.000000 1028.000000,542.000000 1092.398010,542.000000 1135.994668,470.756680 1110.000000,408.000000 1097.687903,378.275969 1060.173059,352.000000 1028.000000,352.000000 768.666667,352.000000 509.333333,352.000000 250.000000,352.000000 Z M1558.000000,198.000000 C1516.935901,180.990693 1425.064099,216.990693 1384.000000,234.000000 1334.593032,254.465036 1262.465036,344.593032 1242.000000,394.000000 1177.908037,548.731686 1253.967909,737.026246 1406.000000,800.000000 1455.919901,820.677500 1511.967088,826.000000 1566.000000,826.000000 1676.206000,826.000000 1787.825990,723.817068 1830.000000,622.000000 1831.447085,618.506428 1797.692519,641.985227 1788.000000,646.000000 1723.620972,672.666667 1650.379028,672.666667 1586.000000,646.000000 1535.924868,625.258201 1482.741799,572.075132 1462.000000,522.000000 1435.333333,457.620972 1435.333333,384.379028 1462.000000,320.000000 1477.902419,281.608165 1539.608165,215.902419 1578.000000,200.000000 1586.463176,196.494438 1566.463176,201.505562 1558.000000,198.000000 Z "/></g>
</svg>