<?xml version="1.0" encoding="UTF-8"?>
<!DOCTYPE svg PUBLIC "-//W3C//DTD SVG 1.1 Tiny//EN" "http://www.w3.org/Graphics/SVG/1.1/DTD/svg11-tiny.dtd">
<svg version="1.1" width="2048" height="2048" viewBox="0 0 2048 2048" xmlns="http://www.w3.org/2000/svg">
<g fill="black">
<path d="M1878.000000,756.000000 C1863.954870,750.182317 1847.817683,769.954870 1842.000000,784.000000 1826.696316,820.946361 1746.946361,868.696316 1710.000000,884.000000 1706.770545,885.337684 1708.770545,884.662316 1712.000000,886.000000 1724.044793,890.989116 1775.955207,925.010884 1788.000000,930.000000 1827.351436,946.299899 1893.700101,931.351436 1910.000000,892.000000 1932.766555,837.036673 1932.963327,778.766555 1878.000000,756.000000 Z M1574.000000,324.000000 C1559.773610,324.000000 1555.444204,348.856530 1550.000000,362.000000 1525.704914,420.653527 1537.134328,483.134328 1580.000000,526.000000 1623.246377,569.246377 1688.073028,580.822565 1748.000000,556.000000 1754.695810,553.226505 1783.304190,532.773495 1790.000000,530.000000 1841.357229,508.727139 1899.786323,531.199868 1920.000000,580.000000 1922.926206,587.064485 1919.073794,583.064485 1922.000000,576.000000 1946.417970,517.049806 1863.112436,440.686400 1802.000000,466.000000 1766.457645,480.722126 1735.542355,505.277874 1700.000000,520.000000 1690.980690,523.735921 1682.000000,535.762431 1682.000000,526.000000 1682.000000,473.126987 1688.233626,416.848295 1668.000000,368.000000 1655.431424,337.656772 1606.843273,324.000000 1574.000000,324.000000 Z M1558.000000,198.000000 C1516.935901,180.990693 1425.064099,216.990693 1384.000000,234.000000 1334.593032,254.465036 1262.465036,344.593032 1242.000000,394.000000 1177.908037,548.731686 1253.967909,737.026246 1406.000000,800.000000 1455.919901,820.677500 1511.967088,826.000000 1566.000000,826.000000 1676.206000,826.000000 1787.825990,723.817068 1830.000000,622.000000 1831.447085,618.506428 1797.692519,641.985227 1788.000000,646.000000 1723.620972,672.666667 1650.379028,672.666667 1586.000000,646.000000 1535.924868,625.258201 1482.741799,572.075132 1462.000000,522.000000 1435.333333,457.620972 1435.333333,384.379028 1462.000000,320.000000 1477.902419,281.608165 1539.608165,215.902419 1578.000000,200.000000 1586.463176,196.494438 1566.463176,201.505562 1558.000000,198.000000 Z M1048.000000,2.000000 C999.366290,-18.144742 928.000000,30.622222 928.000000,84.000000 928.000000,123.333333 928.000000,162.666667 928.000000,202.000000 928.000000,211.408049 918.691904,201.600305 910.000000,198.000000 893.922106,191.340318 824.077894,148.659682 808.000000,142.000000 771.739118,126.980251 713.019749,147.739118 698.000000,184.000000 671.536279,247.889074 686.110926,303.536279 750.000000,330.000000 776.931109,341.155231 893.068891,416.844769 920.000000,428.000000 924.552285,429.885618 928.000000,433.333333 928.000000,436.000000 928.000000,574.000000 928.000000,712.000000 928.000000,850.000000 928.000000,858.114057 921.496411,849.105115 914.000000,846.000000 859.172852,823.289852 622.827148,668.710148 568.000000,646.000000 564.010060,644.347313 558.000000,642.318680 558.000000,638.000000 558.000000,560.666667 558.000000,483.333333 558.000000,406.000000 558.000000,352.054645 485.657677,303.431117 436.000000,324.000000 408.941561,335.207972 381.207972,354.941561 370.000000,382.000000 360.490220,404.958640 364.000000,499.149747 364.000000,524.000000 364.000000,527.426099 363.165302,527.311111 360.000000,526.000000 319.494207,509.221951 284.505793,480.778049 244.000000,464.000000 208.313845,449.218311 150.781689,470.313845 136.000000,506.000000 111.101365,566.110622 119.889378,623.101365 180.000000,648.000000 191.130477,652.610394 238.869523,685.389606 250.000000,690.000000 258.811349,693.649780 268.811349,696.350220 260.000000,700.000000 246.652879,705.528558 189.347121,744.471442 176.000000,750.000000 137.972259,765.751606 108.248394,823.972259 124.000000,862.000000 130.812494,878.446816 149.553184,913.187506 166.000000,920.000000 190.912410,930.319058 221.087590,942.319058 246.000000,932.000000 278.840926,918.396843 421.159074,829.603157 454.000000,816.000000 467.062571,810.589306 473.032074,820.285363 482.000000,824.000000 535.236711,846.051368 764.763289,995.948632 818.000000,1018.000000 825.243444,1021.000333 831.243444,1022.999667 824.000000,1026.000000 770.137781,1048.310462 537.862219,1199.689538 484.000000,1222.000000 477.714340,1224.603606 466.285660,1236.603606 460.000000,1234.000000 426.476252,1220.114009 281.523748,1127.885991 248.000000,1114.000000 211.739118,1098.980251 153.019749,1119.739118 138.000000,1156.000000 100.557063,1246.395247 157.604753,1300.557063 248.000000,1338.000000 260.056625,1342.994017 272.056625,1347.005983 260.000000,1352.000000 206.217125,1374.277596 148.277596,1410.217125 126.000000,1464.000000 99.863495,1527.099104 182.460093,1608.319091 246.000000,1582.000000 262.702301,1575.081680 335.297699,1530.918320 352.000000,1524.000000 359.134411,1521.044830 366.000000,1514.277769 366.000000,1522.000000 366.000000,1546.850253 362.490220,1641.041360 372.000000,1664.000000 383.207972,1691.058439 410.941561,1710.792028 438.000000,1722.000000 487.657677,1742.568883 560.000000,1693.945355 560.000000,1640.000000 560.000000,1562.666667 560.000000,1485.333333 560.000000,1408.000000 560.000000,1398.587567 575.304046,1393.601982 584.000000,1390.000000 636.557285,1368.230060 863.442715,1221.769940 916.000000,1200.000000 922.547704,1197.287852 928.000000,1190.912816 928.000000,1198.000000 928.000000,1336.000000 928.000000,1474.000000 928.000000,1612.000000 928.000000,1614.666667 924.552285,1618.114382 920.000000,1620.000000 895.284860,1630.237346 788.715140,1699.762654 764.000000,1710.000000 733.463798,1722.648509 702.648509,1745.463798 690.000000,1776.000000 659.366036,1849.956932 736.949395,1935.430124 808.000000,1906.000000 845.752410,1890.362440 878.247590,1863.637560 916.000000,1848.000000 922.547704,1845.287852 928.000000,1838.912816 928.000000,1846.000000 928.000000,1905.179361 917.325399,2011.353039 972.000000,2034.000000 1037.785692,2061.249326 1090.750674,2041.785692 1118.000000,1976.000000 1126.483147,1955.519872 1120.000000,1868.167531 1120.000000,1846.000000 1120.000000,1838.912816 1125.452296,1845.287852 1132.000000,1848.000000 1169.752410,1863.637560 1202.247590,1890.362440 1240.000000,1906.000000 1276.260882,1921.019749 1334.980251,1900.260882 1350.000000,1864.000000 1376.463721,1800.110926 1361.889074,1744.463721 1298.000000,1718.000000 1271.068891,1706.844769 1154.931109,1631.155231 1128.000000,1620.000000 1123.447715,1618.114382 1120.000000,1614.666667 1120.000000,1612.000000 1120.000000,1473.333333 1120.000000,1334.666667 1120.000000,1196.000000 1120.000000,1189.550796 1124.041712,1195.531996 1130.000000,1198.000000 1182.557285,1219.769940 1409.442715,1366.230060 1462.000000,1388.000000 1470.695954,1391.601982 1486.000000,1396.587567 1486.000000,1406.000000 1486.000000,1483.333333 1486.000000,1560.666667 1486.000000,1638.000000 1486.000000,1691.945355 1558.342323,1740.568883 1608.000000,1720.000000 1635.058439,1708.792028 1662.792028,1689.058439 1674.000000,1662.000000 1683.509780,1639.041360 1680.000000,1544.850253 1680.000000,1520.000000 1680.000000,1516.573901 1680.834698,1516.688889 1684.000000,1518.000000 1724.505793,1534.778049 1759.494207,1563.221951 1800.000000,1580.000000 1835.686155,1594.781689 1893.218311,1573.686155 1908.000000,1538.000000 1932.898635,1477.889378 1924.110622,1420.898635 1864.000000,1396.000000 1852.869523,1391.389606 1805.130477,1358.610394 1794.000000,1354.000000 1785.188651,1350.350220 1775.188651,1347.649780 1784.000000,1344.000000 1797.347121,1338.471442 1854.652879,1299.528558 1868.000000,1294.000000 1906.027741,1278.248394 1935.751606,1220.027741 1920.000000,1182.000000 1913.187506,1165.553184 1894.446816,1130.812494 1878.000000,1124.000000 1853.087590,1113.680942 1822.912410,1101.680942 1798.000000,1112.000000 1765.159074,1125.603157 1622.840926,1214.396843 1590.000000,1228.000000 1576.937429,1233.410694 1570.967926,1223.714637 1562.000000,1220.000000 1509.442715,1198.230060 1282.557285,1051.769940 1230.000000,1030.000000 1220.175771,1025.930671 1222.175771,1020.069329 1232.000000,1016.000000 1261.772507,1003.667824 1390.227493,920.332176 1420.000000,908.000000 1423.428253,906.579971 1385.586306,895.970778 1376.000000,892.000000 1322.514192,869.845453 1274.936265,832.936265 1234.000000,792.000000 1231.333333,789.333333 1225.895418,794.386465 1222.000000,796.000000 1206.774552,802.306587 1141.225448,845.693413 1126.000000,852.000000 1122.211111,853.569409 1120.000000,854.101064 1120.000000,850.000000 1120.000000,712.000000 1120.000000,574.000000 1120.000000,436.000000 1120.000000,432.166320 1130.532914,427.541859 1132.000000,424.000000 1136.160340,413.956051 1147.839660,364.043949 1152.000000,354.000000 1176.365168,295.177281 1261.177281,182.365168 1320.000000,158.000000 1330.634467,153.595060 1310.634467,150.404940 1300.000000,146.000000 1280.686292,138.000000 1247.313708,138.000000 1228.000000,146.000000 1212.829151,152.283971 1147.170849,193.716029 1132.000000,200.000000 1125.452296,202.712148 1120.000000,209.087184 1120.000000,202.000000 1120.000000,177.149747 1123.509780,82.958640 1114.000000,60.000000 1102.792028,32.941561 1075.058439,13.207972 1048.000000,2.000000 Z "/></g>
</svg>