<?xml version="1.0" encoding="UTF-8"?>
<!DOCTYPE svg PUBLIC "-//W3C//DTD SVG 1.1 Tiny//EN" "http://www.w3.org/Graphics/SVG/1.1/DTD/svg11-tiny.dtd">
<svg version="1.1" width="2048" height="2048" viewBox="0 0 2048 2048" xmlns="http://www.w3.org/2000/svg">
<g fill="black">
<path d="M368.000000,1632.000000 C315.513011,1632.000000 234.085901,1635.508345 214.000000,1684.000000 182.805872,1759.309286 198.690714,1812.805872 274.000000,1844.000000 303.980737,1856.418428 340.418428,1845.980737 328.000000,1816.000000 320.654427,1798.266219 291.733781,1803.345573 274.000000,1796.000000 245.593223,1784.233528 232.758050,1755.140469 244.000000,1728.000000 255.484418,1700.274162 285.989769,1676.000000 316.000000,1676.000000 410.000000,1676.000000 504.000000,1676.000000 598.000000,1676.000000 602.000000,1676.000000 612.000000,1632.000000 608.000000,1632.000000 528.000000,1632.000000 448.000000,1632.000000 368.000000,1632.000000 Z M1276.000000,1628.000000 C1272.883709,1626.709190 1275.290810,1626.883709 1274.000000,1630.000000 1267.211772,1646.388233 1250.788228,1729.611767 1244.000000,1746.000000 1218.479855,1807.611080 1296.831155,1887.336965 1358.000000,1862.000000 1368.205174,1857.772878 1389.772878,1850.205174 1394.000000,1840.000000 1399.185500,1827.481097 1402.814500,1756.518903 1408.000000,1744.000000 1420.288317,1714.333379 1412.288317,1677.666621 1400.000000,1648.000000 1397.726931,1642.512325 1399.939816,1632.000000 1394.000000,1632.000000 1373.511961,1632.000000 1294.928480,1635.840433 1276.000000,1628.000000 Z M184.000000,1540.000000 C154.550725,1540.000000 158.550725,1586.000000 188.000000,1586.000000 332.000000,1586.000000 476.000000,1586.000000 620.000000,1586.000000 623.826087,1586.000000 633.826087,1540.000000 630.000000,1540.000000 481.333333,1540.000000 332.666667,1540.000000 184.000000,1540.000000 Z M352.000000,1282.000000 C331.024045,1231.359564 246.640436,1209.024045 196.000000,1230.000000 164.533797,1243.033728 131.033728,1264.533797 118.000000,1296.000000 103.931214,1329.965053 95.931214,1372.034947 110.000000,1406.000000 130.244782,1454.875227 191.097835,1498.000000 244.000000,1498.000000 376.000000,1498.000000 508.000000,1498.000000 640.000000,1498.000000 643.942029,1498.000000 655.942029,1452.000000 652.000000,1452.000000 515.333333,1452.000000 378.666667,1452.000000 242.000000,1452.000000 233.640629,1452.000000 209.723051,1443.198993 202.000000,1440.000000 126.788682,1408.846452 130.502389,1306.100561 208.000000,1274.000000 242.281893,1259.799975 299.799975,1273.718107 314.000000,1308.000000 319.595269,1321.508173 318.491827,1342.404731 332.000000,1348.000000 368.624226,1363.170251 367.170251,1318.624226 352.000000,1282.000000 Z M824.000000,1168.000000 C821.649436,1162.325237 824.350564,1160.325237 822.000000,1166.000000 804.717457,1207.723749 769.282543,1424.276251 752.000000,1466.000000 736.434200,1503.579166 701.565800,1696.420834 686.000000,1734.000000 658.422870,1800.577081 698.510500,1888.388080 770.000000,1918.000000 857.430501,1954.214899 929.785101,1911.430501 966.000000,1824.000000 973.023621,1807.043478 975.023621,1764.956522 968.000000,1748.000000 934.271026,1666.571053 857.728974,1249.428947 824.000000,1168.000000 Z M1378.000000,1098.000000 C1372.344525,1098.000000 1376.164257,1108.775022 1374.000000,1114.000000 1361.198076,1144.906578 1346.801924,1315.093422 1334.000000,1346.000000 1324.103986,1369.891091 1315.896014,1504.108909 1306.000000,1528.000000 1302.412140,1536.661861 1304.624469,1536.000000 1314.000000,1536.000000 1388.666667,1536.000000 1463.333333,1536.000000 1538.000000,1536.000000 1544.034767,1536.000000 1542.309405,1542.424602 1540.000000,1548.000000 1530.016363,1572.102631 1519.983637,1705.897369 1510.000000,1730.000000 1497.466852,1760.257696 1486.533148,1929.742304 1474.000000,1960.000000 1472.132411,1964.508758 1470.132411,1970.508758 1472.000000,1966.000000 1505.655850,1884.747591 1728.344150,1533.252409 1762.000000,1452.000000 1763.569409,1448.211111 1768.101064,1446.000000 1764.000000,1446.000000 1686.666667,1446.000000 1609.333333,1446.000000 1532.000000,1446.000000 1523.885943,1446.000000 1532.894885,1439.496411 1536.000000,1432.000000 1557.464231,1380.180763 1698.535769,1155.819237 1720.000000,1104.000000 1721.569409,1100.211111 1726.101064,1098.000000 1722.000000,1098.000000 1607.333333,1098.000000 1492.666667,1098.000000 1378.000000,1098.000000 Z M1056.000000,1074.000000 C1052.636557,1065.879929 1057.363443,1067.879929 1054.000000,1076.000000 1035.528533,1120.594065 988.471467,1345.405935 970.000000,1390.000000 943.047122,1455.070004 1015.272277,1533.982673 1078.000000,1508.000000 1161.063542,1473.593954 1152.406046,1399.063542 1118.000000,1316.000000 1103.858878,1281.860311 1070.141122,1108.139689 1056.000000,1074.000000 Z M1636.000000,944.000000 C1600.710166,858.802803 1500.385482,819.389535 1412.000000,856.000000 1367.037863,874.623927 1334.623927,921.037863 1316.000000,966.000000 1310.460046,979.374633 1319.374633,1007.539954 1306.000000,1002.000000 1291.183767,995.862915 1256.816233,1003.862915 1242.000000,1010.000000 1208.029363,1024.071099 1178.071099,1054.029363 1164.000000,1088.000000 1160.324423,1096.873629 1166.324423,1115.126371 1170.000000,1124.000000 1184.013872,1157.832480 1182.167520,1241.986128 1216.000000,1256.000000 1234.770960,1263.775186 1242.224814,1280.770960 1250.000000,1262.000000 1261.291974,1234.738763 1274.708026,1085.261237 1286.000000,1058.000000 1298.605521,1027.567581 1337.060187,1000.000000 1370.000000,1000.000000 1489.333333,1000.000000 1608.666667,1000.000000 1728.000000,1000.000000 1793.098039,1000.000000 1838.131912,1072.911984 1812.000000,1136.000000 1804.021697,1155.261326 1751.978303,1238.738674 1744.000000,1258.000000 1741.963791,1262.915843 1737.084157,1264.036209 1742.000000,1262.000000 1816.246648,1231.246031 1852.705343,1134.957683 1820.000000,1056.000000 1803.399398,1015.922602 1766.077398,982.600602 1726.000000,966.000000 1700.627398,955.490324 1671.463107,958.000000 1644.000000,958.000000 1638.429212,958.000000 1638.131848,949.146737 1636.000000,944.000000 Z M644.000000,854.000000 C557.156367,818.028189 489.971811,849.156367 454.000000,936.000000 452.327763,940.037138 450.266667,976.000000 448.000000,976.000000 444.398041,976.000000 435.327776,969.378410 432.000000,968.000000 391.121303,951.067489 340.878697,965.067489 300.000000,982.000000 252.229858,1001.787041 222.000000,1072.293970 222.000000,1124.000000 222.000000,1126.666667 221.333333,1126.000000 224.000000,1126.000000 255.587621,1126.000000 288.816844,1125.911941 318.000000,1138.000000 369.916586,1159.504554 422.495446,1198.083414 444.000000,1250.000000 447.771658,1259.105587 444.144183,1278.000000 454.000000,1278.000000 533.333333,1278.000000 612.666667,1278.000000 692.000000,1278.000000 698.504028,1278.000000 695.511016,1266.008938 698.000000,1260.000000 705.451523,1242.010433 722.548477,1149.989567 730.000000,1132.000000 766.854694,1043.024898 877.803109,1040.612976 914.000000,1128.000000 920.295132,1143.197794 917.704868,1173.197794 924.000000,1158.000000 934.034239,1133.775203 914.034239,1080.224797 904.000000,1056.000000 894.201054,1032.343251 845.656749,1003.798946 822.000000,994.000000 799.980244,984.879118 748.019756,988.879118 726.000000,998.000000 715.672469,1002.277803 703.722197,1012.327531 708.000000,1002.000000 728.568616,952.342967 693.657033,874.568616 644.000000,854.000000 Z "/></g>
</svg>