<?xml version="1.0" encoding="UTF-8"?>
<!DOCTYPE svg PUBLIC "-//W3C//DTD SVG 1.1 Tiny//EN" "http://www.w3.org/Graphics/SVG/1.1/DTD/svg11-tiny.dtd">
<svg version="1.1" width="2048" height="2048" viewBox="0 0 2048 2048" xmlns="http://www.w3.org/2000/svg">
<g fill="black">
<path d="M956.000000,1632.000000 C882.511881,1632.000000 754.122685,1616.105831 726.000000,1684.000000 694.805872,1759.309286 710.690714,1812.805872 786.000000,1844.000000 802.912576,1851.005418 832.994582,1850.912576 840.000000,1834.000000 852.168854,1804.621788 815.378212,1808.168854 786.000000,1796.000000 757.593223,1784.233528 744.758050,1755.140469 756.000000,1728.000000 767.484418,1700.274162 797.989769,1676.000000 828.000000,1676.000000 1023.333333,1676.000000 1218.666667,1676.000000 1414.000000,1676.000000 1441.246377,1676.000000 1437.246377,1630.000000 1410.000000,1630.000000 1354.595319,1630.000000 1011.404681,1632.000000 956.000000,1632.000000 Z M696.000000,1540.000000 C666.550725,1540.000000 670.550725,1586.000000 700.000000,1586.000000 910.000000,1586.000000 1120.000000,1586.000000 1330.000000,1586.000000 1359.449275,1586.000000 1363.449275,1540.000000 1334.000000,1540.000000 1121.333333,1540.000000 908.666667,1540.000000 696.000000,1540.000000 Z M864.000000,1282.000000 C843.024045,1231.359564 758.640436,1209.024045 708.000000,1230.000000 676.533797,1243.033728 643.033728,1264.533797 630.000000,1296.000000 615.931214,1329.965053 607.931214,1372.034947 622.000000,1406.000000 642.244782,1454.875227 703.097835,1498.000000 756.000000,1498.000000 921.333333,1498.000000 1086.666667,1498.000000 1252.000000,1498.000000 1281.449275,1498.000000 1277.449275,1452.000000 1248.000000,1452.000000 1083.333333,1452.000000 918.666667,1452.000000 754.000000,1452.000000 745.640629,1452.000000 721.723051,1443.198993 714.000000,1440.000000 638.788682,1408.846452 642.502389,1306.100561 720.000000,1274.000000 754.281893,1259.799975 811.799975,1273.718107 826.000000,1308.000000 831.595269,1321.508173 830.491827,1342.404731 844.000000,1348.000000 880.624226,1363.170251 879.170251,1318.624226 864.000000,1282.000000 Z M1636.000000,944.000000 C1600.710166,858.802803 1500.385482,819.389535 1412.000000,856.000000 1367.037863,874.623927 1334.623927,921.037863 1316.000000,966.000000 1310.460046,979.374633 1319.374633,1007.539954 1306.000000,1002.000000 1291.183767,995.862915 1256.816233,1003.862915 1242.000000,1010.000000 1208.029363,1024.071099 1178.071099,1054.029363 1164.000000,1088.000000 1127.803836,1175.385271 1194.277778,1280.000000 1286.000000,1280.000000 1416.666667,1280.000000 1547.333333,1280.000000 1678.000000,1280.000000 1786.380952,1280.000000 1862.830890,1159.402915 1820.000000,1056.000000 1803.399398,1015.922602 1766.077398,982.600602 1726.000000,966.000000 1700.627398,955.490324 1671.463107,958.000000 1644.000000,958.000000 1638.429212,958.000000 1638.131848,949.146737 1636.000000,944.000000 Z M644.000000,854.000000 C557.156367,818.028189 489.971811,849.156367 454.000000,936.000000 452.327763,940.037138 450.266667,976.000000 448.000000,976.000000 444.398041,976.000000 435.327776,969.378410 432.000000,968.000000 391.121303,951.067489 340.878697,965.067489 300.000000,982.000000 261.689003,997.868934 241.868934,1043.689003 226.000000,1082.000000 214.437071,1109.915380 232.437071,1172.084620 244.000000,1200.000000 262.162749,1243.848756 324.538448,1278.000000 372.000000,1278.000000 424.666667,1278.000000 477.333333,1278.000000 530.000000,1278.000000 532.666667,1278.000000 535.487337,1266.066105 538.000000,1260.000000 583.763450,1149.517257 726.443424,1094.134899 842.000000,1142.000000 849.272949,1145.012554 880.727051,1164.987446 888.000000,1168.000000 901.697459,1173.673673 910.326327,1199.697459 916.000000,1186.000000 963.964495,1070.203465 842.305210,949.824805 726.000000,998.000000 715.672469,1002.277803 703.722197,1012.327531 708.000000,1002.000000 728.568616,952.342967 693.657033,874.568616 644.000000,854.000000 Z M570.000000,404.000000 C518.050820,382.481945 397.949180,418.481945 346.000000,440.000000 239.709816,484.026836 162.000000,630.952334 162.000000,746.000000 162.000000,748.666667 161.333333,748.000000 164.000000,748.000000 186.666667,748.000000 209.333333,748.000000 232.000000,748.000000 243.595545,748.000000 231.562577,720.712886 236.000000,710.000000 239.894203,700.598562 250.105797,653.401438 254.000000,644.000000 270.782920,603.482447 329.482447,526.782920 370.000000,510.000000 408.609072,494.007599 493.390928,458.007599 532.000000,474.000000 540.187722,477.391466 585.812278,480.608534 594.000000,484.000000 640.346286,503.197260 730.802740,561.653714 750.000000,608.000000 758.107913,627.574234 767.892087,646.425766 776.000000,666.000000 779.572041,674.623670 784.427959,721.376330 788.000000,730.000000 790.237062,735.400746 784.154275,748.000000 790.000000,748.000000 818.086982,748.000000 870.748423,763.948988 860.000000,738.000000 856.604371,729.802226 855.395629,682.197774 852.000000,674.000000 848.507801,665.569085 837.492199,624.430915 834.000000,616.000000 800.443902,534.988413 731.011587,461.556098 650.000000,428.000000 638.432972,423.208780 581.567028,408.791220 570.000000,404.000000 Z M690.000000,310.000000 C582.822895,265.605790 449.177105,261.605790 342.000000,306.000000 225.708556,354.169493 120.169493,453.708556 72.000000,570.000000 49.341632,624.702139 38.000000,683.411765 38.000000,746.000000 38.000000,748.666667 37.333333,748.000000 40.000000,748.000000 63.333333,748.000000 86.666667,748.000000 110.000000,748.000000 112.666667,748.000000 112.000000,748.666667 112.000000,746.000000 112.000000,584.365591 208.891423,440.591222 360.000000,378.000000 417.925929,354.006295 483.301427,350.000000 546.000000,350.000000 682.710427,350.000000 829.683185,473.696035 882.000000,600.000000 886.526204,610.927224 899.473796,665.072776 904.000000,676.000000 906.546722,682.148330 907.453278,717.851670 910.000000,724.000000 912.851849,730.884974 904.547758,748.000000 912.000000,748.000000 935.333333,748.000000 958.666667,748.000000 982.000000,748.000000 984.666667,748.000000 984.000000,748.666667 984.000000,746.000000 984.000000,554.761905 868.931268,384.115758 690.000000,310.000000 Z M1558.000000,198.000000 C1526.078643,184.777741 1449.921357,204.777741 1418.000000,218.000000 1368.593032,238.465036 1278.465036,310.593032 1258.000000,360.000000 1238.109585,408.019709 1204.109585,517.980291 1224.000000,566.000000 1227.062007,573.392338 1234.937993,610.607662 1238.000000,618.000000 1256.507683,662.681499 1313.318501,753.492317 1358.000000,772.000000 1361.585716,773.485252 1368.414284,767.485252 1372.000000,766.000000 1434.835884,739.972525 1513.164116,735.972525 1576.000000,762.000000 1583.833086,765.244571 1618.166914,784.755429 1626.000000,788.000000 1632.617120,790.740901 1643.382880,808.740901 1650.000000,806.000000 1729.269606,773.165454 1797.165454,701.269606 1830.000000,622.000000 1831.447085,618.506428 1797.692519,641.985227 1788.000000,646.000000 1723.620972,672.666667 1650.379028,672.666667 1586.000000,646.000000 1535.924868,625.258201 1482.741799,572.075132 1462.000000,522.000000 1435.333333,457.620972 1435.333333,384.379028 1462.000000,320.000000 1477.902419,281.608165 1539.608165,215.902419 1578.000000,200.000000 1586.463176,196.494438 1566.463176,201.505562 1558.000000,198.000000 Z "/></g>
</svg>