<?xml version="1.0" encoding="UTF-8"?>
<!DOCTYPE svg PUBLIC "-//W3C//DTD SVG 1.1 Tiny//EN" "http://www.w3.org/Graphics/SVG/1.1/DTD/svg11-tiny.dtd">
<svg version="1.1" width="2048" height="2048" viewBox="0 0 2048 2048" xmlns="http://www.w3.org/2000/svg">
<g fill="black">
<path d="M362.000000,1630.000000 C329.089347,1630.000000 294.405479,1629.405638 264.000000,1642.000000 233.870256,1654.480148 212.480148,1685.870256 200.000000,1716.000000 184.144514,1754.278530 205.733175,1815.806217 240.000000,1830.000000 284.863205,1848.582948 346.582948,1860.863205 328.000000,1816.000000 320.654427,1798.266219 291.733781,1803.345573 274.000000,1796.000000 245.593223,1784.233528 232.758050,1755.140469 244.000000,1728.000000 255.484418,1700.274162 285.989769,1676.000000 316.000000,1676.000000 511.333333,1676.000000 706.666667,1676.000000 902.000000,1676.000000 929.246377,1676.000000 925.246377,1630.000000 898.000000,1630.000000 832.334926,1630.000000 427.665074,1630.000000 362.000000,1630.000000 Z M184.000000,1540.000000 C154.550725,1540.000000 158.550725,1586.000000 188.000000,1586.000000 398.000000,1586.000000 608.000000,1586.000000 818.000000,1586.000000 847.449275,1586.000000 851.449275,1540.000000 822.000000,1540.000000 609.333333,1540.000000 396.666667,1540.000000 184.000000,1540.000000 Z M1278.000000,1408.000000 C1274.636557,1399.879929 1279.363443,1401.879929 1276.000000,1410.000000 1257.528533,1454.594065 1210.471467,1679.405935 1192.000000,1724.000000 1165.047122,1789.070004 1237.272277,1867.982673 1300.000000,1842.000000 1383.063542,1807.593954 1374.406046,1733.063542 1340.000000,1650.000000 1325.858878,1615.860311 1292.141122,1442.139689 1278.000000,1408.000000 Z M1850.000000,1394.000000 C1845.457134,1383.032552 1850.542866,1375.032552 1846.000000,1386.000000 1825.974033,1434.346961 1780.025967,1681.653039 1760.000000,1730.000000 1739.216881,1780.174887 1762.504518,1837.498300 1812.000000,1858.000000 1883.169186,1887.479242 1966.076859,1813.783533 1938.000000,1746.000000 1917.508313,1696.528691 1870.491687,1443.471309 1850.000000,1394.000000 Z M352.000000,1282.000000 C331.024045,1231.359564 246.640436,1209.024045 196.000000,1230.000000 164.533797,1243.033728 131.033728,1264.533797 118.000000,1296.000000 103.931214,1329.965053 95.931214,1372.034947 110.000000,1406.000000 130.244782,1454.875227 191.097835,1498.000000 244.000000,1498.000000 409.333333,1498.000000 574.666667,1498.000000 740.000000,1498.000000 769.449275,1498.000000 765.449275,1452.000000 736.000000,1452.000000 571.333333,1452.000000 406.666667,1452.000000 242.000000,1452.000000 233.640629,1452.000000 209.723051,1443.198993 202.000000,1440.000000 126.788682,1408.846452 130.502389,1306.100561 208.000000,1274.000000 242.281893,1259.799975 299.799975,1273.718107 314.000000,1308.000000 324.046535,1332.254480 325.745520,1358.046535 350.000000,1348.000000 376.438402,1337.048855 362.951145,1308.438402 352.000000,1282.000000 Z M1472.000000,916.000000 C1456.922955,879.600794 1470.399206,832.922955 1434.000000,848.000000 1417.739254,854.735422 1402.260746,863.264578 1386.000000,870.000000 1358.580471,881.357541 1327.357541,938.580471 1316.000000,966.000000 1310.460046,979.374633 1319.374633,1007.539954 1306.000000,1002.000000 1291.183767,995.862915 1256.816233,1003.862915 1242.000000,1010.000000 1169.744652,1039.929145 1134.791933,1121.485489 1164.000000,1192.000000 1182.932924,1237.708122 1236.525886,1280.000000 1286.000000,1280.000000 1416.666667,1280.000000 1547.333333,1280.000000 1678.000000,1280.000000 1737.602386,1280.000000 1799.191154,1229.065425 1822.000000,1174.000000 1830.628837,1153.168145 1836.628837,1102.831855 1828.000000,1082.000000 1826.374680,1078.076131 1813.923869,1081.625320 1810.000000,1080.000000 1793.797683,1073.288780 1774.202317,1065.288780 1758.000000,1072.000000 1751.656665,1074.627495 1730.865976,1080.000000 1724.000000,1080.000000 1690.754266,1080.000000 1564.715053,1084.722591 1534.000000,1072.000000 1506.871552,1060.763029 1489.236971,1031.128448 1478.000000,1004.000000 1473.579365,993.327643 1476.420635,926.672357 1472.000000,916.000000 Z M614.000000,842.000000 C573.663028,825.291879 586.708121,875.663028 570.000000,916.000000 565.579365,926.672357 568.420635,993.327643 564.000000,1004.000000 552.763029,1031.128448 535.128448,1060.763029 508.000000,1072.000000 457.390357,1092.963201 324.609643,1086.963201 274.000000,1066.000000 270.432777,1064.522408 227.281509,1078.906164 226.000000,1082.000000 221.779252,1092.189787 220.242424,1126.000000 224.000000,1126.000000 255.587621,1126.000000 288.816844,1125.911941 318.000000,1138.000000 369.916586,1159.504554 422.495446,1198.083414 444.000000,1250.000000 447.771658,1259.105587 444.144183,1278.000000 454.000000,1278.000000 567.333333,1278.000000 680.666667,1278.000000 794.000000,1278.000000 843.719752,1278.000000 896.973075,1231.935061 916.000000,1186.000000 963.964495,1070.203465 842.305210,949.824805 726.000000,998.000000 715.672469,1002.277803 703.722197,1012.327531 708.000000,1002.000000 717.356391,979.411675 705.356391,928.588325 696.000000,906.000000 682.731188,873.966254 646.033746,855.268812 614.000000,842.000000 Z M1296.000000,342.000000 C1126.622086,271.841371 915.377914,271.841371 746.000000,342.000000 727.081197,349.836425 644.918803,400.163575 626.000000,408.000000 613.447365,413.199472 560.552635,466.800528 548.000000,472.000000 531.169335,478.971490 498.971490,513.169335 492.000000,530.000000 487.998730,539.659920 448.001270,580.340080 444.000000,590.000000 437.315925,606.136784 392.684075,675.863216 386.000000,692.000000 376.763944,714.297812 345.236056,821.702188 336.000000,844.000000 329.774781,859.029008 328.225219,946.970992 322.000000,962.000000 319.813265,967.279246 321.333333,984.000000 324.000000,984.000000 372.000000,984.000000 420.000000,984.000000 468.000000,984.000000 470.666667,984.000000 470.000000,984.666667 470.000000,982.000000 470.000000,915.573767 480.579781,847.369837 506.000000,786.000000 511.279338,773.254550 540.720662,716.745450 546.000000,704.000000 551.065472,691.770869 596.934528,640.229131 602.000000,628.000000 607.337041,615.115243 631.115243,589.337041 644.000000,584.000000 650.410306,581.344765 677.589694,550.655235 684.000000,548.000000 695.207373,543.357754 742.792627,506.642246 754.000000,502.000000 769.591113,495.541949 840.408887,464.458051 856.000000,458.000000 919.257081,431.798059 991.531029,434.000000 1060.000000,434.000000 1139.947205,434.000000 1216.138414,471.405529 1290.000000,502.000000 1301.207373,506.642246 1348.792627,543.357754 1360.000000,548.000000 1366.410306,550.655235 1393.589694,581.344765 1400.000000,584.000000 1412.884757,589.337041 1436.662959,615.115243 1442.000000,628.000000 1446.401154,638.625325 1487.598846,683.374675 1492.000000,694.000000 1497.941672,708.344465 1532.058328,771.655535 1538.000000,786.000000 1563.420219,847.369837 1574.000000,915.573767 1574.000000,982.000000 1574.000000,984.666667 1573.333333,984.000000 1576.000000,984.000000 1623.333333,984.000000 1670.666667,984.000000 1718.000000,984.000000 1720.666667,984.000000 1722.186735,967.279246 1720.000000,962.000000 1713.774781,946.970992 1712.225219,859.029008 1706.000000,844.000000 1696.763944,821.702188 1665.236056,714.297812 1656.000000,692.000000 1648.376017,673.594076 1595.623983,594.405924 1588.000000,576.000000 1583.737229,565.708760 1538.262771,522.291240 1534.000000,512.000000 1527.028510,495.169335 1492.830665,462.971490 1476.000000,456.000000 1461.834957,450.132647 1402.165043,395.867353 1388.000000,390.000000 1373.581455,384.027643 1310.418545,347.972357 1296.000000,342.000000 Z M1282.000000,74.000000 C1231.061107,52.900420 1045.135860,40.000000 990.000000,40.000000 870.471296,40.000000 750.430123,72.258345 640.000000,118.000000 541.774809,158.686206 449.178307,218.821693 374.000000,294.000000 343.861654,324.138346 240.310755,434.622353 224.000000,474.000000 214.007902,498.123058 153.992098,603.876942 144.000000,628.000000 97.968982,739.128708 74.000000,861.715153 74.000000,982.000000 74.000000,984.666667 73.333333,984.000000 76.000000,984.000000 124.666667,984.000000 173.333333,984.000000 222.000000,984.000000 224.666667,984.000000 224.000000,984.666667 224.000000,982.000000 224.000000,873.741051 248.571094,764.018227 290.000000,664.000000 394.054591,412.789995 702.092250,188.000000 974.000000,188.000000 1068.680750,188.000000 1168.526393,185.767246 1256.000000,222.000000 1268.859745,227.326681 1329.140255,248.673319 1342.000000,254.000000 1527.992449,331.040595 1684.959405,502.007551 1762.000000,688.000000 1799.379402,778.241858 1818.000000,876.000000 1818.000000,982.000000 1818.000000,984.666667 1817.333333,984.000000 1820.000000,984.000000 1869.333333,984.000000 1918.666667,984.000000 1968.000000,984.000000 1970.666667,984.000000 1970.000000,984.666667 1970.000000,982.000000 1970.000000,929.157772 1948.221845,754.819853 1928.000000,706.000000 1905.921970,652.698921 1884.078030,599.301079 1862.000000,546.000000 1843.344904,500.962613 1748.470124,372.470124 1714.000000,338.000000 1629.988096,253.988096 1535.766842,173.466915 1426.000000,128.000000 1404.441747,119.070279 1303.558253,82.929721 1282.000000,74.000000 Z "/></g>
</svg>