<?xml version="1.0" encoding="UTF-8"?>
<!DOCTYPE svg PUBLIC "-//W3C//DTD SVG 1.1 Tiny//EN" "http://www.w3.org/Graphics/SVG/1.1/DTD/svg11-tiny.dtd">
<svg version="1.1" width="2048" height="2048" viewBox="0 0 2048 2048" xmlns="http://www.w3.org/2000/svg">
<g fill="black">
<path d="M362.000000,1630.000000 C329.089347,1630.000000 294.405479,1629.405638 264.000000,1642.000000 233.870256,1654.480148 212.480148,1685.870256 200.000000,1716.000000 184.144514,1754.278530 205.733175,1815.806217 240.000000,1830.000000 284.863205,1848.582948 346.582948,1860.863205 328.000000,1816.000000 320.654427,1798.266219 291.733781,1803.345573 274.000000,1796.000000 245.593223,1784.233528 232.758050,1755.140469 244.000000,1728.000000 255.484418,1700.274162 285.989769,1676.000000 316.000000,1676.000000 511.333333,1676.000000 706.666667,1676.000000 902.000000,1676.000000 929.246377,1676.000000 925.246377,1630.000000 898.000000,1630.000000 832.334926,1630.000000 427.665074,1630.000000 362.000000,1630.000000 Z M184.000000,1540.000000 C154.550725,1540.000000 158.550725,1586.000000 188.000000,1586.000000 398.000000,1586.000000 608.000000,1586.000000 818.000000,1586.000000 847.449275,1586.000000 851.449275,1540.000000 822.000000,1540.000000 609.333333,1540.000000 396.666667,1540.000000 184.000000,1540.000000 Z M1278.000000,1408.000000 C1274.636557,1399.879929 1279.363443,1401.879929 1276.000000,1410.000000 1257.528533,1454.594065 1210.471467,1679.405935 1192.000000,1724.000000 1165.047122,1789.070004 1237.272277,1867.982673 1300.000000,1842.000000 1383.063542,1807.593954 1374.406046,1733.063542 1340.000000,1650.000000 1325.858878,1615.860311 1292.141122,1442.139689 1278.000000,1408.000000 Z M1850.000000,1394.000000 C1845.457134,1383.032552 1850.542866,1375.032552 1846.000000,1386.000000 1825.974033,1434.346961 1780.025967,1681.653039 1760.000000,1730.000000 1739.216881,1780.174887 1762.504518,1837.498300 1812.000000,1858.000000 1883.169186,1887.479242 1966.076859,1813.783533 1938.000000,1746.000000 1917.508313,1696.528691 1870.491687,1443.471309 1850.000000,1394.000000 Z M352.000000,1282.000000 C331.024045,1231.359564 246.640436,1209.024045 196.000000,1230.000000 164.533797,1243.033728 131.033728,1264.533797 118.000000,1296.000000 103.931214,1329.965053 95.931214,1372.034947 110.000000,1406.000000 130.244782,1454.875227 191.097835,1498.000000 244.000000,1498.000000 409.333333,1498.000000 574.666667,1498.000000 740.000000,1498.000000 769.449275,1498.000000 765.449275,1452.000000 736.000000,1452.000000 571.333333,1452.000000 406.666667,1452.000000 242.000000,1452.000000 233.640629,1452.000000 209.723051,1443.198993 202.000000,1440.000000 126.788682,1408.846452 130.502389,1306.100561 208.000000,1274.000000 242.281893,1259.799975 299.799975,1273.718107 314.000000,1308.000000 324.046535,1332.254480 325.745520,1358.046535 350.000000,1348.000000 376.438402,1337.048855 362.951145,1308.438402 352.000000,1282.000000 Z M1636.000000,944.000000 C1600.710166,858.802803 1500.385482,819.389535 1412.000000,856.000000 1367.037863,874.623927 1334.623927,921.037863 1316.000000,966.000000 1310.460046,979.374633 1319.374633,1007.539954 1306.000000,1002.000000 1291.183767,995.862915 1256.816233,1003.862915 1242.000000,1010.000000 1208.029363,1024.071099 1178.071099,1054.029363 1164.000000,1088.000000 1127.803836,1175.385271 1194.277778,1280.000000 1286.000000,1280.000000 1416.666667,1280.000000 1547.333333,1280.000000 1678.000000,1280.000000 1786.380952,1280.000000 1862.830890,1159.402915 1820.000000,1056.000000 1803.399398,1015.922602 1766.077398,982.600602 1726.000000,966.000000 1700.627398,955.490324 1671.463107,958.000000 1644.000000,958.000000 1638.429212,958.000000 1638.131848,949.146737 1636.000000,944.000000 Z M644.000000,854.000000 C557.156367,818.028189 489.971811,849.156367 454.000000,936.000000 452.327763,940.037138 450.266667,976.000000 448.000000,976.000000 444.398041,976.000000 435.327776,969.378410 432.000000,968.000000 389.141548,950.247448 336.858452,968.247448 294.000000,986.000000 248.442445,1004.870557 222.000000,1074.688858 222.000000,1124.000000 222.000000,1126.666667 221.333333,1126.000000 224.000000,1126.000000 257.658415,1126.000000 292.903679,1127.119482 324.000000,1140.000000 374.132231,1160.765450 423.234550,1199.867769 444.000000,1250.000000 447.771658,1259.105587 444.144183,1278.000000 454.000000,1278.000000 567.333333,1278.000000 680.666667,1278.000000 794.000000,1278.000000 843.719752,1278.000000 896.973075,1231.935061 916.000000,1186.000000 963.964495,1070.203465 842.305210,949.824805 726.000000,998.000000 715.672469,1002.277803 703.722197,1012.327531 708.000000,1002.000000 728.568616,952.342967 693.657033,874.568616 644.000000,854.000000 Z M570.000000,404.000000 C518.050820,382.481945 397.949180,418.481945 346.000000,440.000000 239.709816,484.026836 162.000000,630.952334 162.000000,746.000000 162.000000,748.666667 161.333333,748.000000 164.000000,748.000000 186.666667,748.000000 209.333333,748.000000 232.000000,748.000000 243.595545,748.000000 231.562577,720.712886 236.000000,710.000000 239.894203,700.598562 250.105797,653.401438 254.000000,644.000000 270.782920,603.482447 329.482447,526.782920 370.000000,510.000000 408.609072,494.007599 493.390928,458.007599 532.000000,474.000000 540.187722,477.391466 585.812278,480.608534 594.000000,484.000000 640.346286,503.197260 730.802740,561.653714 750.000000,608.000000 758.107913,627.574234 767.892087,646.425766 776.000000,666.000000 779.572041,674.623670 784.427959,721.376330 788.000000,730.000000 790.237062,735.400746 784.154275,748.000000 790.000000,748.000000 818.086982,748.000000 870.748423,763.948988 860.000000,738.000000 856.604371,729.802226 855.395629,682.197774 852.000000,674.000000 848.507801,665.569085 837.492199,624.430915 834.000000,616.000000 800.443902,534.988413 731.011587,461.556098 650.000000,428.000000 638.432972,423.208780 581.567028,408.791220 570.000000,404.000000 Z M690.000000,310.000000 C582.822895,265.605790 449.177105,261.605790 342.000000,306.000000 225.708556,354.169493 120.169493,453.708556 72.000000,570.000000 49.341632,624.702139 38.000000,683.411765 38.000000,746.000000 38.000000,748.666667 37.333333,748.000000 40.000000,748.000000 63.333333,748.000000 86.666667,748.000000 110.000000,748.000000 112.666667,748.000000 112.000000,748.666667 112.000000,746.000000 112.000000,584.365591 208.891423,440.591222 360.000000,378.000000 417.925929,354.006295 483.301427,350.000000 546.000000,350.000000 682.710427,350.000000 829.683185,473.696035 882.000000,600.000000 886.526204,610.927224 899.473796,665.072776 904.000000,676.000000 906.546722,682.148330 907.453278,717.851670 910.000000,724.000000 912.851849,730.884974 904.547758,748.000000 912.000000,748.000000 935.333333,748.000000 958.666667,748.000000 982.000000,748.000000 984.666667,748.000000 984.000000,748.666667 984.000000,746.000000 984.000000,554.761905 868.931268,384.115758 690.000000,310.000000 Z M1558.000000,198.000000 C1526.078643,184.777741 1449.921357,204.777741 1418.000000,218.000000 1368.593032,238.465036 1278.465036,310.593032 1258.000000,360.000000 1238.109585,408.019709 1204.109585,517.980291 1224.000000,566.000000 1227.062007,573.392338 1234.937993,610.607662 1238.000000,618.000000 1256.507683,662.681499 1313.318501,753.492317 1358.000000,772.000000 1361.585716,773.485252 1368.414284,767.485252 1372.000000,766.000000 1434.835884,739.972525 1513.164116,735.972525 1576.000000,762.000000 1583.833086,765.244571 1618.166914,784.755429 1626.000000,788.000000 1632.617120,790.740901 1643.382880,808.740901 1650.000000,806.000000 1729.269606,773.165454 1797.165454,701.269606 1830.000000,622.000000 1831.447085,618.506428 1797.692519,641.985227 1788.000000,646.000000 1723.620972,672.666667 1650.379028,672.666667 1586.000000,646.000000 1535.924868,625.258201 1482.741799,572.075132 1462.000000,522.000000 1435.333333,457.620972 1435.333333,384.379028 1462.000000,320.000000 1477.902419,281.608165 1539.608165,215.902419 1578.000000,200.000000 1586.463176,196.494438 1566.463176,201.505562 1558.000000,198.000000 Z "/></g>
</svg>