<?xml version="1.0" encoding="UTF-8"?>
<!DOCTYPE svg PUBLIC "-//W3C//DTD SVG 1.1 Tiny//EN" "http://www.w3.org/Graphics/SVG/1.1/DTD/svg11-tiny.dtd">
<svg version="1.1" width="2048" height="2048" viewBox="0 0 2048 2048" xmlns="http://www.w3.org/2000/svg">
<g fill="black">
<path d="M362.000000,1630.000000 C329.089347,1630.000000 294.405479,1629.405638 264.000000,1642.000000 233.870256,1654.480148 212.480148,1685.870256 200.000000,1716.000000 184.144514,1754.278530 205.733175,1815.806217 240.000000,1830.000000 284.863205,1848.582948 346.582948,1860.863205 328.000000,1816.000000 320.654427,1798.266219 291.733781,1803.345573 274.000000,1796.000000 245.593223,1784.233528 232.758050,1755.140469 244.000000,1728.000000 255.484418,1700.274162 285.989769,1676.000000 316.000000,1676.000000 511.333333,1676.000000 706.666667,1676.000000 902.000000,1676.000000 929.246377,1676.000000 925.246377,1630.000000 898.000000,1630.000000 832.334926,1630.000000 427.665074,1630.000000 362.000000,1630.000000 Z M184.000000,1540.000000 C154.550725,1540.000000 158.550725,1586.000000 188.000000,1586.000000 398.000000,1586.000000 608.000000,1586.000000 818.000000,1586.000000 847.449275,1586.000000 851.449275,1540.000000 822.000000,1540.000000 609.333333,1540.000000 396.666667,1540.000000 184.000000,1540.000000 Z M1800.000000,1386.000000 C1776.051244,1376.080100 1721.948756,1394.080100 1698.000000,1404.000000 1674.142207,1413.882221 1639.882221,1460.142207 1630.000000,1484.000000 1599.294084,1558.130640 1638.039250,1648.536027 1714.000000,1680.000000 1838.083376,1731.397017 1968.552440,1606.044387 1918.000000,1484.000000 1908.117779,1460.142207 1873.857793,1413.882221 1850.000000,1404.000000 1833.634607,1397.221232 1816.365393,1392.778768 1800.000000,1386.000000 Z M1354.000000,1404.000000 C1316.631386,1388.521413 1271.368614,1370.521413 1234.000000,1386.000000 1207.643487,1396.917225 1152.917225,1427.643487 1142.000000,1454.000000 1126.521413,1491.368614 1108.521413,1536.631386 1124.000000,1574.000000 1134.917225,1600.356513 1165.643487,1655.082775 1192.000000,1666.000000 1229.368614,1681.478587 1274.631386,1699.478587 1312.000000,1684.000000 1338.356513,1673.082775 1393.082775,1642.356513 1404.000000,1616.000000 1419.478587,1578.631386 1437.478587,1533.368614 1422.000000,1496.000000 1411.082775,1469.643487 1380.356513,1414.917225 1354.000000,1404.000000 Z M352.000000,1282.000000 C331.024045,1231.359564 246.640436,1209.024045 196.000000,1230.000000 164.533797,1243.033728 131.033728,1264.533797 118.000000,1296.000000 103.931214,1329.965053 95.931214,1372.034947 110.000000,1406.000000 130.244782,1454.875227 191.097835,1498.000000 244.000000,1498.000000 409.333333,1498.000000 574.666667,1498.000000 740.000000,1498.000000 769.449275,1498.000000 765.449275,1452.000000 736.000000,1452.000000 571.333333,1452.000000 406.666667,1452.000000 242.000000,1452.000000 233.640629,1452.000000 209.723051,1443.198993 202.000000,1440.000000 126.788682,1408.846452 130.502389,1306.100561 208.000000,1274.000000 242.281893,1259.799975 299.799975,1273.718107 314.000000,1308.000000 324.046535,1332.254480 325.745520,1358.046535 350.000000,1348.000000 376.438402,1337.048855 362.951145,1308.438402 352.000000,1282.000000 Z M1636.000000,944.000000 C1600.710166,858.802803 1500.385482,819.389535 1412.000000,856.000000 1367.037863,874.623927 1334.623927,921.037863 1316.000000,966.000000 1310.460046,979.374633 1319.374633,1007.539954 1306.000000,1002.000000 1291.183767,995.862915 1256.816233,1003.862915 1242.000000,1010.000000 1208.029363,1024.071099 1178.071099,1054.029363 1164.000000,1088.000000 1127.803836,1175.385271 1194.277778,1280.000000 1286.000000,1280.000000 1416.666667,1280.000000 1547.333333,1280.000000 1678.000000,1280.000000 1786.380952,1280.000000 1862.830890,1159.402915 1820.000000,1056.000000 1803.399398,1015.922602 1766.077398,982.600602 1726.000000,966.000000 1700.627398,955.490324 1671.463107,958.000000 1644.000000,958.000000 1638.429212,958.000000 1638.131848,949.146737 1636.000000,944.000000 Z M644.000000,854.000000 C557.156367,818.028189 489.971811,849.156367 454.000000,936.000000 452.327763,940.037138 450.266667,976.000000 448.000000,976.000000 444.398041,976.000000 435.327776,969.378410 432.000000,968.000000 389.141548,950.247448 336.858452,968.247448 294.000000,986.000000 248.442445,1004.870557 222.000000,1074.688858 222.000000,1124.000000 222.000000,1126.666667 221.333333,1126.000000 224.000000,1126.000000 257.658415,1126.000000 292.903679,1127.119482 324.000000,1140.000000 374.132231,1160.765450 423.234550,1199.867769 444.000000,1250.000000 447.771658,1259.105587 444.144183,1278.000000 454.000000,1278.000000 567.333333,1278.000000 680.666667,1278.000000 794.000000,1278.000000 843.719752,1278.000000 896.973075,1231.935061 916.000000,1186.000000 963.964495,1070.203465 842.305210,949.824805 726.000000,998.000000 715.672469,1002.277803 703.722197,1012.327531 708.000000,1002.000000 728.568616,952.342967 693.657033,874.568616 644.000000,854.000000 Z M570.000000,404.000000 C518.050820,382.481945 397.949180,418.481945 346.000000,440.000000 239.709816,484.026836 162.000000,630.952334 162.000000,746.000000 162.000000,748.666667 161.333333,748.000000 164.000000,748.000000 186.666667,748.000000 209.333333,748.000000 232.000000,748.000000 243.595545,748.000000 231.562577,720.712886 236.000000,710.000000 239.894203,700.598562 250.105797,653.401438 254.000000,644.000000 270.782920,603.482447 329.482447,526.782920 370.000000,510.000000 408.609072,494.007599 493.390928,458.007599 532.000000,474.000000 540.187722,477.391466 585.812278,480.608534 594.000000,484.000000 640.346286,503.197260 730.802740,561.653714 750.000000,608.000000 758.107913,627.574234 767.892087,646.425766 776.000000,666.000000 779.572041,674.623670 784.427959,721.376330 788.000000,730.000000 790.237062,735.400746 784.154275,748.000000 790.000000,748.000000 818.086982,748.000000 870.748423,763.948988 860.000000,738.000000 856.604371,729.802226 855.395629,682.197774 852.000000,674.000000 848.507801,665.569085 837.492199,624.430915 834.000000,616.000000 800.443902,534.988413 731.011587,461.556098 650.000000,428.000000 638.432972,423.208780 581.567028,408.791220 570.000000,404.000000 Z M690.000000,310.000000 C582.822895,265.605790 449.177105,261.605790 342.000000,306.000000 225.708556,354.169493 120.169493,453.708556 72.000000,570.000000 49.341632,624.702139 38.000000,683.411765 38.000000,746.000000 38.000000,748.666667 37.333333,748.000000 40.000000,748.000000 63.333333,748.000000 86.666667,748.000000 110.000000,748.000000 112.666667,748.000000 112.000000,748.666667 112.000000,746.000000 112.000000,584.365591 208.891423,440.591222 360.000000,378.000000 417.925929,354.006295 483.301427,350.000000 546.000000,350.000000 682.710427,350.000000 829.683185,473.696035 882.000000,600.000000 886.526204,610.927224 899.473796,665.072776 904.000000,676.000000 906.546722,682.148330 907.453278,717.851670 910.000000,724.000000 912.851849,730.884974 904.547758,748.000000 912.000000,748.000000 935.333333,748.000000 958.666667,748.000000 982.000000,748.000000 984.666667,748.000000 984.000000,748.666667 984.000000,746.000000 984.000000,554.761905 868.931268,384.115758 690.000000,310.000000 Z M1640.000000,264.000000 C1505.624683,208.339921 1344.929540,270.216786 1292.000000,398.000000 1264.186990,465.146546 1260.186990,548.853454 1288.000000,616.000000 1299.885046,644.693040 1337.306960,706.114954 1366.000000,718.000000 1381.205427,724.298294 1404.794573,756.298294 1420.000000,750.000000 1457.986359,734.265535 1548.013641,750.265535 1586.000000,766.000000 1612.741131,777.076539 1643.258869,755.076539 1670.000000,744.000000 1708.352152,728.114019 1766.114019,656.352152 1782.000000,618.000000 1839.870656,478.287878 1776.611913,320.586507 1640.000000,264.000000 Z M1430.000000,96.000000 C1425.605004,94.179533 1423.820467,89.605004 1422.000000,94.000000 1416.058328,108.344465 1381.941672,171.655535 1376.000000,186.000000 1369.820506,200.918619 1366.918619,220.179494 1352.000000,214.000000 1338.576232,208.439693 1257.423768,209.560307 1244.000000,204.000000 1239.054526,201.951518 1228.000000,203.333333 1228.000000,206.000000 1228.000000,218.039338 1234.000000,285.960662 1234.000000,298.000000 1234.000000,311.513658 1246.484992,336.828547 1234.000000,342.000000 1215.994012,349.458324 1136.005988,390.541676 1118.000000,398.000000 1114.221919,399.564932 1118.435068,400.221919 1120.000000,404.000000 1127.043074,421.003486 1184.956926,492.996514 1192.000000,510.000000 1193.352534,513.265306 1185.352534,518.734694 1184.000000,522.000000 1177.355206,538.041952 1122.644794,605.958048 1116.000000,622.000000 1114.091458,626.607627 1121.392373,626.091458 1126.000000,628.000000 1139.720792,633.683338 1200.279208,666.316662 1214.000000,672.000000 1227.343001,677.526852 1243.526852,680.656999 1238.000000,694.000000 1232.439693,707.423768 1233.560307,788.576232 1228.000000,802.000000 1215.428561,832.350140 1265.149246,814.000000 1298.000000,814.000000 1306.012202,814.000000 1324.597690,791.066137 1332.000000,788.000000 1340.377413,784.529962 1362.377413,775.470038 1354.000000,772.000000 1314.116239,755.479605 1258.520395,673.883761 1242.000000,634.000000 1237.940112,624.198563 1226.059888,575.801437 1222.000000,566.000000 1202.109585,517.980291 1236.109585,408.019709 1256.000000,360.000000 1272.858767,319.299337 1343.299337,248.858767 1384.000000,232.000000 1432.019709,212.109585 1541.980291,178.109585 1590.000000,198.000000 1599.801437,202.059888 1648.198563,213.940112 1658.000000,218.000000 1820.431862,285.281480 1896.152529,471.465239 1828.000000,636.000000 1797.830111,708.836556 1732.836556,773.830111 1660.000000,804.000000 1654.639382,806.220441 1646.639382,805.779559 1652.000000,808.000000 1659.899443,811.272056 1679.954028,837.954028 1686.000000,844.000000 1694.609185,852.609185 1704.751558,803.340743 1716.000000,808.000000 1736.745999,816.593274 1817.544692,818.000000 1840.000000,818.000000 1842.666667,818.000000 1842.000000,818.666667 1842.000000,816.000000 1842.000000,793.544692 1840.593274,712.745999 1832.000000,692.000000 1828.104861,682.596304 1838.596304,679.895139 1848.000000,676.000000 1863.864011,669.428911 1934.135989,632.571089 1950.000000,626.000000 1952.350924,625.026215 1954.973785,624.350924 1954.000000,622.000000 1946.684996,604.340019 1885.315004,529.659981 1878.000000,512.000000 1876.409458,508.160091 1886.409458,501.839909 1888.000000,498.000000 1893.040513,485.831125 1932.959487,434.168875 1938.000000,422.000000 1942.567739,410.972502 1963.027498,400.567739 1952.000000,396.000000 1934.348393,388.688465 1855.651607,349.311535 1838.000000,342.000000 1825.022564,336.624570 1836.000000,314.046675 1836.000000,300.000000 1836.000000,287.716902 1842.000000,218.283098 1842.000000,206.000000 1842.000000,203.333333 1830.945474,201.951518 1826.000000,204.000000 1812.576232,209.560307 1731.423768,208.439693 1718.000000,214.000000 1703.081381,220.179494 1700.179494,200.918619 1694.000000,186.000000 1688.574995,172.902880 1657.425005,115.097120 1652.000000,102.000000 1650.091458,97.392373 1650.607627,90.091458 1646.000000,92.000000 1628.340019,99.315004 1553.659981,160.684996 1536.000000,168.000000 1532.734694,169.352534 1527.265306,161.352534 1524.000000,160.000000 1508.919591,153.753490 1445.080409,102.246510 1430.000000,96.000000 Z "/></g>
</svg>