<?xml version="1.0" encoding="UTF-8"?>
<!DOCTYPE svg PUBLIC "-//W3C//DTD SVG 1.1 Tiny//EN" "http://www.w3.org/Graphics/SVG/1.1/DTD/svg11-tiny.dtd">
<svg version="1.1" width="2048" height="2048" viewBox="0 0 2048 2048" xmlns="http://www.w3.org/2000/svg">
<g fill="black">
<path d="M602.000000,1632.000000 C542.859642,1632.000000 318.638566,1619.367965 264.000000,1642.000000 233.870256,1654.480148 212.480148,1685.870256 200.000000,1716.000000 184.144514,1754.278530 205.733175,1815.806217 240.000000,1830.000000 284.863205,1848.582948 346.582948,1860.863205 328.000000,1816.000000 320.654427,1798.266219 291.733781,1803.345573 274.000000,1796.000000 245.593223,1784.233528 232.758050,1755.140469 244.000000,1728.000000 255.484418,1700.274162 285.989769,1676.000000 316.000000,1676.000000 407.333333,1676.000000 498.666667,1676.000000 590.000000,1676.000000 593.151515,1676.000000 605.151515,1632.000000 602.000000,1632.000000 Z M1276.000000,1628.000000 C1272.883709,1626.709190 1275.290810,1626.883709 1274.000000,1630.000000 1267.211772,1646.388233 1250.788228,1729.611767 1244.000000,1746.000000 1218.479855,1807.611080 1296.831155,1887.336965 1358.000000,1862.000000 1368.205174,1857.772878 1389.772878,1850.205174 1394.000000,1840.000000 1399.185500,1827.481097 1402.814500,1756.518903 1408.000000,1744.000000 1420.288317,1714.333379 1412.288317,1677.666621 1400.000000,1648.000000 1397.726931,1642.512325 1399.939816,1632.000000 1394.000000,1632.000000 1373.511961,1632.000000 1294.928480,1635.840433 1276.000000,1628.000000 Z M184.000000,1540.000000 C154.550725,1540.000000 158.550725,1586.000000 188.000000,1586.000000 330.000000,1586.000000 472.000000,1586.000000 614.000000,1586.000000 617.014493,1586.000000 629.014493,1540.000000 626.000000,1540.000000 478.666667,1540.000000 331.333333,1540.000000 184.000000,1540.000000 Z M1200.000000,1504.000000 C1163.724168,1504.000000 1023.514499,1496.117840 990.000000,1510.000000 978.456726,1514.781381 954.781381,1528.456726 950.000000,1540.000000 943.653782,1555.321126 985.653782,1564.678874 992.000000,1580.000000 1005.061165,1611.532441 1027.061165,1648.467559 1014.000000,1680.000000 1010.325321,1688.871460 1008.397601,1694.000000 1018.000000,1694.000000 1063.333333,1694.000000 1108.666667,1694.000000 1154.000000,1694.000000 1160.504028,1694.000000 1157.511016,1682.008938 1160.000000,1676.000000 1169.511335,1653.037607 1190.488665,1534.962393 1200.000000,1512.000000 1201.648104,1508.021124 1204.306704,1504.000000 1200.000000,1504.000000 Z M766.000000,1408.000000 C762.636557,1399.879929 767.363443,1401.879929 764.000000,1410.000000 745.528533,1454.594065 698.471467,1679.405935 680.000000,1724.000000 653.047122,1789.070004 725.272277,1867.982673 788.000000,1842.000000 871.063542,1807.593954 862.406046,1733.063542 828.000000,1650.000000 813.858878,1615.860311 780.141122,1442.139689 766.000000,1408.000000 Z M352.000000,1282.000000 C331.024045,1231.359564 246.640436,1209.024045 196.000000,1230.000000 164.533797,1243.033728 131.033728,1264.533797 118.000000,1296.000000 103.931214,1329.965053 95.931214,1372.034947 110.000000,1406.000000 130.244782,1454.875227 191.097835,1498.000000 244.000000,1498.000000 374.666667,1498.000000 505.333333,1498.000000 636.000000,1498.000000 640.289855,1498.000000 652.289855,1452.000000 648.000000,1452.000000 512.666667,1452.000000 377.333333,1452.000000 242.000000,1452.000000 233.640629,1452.000000 209.723051,1443.198993 202.000000,1440.000000 126.788682,1408.846452 130.502389,1306.100561 208.000000,1274.000000 242.281893,1259.799975 299.799975,1273.718107 314.000000,1308.000000 324.046535,1332.254480 325.745520,1358.046535 350.000000,1348.000000 376.438402,1337.048855 362.951145,1308.438402 352.000000,1282.000000 Z M442.000000,1120.000000 C414.544986,1120.000000 389.413626,1140.586374 370.000000,1160.000000 366.293007,1163.706993 371.156581,1165.993790 376.000000,1168.000000 408.687609,1181.539651 442.460349,1253.312391 456.000000,1286.000000 458.996990,1293.235375 452.168487,1310.000000 460.000000,1310.000000 551.333333,1310.000000 642.666667,1310.000000 734.000000,1310.000000 741.304818,1310.000000 765.251228,1301.204567 772.000000,1304.000000 776.515007,1305.870177 791.112992,1310.000000 796.000000,1310.000000 937.333333,1310.000000 1078.666667,1310.000000 1220.000000,1310.000000 1230.200407,1310.000000 1240.096473,1307.423947 1244.000000,1298.000000 1252.482298,1277.521922 1259.517702,1162.478078 1268.000000,1142.000000 1270.525582,1135.902706 1260.097294,1130.525582 1254.000000,1128.000000 1247.656665,1125.372505 1226.865976,1120.000000 1220.000000,1120.000000 960.666667,1120.000000 701.333333,1120.000000 442.000000,1120.000000 Z M1378.000000,1098.000000 C1372.344525,1098.000000 1376.164257,1108.775022 1374.000000,1114.000000 1361.198076,1144.906578 1346.801924,1315.093422 1334.000000,1346.000000 1324.103986,1369.891091 1315.896014,1504.108909 1306.000000,1528.000000 1302.412140,1536.661861 1304.624469,1536.000000 1314.000000,1536.000000 1388.666667,1536.000000 1463.333333,1536.000000 1538.000000,1536.000000 1544.034767,1536.000000 1542.309405,1542.424602 1540.000000,1548.000000 1530.016363,1572.102631 1519.983637,1705.897369 1510.000000,1730.000000 1497.466852,1760.257696 1486.533148,1929.742304 1474.000000,1960.000000 1472.132411,1964.508758 1470.132411,1970.508758 1472.000000,1966.000000 1505.655850,1884.747591 1728.344150,1533.252409 1762.000000,1452.000000 1763.569409,1448.211111 1768.101064,1446.000000 1764.000000,1446.000000 1686.666667,1446.000000 1609.333333,1446.000000 1532.000000,1446.000000 1523.885943,1446.000000 1532.894885,1439.496411 1536.000000,1432.000000 1557.464231,1380.180763 1698.535769,1155.819237 1720.000000,1104.000000 1721.569409,1100.211111 1726.101064,1098.000000 1722.000000,1098.000000 1607.333333,1098.000000 1492.666667,1098.000000 1378.000000,1098.000000 Z M826.000000,736.000000 C793.826941,736.000000 756.312097,762.275969 744.000000,792.000000 718.005332,854.756680 761.601990,926.000000 826.000000,926.000000 1040.666667,926.000000 1255.333333,926.000000 1470.000000,926.000000 1475.561762,926.000000 1472.128394,919.138398 1470.000000,914.000000 1465.784961,903.823995 1458.215039,850.176005 1454.000000,840.000000 1440.760653,808.037388 1423.239347,777.962612 1410.000000,746.000000 1408.114382,741.447715 1402.666667,736.000000 1400.000000,736.000000 1208.666667,736.000000 1017.333333,736.000000 826.000000,736.000000 Z M1056.000000,532.000000 C1026.442397,519.756840 949.557603,529.756840 920.000000,542.000000 915.883315,543.705187 909.544133,542.000000 914.000000,542.000000 939.510111,542.000000 1034.431730,543.762297 1058.000000,534.000000 1068.565379,529.623677 1066.565379,536.376323 1056.000000,532.000000 Z M1296.000000,342.000000 C1126.622086,271.841371 915.377914,271.841371 746.000000,342.000000 727.081197,349.836425 644.918803,400.163575 626.000000,408.000000 613.447365,413.199472 560.552635,466.800528 548.000000,472.000000 531.169335,478.971490 498.971490,513.169335 492.000000,530.000000 487.998730,539.659920 448.001270,580.340080 444.000000,590.000000 437.315925,606.136784 392.684075,675.863216 386.000000,692.000000 376.763944,714.297812 345.236056,821.702188 336.000000,844.000000 329.774781,859.029008 328.225219,946.970992 322.000000,962.000000 319.813265,967.279246 321.333333,984.000000 324.000000,984.000000 372.000000,984.000000 420.000000,984.000000 468.000000,984.000000 470.666667,984.000000 470.000000,984.666667 470.000000,982.000000 470.000000,915.573767 480.579781,847.369837 506.000000,786.000000 511.279338,773.254550 540.720662,716.745450 546.000000,704.000000 551.065472,691.770869 596.934528,640.229131 602.000000,628.000000 607.337041,615.115243 631.115243,589.337041 644.000000,584.000000 650.410306,581.344765 677.589694,550.655235 684.000000,548.000000 695.207373,543.357754 742.792627,506.642246 754.000000,502.000000 769.591113,495.541949 840.408887,464.458051 856.000000,458.000000 919.257081,431.798059 991.531029,434.000000 1060.000000,434.000000 1139.947205,434.000000 1216.138414,471.405529 1290.000000,502.000000 1301.207373,506.642246 1348.792627,543.357754 1360.000000,548.000000 1366.410306,550.655235 1393.589694,581.344765 1400.000000,584.000000 1412.884757,589.337041 1436.662959,615.115243 1442.000000,628.000000 1446.401154,638.625325 1487.598846,683.374675 1492.000000,694.000000 1497.941672,708.344465 1532.058328,771.655535 1538.000000,786.000000 1563.420219,847.369837 1574.000000,915.573767 1574.000000,982.000000 1574.000000,984.666667 1573.333333,984.000000 1576.000000,984.000000 1623.333333,984.000000 1670.666667,984.000000 1718.000000,984.000000 1720.666667,984.000000 1722.186735,967.279246 1720.000000,962.000000 1713.774781,946.970992 1712.225219,859.029008 1706.000000,844.000000 1696.763944,821.702188 1665.236056,714.297812 1656.000000,692.000000 1648.376017,673.594076 1595.623983,594.405924 1588.000000,576.000000 1583.737229,565.708760 1538.262771,522.291240 1534.000000,512.000000 1527.028510,495.169335 1492.830665,462.971490 1476.000000,456.000000 1461.834957,450.132647 1402.165043,395.867353 1388.000000,390.000000 1373.581455,384.027643 1310.418545,347.972357 1296.000000,342.000000 Z M1282.000000,74.000000 C1231.061107,52.900420 1045.135860,40.000000 990.000000,40.000000 870.471296,40.000000 750.430123,72.258345 640.000000,118.000000 541.774809,158.686206 449.178307,218.821693 374.000000,294.000000 343.861654,324.138346 240.310755,434.622353 224.000000,474.000000 214.007902,498.123058 153.992098,603.876942 144.000000,628.000000 97.968982,739.128708 74.000000,861.715153 74.000000,982.000000 74.000000,984.666667 73.333333,984.000000 76.000000,984.000000 124.666667,984.000000 173.333333,984.000000 222.000000,984.000000 224.666667,984.000000 224.000000,984.666667 224.000000,982.000000 224.000000,873.741051 248.571094,764.018227 290.000000,664.000000 394.054591,412.789995 702.092250,188.000000 974.000000,188.000000 1068.680750,188.000000 1168.526393,185.767246 1256.000000,222.000000 1268.859745,227.326681 1329.140255,248.673319 1342.000000,254.000000 1527.992449,331.040595 1684.959405,502.007551 1762.000000,688.000000 1799.379402,778.241858 1818.000000,876.000000 1818.000000,982.000000 1818.000000,984.666667 1817.333333,984.000000 1820.000000,984.000000 1869.333333,984.000000 1918.666667,984.000000 1968.000000,984.000000 1970.666667,984.000000 1970.000000,984.666667 1970.000000,982.000000 1970.000000,929.157772 1948.221845,754.819853 1928.000000,706.000000 1905.921970,652.698921 1884.078030,599.301079 1862.000000,546.000000 1843.344904,500.962613 1748.470124,372.470124 1714.000000,338.000000 1629.988096,253.988096 1535.766842,173.466915 1426.000000,128.000000 1404.441747,119.070279 1303.558253,82.929721 1282.000000,74.000000 Z "/></g>
</svg>