<?xml version="1.0" encoding="UTF-8"?>
<!DOCTYPE svg PUBLIC "-//W3C//DTD SVG 1.1 Tiny//EN" "http://www.w3.org/Graphics/SVG/1.1/DTD/svg11-tiny.dtd">
<svg version="1.1" width="2048" height="2048" viewBox="0 0 2048 2048" xmlns="http://www.w3.org/2000/svg">
<g fill="black">
<path d="M528.000000,1632.000000 C483.637729,1632.000000 314.985394,1621.023294 274.000000,1638.000000 256.390813,1645.293964 221.293964,1666.390813 214.000000,1684.000000 182.805872,1759.309286 198.690714,1812.805872 274.000000,1844.000000 303.980737,1856.418428 340.418428,1845.980737 328.000000,1816.000000 320.654427,1798.266219 291.733781,1803.345573 274.000000,1796.000000 227.194348,1776.612464 232.340257,1704.569739 282.000000,1684.000000 325.134086,1666.133277 505.312002,1676.000000 552.000000,1676.000000 554.909091,1676.000000 530.909091,1632.000000 528.000000,1632.000000 Z M184.000000,1540.000000 C154.550725,1540.000000 158.550725,1586.000000 188.000000,1586.000000 296.000000,1586.000000 404.000000,1586.000000 512.000000,1586.000000 515.826087,1586.000000 511.826087,1540.000000 508.000000,1540.000000 400.000000,1540.000000 292.000000,1540.000000 184.000000,1540.000000 Z M1226.000000,1398.000000 C1229.593664,1389.324127 1228.675873,1386.406336 1220.000000,1390.000000 1160.820298,1414.513035 1138.513035,1436.820298 1114.000000,1496.000000 1104.879118,1518.019756 1108.879118,1569.980244 1118.000000,1592.000000 1152.808443,1676.035015 1240.376607,1713.809517 1322.000000,1680.000000 1345.283068,1670.355838 1364.179911,1651.820089 1382.000000,1634.000000 1384.666667,1631.333333 1384.666667,1632.000000 1382.000000,1632.000000 1330.517213,1632.000000 1241.701610,1635.563893 1222.000000,1588.000000 1215.172808,1571.517700 1201.172808,1536.482300 1208.000000,1520.000000 1214.599277,1504.067937 1219.400723,1413.932063 1226.000000,1398.000000 Z M842.000000,1404.000000 C804.631386,1388.521413 759.368614,1370.521413 722.000000,1386.000000 695.643487,1396.917225 640.917225,1427.643487 630.000000,1454.000000 614.521413,1491.368614 596.521413,1536.631386 612.000000,1574.000000 622.917225,1600.356513 653.643487,1655.082775 680.000000,1666.000000 717.368614,1681.478587 762.631386,1699.478587 800.000000,1684.000000 826.356513,1673.082775 881.082775,1642.356513 892.000000,1616.000000 907.478587,1578.631386 925.478587,1533.368614 910.000000,1496.000000 899.082775,1469.643487 868.356513,1414.917225 842.000000,1404.000000 Z M356.000000,1290.000000 C318.107043,1198.518310 156.692692,1202.587579 118.000000,1296.000000 103.931214,1329.965053 95.931214,1372.034947 110.000000,1406.000000 130.244782,1454.875227 191.097835,1498.000000 244.000000,1498.000000 332.666667,1498.000000 421.333333,1498.000000 510.000000,1498.000000 513.362319,1498.000000 525.362319,1452.000000 522.000000,1452.000000 466.248948,1452.000000 253.507256,1461.335004 202.000000,1440.000000 126.788682,1408.846452 130.502389,1306.100561 208.000000,1274.000000 242.281893,1259.799975 299.799975,1273.718107 314.000000,1308.000000 319.595269,1321.508173 318.491827,1342.404731 332.000000,1348.000000 364.790192,1361.582142 369.582142,1322.790192 356.000000,1290.000000 Z M1378.000000,1098.000000 C1372.344525,1098.000000 1376.164257,1108.775022 1374.000000,1114.000000 1361.198076,1144.906578 1346.801924,1315.093422 1334.000000,1346.000000 1324.103986,1369.891091 1315.896014,1504.108909 1306.000000,1528.000000 1302.412140,1536.661861 1304.624469,1536.000000 1314.000000,1536.000000 1388.666667,1536.000000 1463.333333,1536.000000 1538.000000,1536.000000 1544.034767,1536.000000 1542.309405,1542.424602 1540.000000,1548.000000 1530.016363,1572.102631 1519.983637,1705.897369 1510.000000,1730.000000 1497.466852,1760.257696 1486.533148,1929.742304 1474.000000,1960.000000 1472.132411,1964.508758 1470.132411,1970.508758 1472.000000,1966.000000 1505.655850,1884.747591 1728.344150,1533.252409 1762.000000,1452.000000 1763.569409,1448.211111 1768.101064,1446.000000 1764.000000,1446.000000 1686.666667,1446.000000 1609.333333,1446.000000 1532.000000,1446.000000 1523.885943,1446.000000 1532.894885,1439.496411 1536.000000,1432.000000 1557.464231,1380.180763 1698.535769,1155.819237 1720.000000,1104.000000 1721.569409,1100.211111 1726.101064,1098.000000 1722.000000,1098.000000 1607.333333,1098.000000 1492.666667,1098.000000 1378.000000,1098.000000 Z M1730.000000,664.000000 C1726.311752,655.095783 1729.688248,651.095783 1726.000000,660.000000 1720.877078,672.367827 1709.122922,735.632173 1704.000000,748.000000 1700.883728,755.523347 1705.523347,765.116272 1698.000000,762.000000 1683.785315,756.112085 1614.214685,737.887915 1600.000000,732.000000 1594.124238,729.566180 1593.502887,729.502887 1598.000000,734.000000 1607.038733,743.038733 1662.961267,794.961267 1672.000000,804.000000 1682.441265,814.441265 1623.233821,844.000000 1638.000000,844.000000 1674.392918,844.000000 1712.377328,846.073033 1746.000000,860.000000 1751.876209,862.434006 1752.767742,851.004301 1760.000000,854.000000 1768.918409,857.694126 1813.081591,868.305874 1822.000000,872.000000 1847.291083,882.475910 1869.356957,895.356957 1850.000000,876.000000 1842.930762,868.930762 1799.069238,827.069238 1792.000000,820.000000 1786.334619,814.334619 1774.334619,811.665381 1780.000000,806.000000 1793.099739,792.900261 1840.884366,739.089528 1858.000000,732.000000 1861.193240,730.677317 1861.193240,728.677317 1858.000000,730.000000 1843.147938,736.151925 1770.852062,755.848075 1756.000000,762.000000 1749.122392,764.848799 1752.848799,756.877608 1750.000000,750.000000 1745.048149,738.045173 1734.951851,675.954827 1730.000000,664.000000 Z M1144.000000,436.000000 C1117.321963,424.949595 1050.678037,412.949595 1024.000000,424.000000 1008.520194,430.411946 977.588054,414.520194 984.000000,430.000000 991.149643,447.260766 1034.850357,522.739234 1042.000000,540.000000 1065.589137,596.949214 1095.589137,729.050786 1072.000000,786.000000 1065.311270,802.148024 1038.148024,829.311270 1022.000000,836.000000 985.577320,851.086768 943.423625,844.000000 904.000000,844.000000 887.963309,844.000000 798.036691,844.000000 782.000000,844.000000 749.060187,844.000000 710.605521,816.432419 698.000000,786.000000 694.323188,777.123390 691.676812,726.876610 688.000000,718.000000 679.975809,698.627889 691.372111,760.024191 672.000000,752.000000 659.616694,746.870667 606.383306,711.129333 594.000000,706.000000 515.123794,673.328406 416.876206,665.328406 338.000000,698.000000 322.403298,704.460366 334.460366,752.403298 328.000000,768.000000 314.650496,800.228553 286.228553,828.650496 254.000000,842.000000 231.459354,851.336641 161.336641,829.459354 152.000000,852.000000 141.949347,876.264422 130.050653,899.735578 120.000000,924.000000 99.132866,974.377719 103.132866,1093.622281 124.000000,1144.000000 126.289880,1149.528259 124.471741,1154.289880 130.000000,1152.000000 189.858395,1127.205841 264.141605,1115.205841 324.000000,1140.000000 358.868889,1154.443167 389.312508,1179.312508 416.000000,1206.000000 437.081851,1227.081851 444.590584,1258.455234 456.000000,1286.000000 460.574906,1297.044801 462.574906,1324.955199 458.000000,1336.000000 455.333333,1342.437903 455.333333,1354.000000 458.000000,1354.000000 500.666667,1354.000000 543.333333,1354.000000 586.000000,1354.000000 592.160441,1354.000000 606.308495,1334.357499 612.000000,1332.000000 620.238380,1328.587551 655.761620,1305.412449 664.000000,1302.000000 719.446457,1279.033325 788.553543,1275.033325 844.000000,1298.000000 885.527788,1315.201373 922.216007,1344.216007 954.000000,1376.000000 971.668970,1393.668970 1037.012302,1382.000000 1062.000000,1382.000000 1072.450487,1382.000000 1096.345009,1343.999228 1106.000000,1340.000000 1114.913486,1336.307913 1153.086514,1309.692087 1162.000000,1306.000000 1169.548555,1302.873286 1206.451445,1293.126714 1214.000000,1290.000000 1221.044140,1287.082222 1243.082222,1293.044140 1246.000000,1286.000000 1258.610492,1255.555579 1273.389508,1088.444421 1286.000000,1058.000000 1298.605521,1027.567581 1337.060187,1000.000000 1370.000000,1000.000000 1489.333333,1000.000000 1608.666667,1000.000000 1728.000000,1000.000000 1767.700577,1000.000000 1802.807247,1039.321449 1818.000000,1076.000000 1825.502117,1094.111713 1811.502117,1133.888287 1804.000000,1152.000000 1791.949783,1181.091796 1712.050217,1306.908204 1700.000000,1336.000000 1698.288588,1340.131715 1689.527864,1348.000000 1694.000000,1348.000000 1706.086712,1348.000000 1754.833334,1352.625384 1766.000000,1348.000000 1794.896620,1336.030628 1838.030628,1278.896620 1850.000000,1250.000000 1897.377393,1135.620854 1846.300292,1005.687877 1736.000000,960.000000 1704.260900,946.853234 1629.739100,934.853234 1598.000000,948.000000 1590.247365,951.211247 1585.211247,953.752635 1582.000000,946.000000 1564.221935,903.079954 1478.920046,851.778065 1436.000000,834.000000 1426.894413,830.228342 1408.000000,833.855817 1408.000000,824.000000 1408.000000,768.182838 1407.360303,709.568333 1386.000000,658.000000 1363.636381,604.009448 1327.322579,555.322579 1286.000000,514.000000 1247.813324,475.813324 1193.893297,456.666480 1144.000000,436.000000 Z M570.000000,404.000000 C518.050820,382.481945 397.949180,418.481945 346.000000,440.000000 239.709816,484.026836 162.000000,630.952334 162.000000,746.000000 162.000000,748.666667 161.333333,748.000000 164.000000,748.000000 186.666667,748.000000 209.333333,748.000000 232.000000,748.000000 243.595545,748.000000 231.562577,720.712886 236.000000,710.000000 239.894203,700.598562 250.105797,653.401438 254.000000,644.000000 270.782920,603.482447 329.482447,526.782920 370.000000,510.000000 408.609072,494.007599 493.390928,458.007599 532.000000,474.000000 540.187722,477.391466 585.812278,480.608534 594.000000,484.000000 640.346286,503.197260 730.802740,561.653714 750.000000,608.000000 758.107913,627.574234 767.892087,646.425766 776.000000,666.000000 779.572041,674.623670 784.427959,721.376330 788.000000,730.000000 790.237062,735.400746 784.154275,748.000000 790.000000,748.000000 818.086982,748.000000 870.748423,763.948988 860.000000,738.000000 856.604371,729.802226 855.395629,682.197774 852.000000,674.000000 848.507801,665.569085 837.492199,624.430915 834.000000,616.000000 800.443902,534.988413 731.011587,461.556098 650.000000,428.000000 638.432972,423.208780 581.567028,408.791220 570.000000,404.000000 Z M690.000000,310.000000 C582.822895,265.605790 449.177105,261.605790 342.000000,306.000000 225.708556,354.169493 120.169493,453.708556 72.000000,570.000000 49.341632,624.702139 38.000000,683.411765 38.000000,746.000000 38.000000,748.666667 37.333333,748.000000 40.000000,748.000000 63.333333,748.000000 86.666667,748.000000 110.000000,748.000000 112.666667,748.000000 112.000000,748.666667 112.000000,746.000000 112.000000,584.365591 208.891423,440.591222 360.000000,378.000000 417.925929,354.006295 483.301427,350.000000 546.000000,350.000000 682.710427,350.000000 829.683185,473.696035 882.000000,600.000000 886.526204,610.927224 899.473796,665.072776 904.000000,676.000000 906.546722,682.148330 907.453278,717.851670 910.000000,724.000000 912.851849,730.884974 904.547758,748.000000 912.000000,748.000000 935.333333,748.000000 958.666667,748.000000 982.000000,748.000000 984.666667,748.000000 984.000000,748.666667 984.000000,746.000000 984.000000,554.761905 868.931268,384.115758 690.000000,310.000000 Z M1882.000000,204.000000 C1879.120366,197.047948 1882.879634,191.047948 1880.000000,198.000000 1874.116528,212.203959 1861.883472,285.796041 1856.000000,300.000000 1853.454741,306.144800 1846.144800,300.545259 1840.000000,298.000000 1827.306752,292.742284 1764.693248,277.257716 1752.000000,272.000000 1747.845209,270.279029 1746.820061,268.820061 1750.000000,272.000000 1759.281644,281.281644 1816.718356,334.718356 1826.000000,344.000000 1828.666667,346.666667 1828.666667,347.333333 1826.000000,350.000000 1817.204188,358.795812 1762.795812,409.204188 1754.000000,418.000000 1749.523510,422.476490 1744.151183,424.422659 1750.000000,422.000000 1763.819160,416.275917 1832.180840,399.724083 1846.000000,394.000000 1849.920424,392.376107 1854.376107,390.079576 1856.000000,394.000000 1861.883472,408.203959 1874.116528,481.796041 1880.000000,496.000000 1881.242551,498.999783 1878.757449,500.999783 1880.000000,498.000000 1885.588642,484.507825 1898.411358,415.492175 1904.000000,402.000000 1906.574529,395.784537 1903.784537,389.425471 1910.000000,392.000000 1921.810311,396.891991 1980.189689,411.108009 1992.000000,416.000000 2002.984635,420.549985 2018.407275,428.407275 2010.000000,420.000000 1997.574874,407.574874 1952.234210,358.724430 1936.000000,352.000000 1921.462497,345.978369 1946.873477,333.126523 1958.000000,322.000000 1966.731642,313.268358 1998.591560,278.725530 2010.000000,274.000000 2012.837816,272.824538 2012.837816,268.824538 2010.000000,270.000000 1996.912472,275.421032 1933.087528,292.578968 1920.000000,298.000000 1913.350583,300.754279 1906.754279,304.649417 1904.000000,298.000000 1898.582330,284.920588 1887.417670,217.079412 1882.000000,204.000000 Z M1344.000000,48.000000 C1340.636557,39.879929 1345.363443,37.879929 1342.000000,46.000000 1330.625741,73.459890 1305.374259,214.540110 1294.000000,242.000000 1289.212557,253.557909 1289.557909,256.787443 1278.000000,252.000000 1249.235955,240.085542 1106.764045,205.914458 1078.000000,194.000000 1073.447715,192.114382 1095.333333,211.333333 1098.000000,214.000000 1115.129782,231.129782 1220.870218,326.870218 1238.000000,344.000000 1242.714045,348.714045 1230.714045,355.285955 1226.000000,360.000000 1221.246226,364.753774 1229.788894,363.427276 1236.000000,366.000000 1291.926729,389.165610 1339.195535,431.195535 1382.000000,474.000000 1392.409839,484.409839 1386.366236,455.601110 1392.000000,442.000000 1395.001032,434.754867 1402.754867,438.998968 1410.000000,442.000000 1437.152132,453.246781 1570.847868,486.753219 1598.000000,498.000000 1603.697127,500.359827 1610.360392,502.360392 1606.000000,498.000000 1588.165452,480.165452 1477.834548,377.834548 1460.000000,360.000000 1453.787740,353.787740 1441.787740,350.212260 1448.000000,344.000000 1467.317010,324.682990 1586.682990,215.317010 1606.000000,196.000000 1608.666667,193.333333 1608.666667,194.000000 1606.000000,194.000000 1597.998709,194.000000 1575.392229,202.938038 1568.000000,206.000000 1545.019979,215.518636 1430.980021,242.481364 1408.000000,252.000000 1385.021846,261.517863 1393.517863,234.978154 1384.000000,212.000000 1374.488665,189.037607 1353.511335,70.962393 1344.000000,48.000000 Z "/></g>
</svg>