<?xml version="1.0" encoding="UTF-8"?>
<!DOCTYPE svg PUBLIC "-//W3C//DTD SVG 1.1 Tiny//EN" "http://www.w3.org/Graphics/SVG/1.1/DTD/svg11-tiny.dtd">
<svg version="1.1" width="2048" height="2048" viewBox="0 0 2048 2048" xmlns="http://www.w3.org/2000/svg">
<g fill="black">
<path d="M1054.000000,1882.000000 C1000.724781,1904.067318 917.932682,1860.724781 940.000000,1914.000000 947.399112,1931.863037 976.665188,1936.000000 996.000000,1936.000000 1023.711154,1936.000000 1071.395400,1939.601768 1082.000000,1914.000000 1090.139389,1894.349778 1072.594134,1874.298058 1054.000000,1882.000000 Z M942.000000,1778.000000 C920.329941,1769.023968 900.976032,1758.329941 892.000000,1780.000000 881.212497,1806.043336 909.956664,1811.212497 936.000000,1822.000000 962.820862,1833.109565 1031.179138,1839.109565 1058.000000,1828.000000 1081.217803,1818.382871 1118.382871,1823.217803 1128.000000,1800.000000 1136.426987,1779.655453 1117.808039,1759.795242 1098.000000,1768.000000 1049.859660,1787.940382 990.140340,1797.940382 942.000000,1778.000000 Z M882.000000,1670.000000 C847.059741,1655.527271 829.059741,1697.527271 864.000000,1712.000000 922.842371,1736.373308 1073.157629,1742.373308 1132.000000,1718.000000 1143.306782,1713.316577 1159.316577,1711.306782 1164.000000,1700.000000 1173.372583,1677.372583 1154.627417,1658.627417 1132.000000,1668.000000 1076.001963,1691.195146 937.998037,1693.195146 882.000000,1670.000000 Z M816.000000,1562.000000 C792.578244,1552.298391 774.298391,1568.578244 784.000000,1592.000000 790.435030,1607.535536 828.464464,1607.564970 844.000000,1614.000000 872.002222,1625.598900 973.690614,1636.000000 1004.000000,1636.000000 1069.081146,1636.000000 1137.872861,1638.905476 1198.000000,1614.000000 1216.807393,1606.209723 1237.790277,1600.807393 1230.000000,1582.000000 1217.005362,1550.628168 1187.371832,1567.005362 1156.000000,1580.000000 1129.338509,1591.043551 1022.858190,1590.000000 994.000000,1590.000000 959.796882,1590.000000 847.599561,1575.088967 816.000000,1562.000000 Z M812.000000,1458.000000 C781.497729,1445.365546 756.634454,1411.497729 744.000000,1442.000000 723.847300,1490.652922 791.347078,1493.847300 840.000000,1514.000000 855.453289,1520.400962 940.546711,1527.599038 956.000000,1534.000000 960.982420,1536.063786 993.017580,1533.936214 998.000000,1536.000000 1019.809255,1545.033689 1080.190745,1543.033689 1102.000000,1534.000000 1147.682810,1515.077560 1265.077560,1521.682810 1284.000000,1476.000000 1291.810486,1457.143819 1272.856181,1438.189514 1254.000000,1446.000000 1251.424538,1447.066791 1240.575462,1456.933209 1238.000000,1458.000000 1140.744545,1498.284528 909.255455,1498.284528 812.000000,1458.000000 Z M1328.000000,1160.000000 C1272.519179,1137.019092 1058.052008,1136.000000 998.000000,1136.000000 906.258818,1136.000000 810.757800,1142.892170 726.000000,1178.000000 656.084391,1206.959994 627.040006,1260.084391 656.000000,1330.000000 676.561786,1379.640543 794.359457,1395.438214 844.000000,1416.000000 859.655230,1422.484609 944.344770,1431.515391 960.000000,1438.000000 984.869181,1448.301152 1083.081792,1440.000000 1110.000000,1440.000000 1142.447217,1440.000000 1256.022681,1434.417012 1286.000000,1422.000000 1302.695376,1415.084549 1341.084549,1400.695376 1348.000000,1384.000000 1366.921975,1338.318310 1349.681690,1302.921975 1304.000000,1284.000000 1285.132886,1276.184985 1180.867114,1267.815015 1162.000000,1260.000000 1149.614741,1254.869858 1101.405708,1254.000000 1088.000000,1254.000000 999.273203,1254.000000 905.972871,1254.045725 824.000000,1288.000000 792.527279,1301.036428 766.527279,1326.963572 798.000000,1340.000000 817.125470,1347.922029 854.874530,1325.922029 874.000000,1318.000000 941.977558,1289.842774 1020.421622,1300.000000 1094.000000,1300.000000 1129.012984,1300.000000 1247.652221,1310.601111 1280.000000,1324.000000 1378.335573,1364.731928 1226.437657,1394.000000 1120.000000,1394.000000 1082.346144,1394.000000 948.787627,1398.409507 914.000000,1384.000000 857.960687,1360.787756 717.212244,1360.039313 694.000000,1304.000000 673.473582,1254.444843 716.444843,1230.526418 766.000000,1210.000000 831.243893,1182.975095 905.380519,1182.000000 976.000000,1182.000000 1103.233818,1182.000000 1238.451280,1169.309726 1356.000000,1218.000000 1374.431863,1225.634728 1392.365272,1232.431863 1400.000000,1214.000000 1415.556883,1176.442363 1365.557637,1175.556883 1328.000000,1160.000000 Z M1382.000000,648.000000 C1304.516387,460.938009 1089.610325,372.289259 902.000000,450.000000 815.766844,485.718943 739.718943,561.766844 704.000000,648.000000 699.574419,658.684297 686.425581,711.315703 682.000000,722.000000 675.621578,737.398872 687.398872,758.378422 672.000000,752.000000 659.616694,746.870667 606.383306,711.129333 594.000000,706.000000 518.766980,674.837463 425.233020,662.837463 350.000000,694.000000 325.735578,704.050653 302.264422,715.949347 278.000000,726.000000 238.377639,742.412119 168.412119,812.377639 152.000000,852.000000 141.949347,876.264422 130.050653,899.735578 120.000000,924.000000 100.091031,972.064502 100.091031,1087.935498 120.000000,1136.000000 130.050653,1160.264422 141.949347,1183.735578 152.000000,1208.000000 168.412119,1247.622361 238.377639,1317.587881 278.000000,1334.000000 330.624201,1355.797658 385.039975,1382.000000 442.000000,1382.000000 485.333333,1382.000000 528.666667,1382.000000 572.000000,1382.000000 577.739047,1382.000000 570.196238,1377.302188 568.000000,1372.000000 554.933697,1340.455155 536.933697,1267.544845 550.000000,1236.000000 566.631938,1195.846949 589.268185,1156.731815 620.000000,1126.000000 687.923602,1058.076398 899.941521,1036.000000 996.000000,1036.000000 1132.199201,1036.000000 1276.168346,1029.878822 1402.000000,1082.000000 1436.148845,1096.144915 1473.855085,1117.851155 1488.000000,1152.000000 1495.301370,1169.627066 1503.301370,1212.372934 1496.000000,1230.000000 1488.347851,1248.473921 1470.473921,1288.347851 1452.000000,1296.000000 1442.621589,1299.884665 1448.115335,1308.621589 1452.000000,1318.000000 1455.084153,1325.445805 1454.000000,1355.940719 1454.000000,1364.000000 1454.000000,1371.543485 1446.456515,1382.000000 1454.000000,1382.000000 1522.666667,1382.000000 1591.333333,1382.000000 1660.000000,1382.000000 1735.163757,1382.000000 1821.236076,1319.442256 1850.000000,1250.000000 1897.377393,1135.620854 1846.300292,1005.687877 1736.000000,960.000000 1706.274317,947.687219 1635.725683,933.687219 1606.000000,946.000000 1595.359887,950.407279 1586.407279,956.640113 1582.000000,946.000000 1564.221935,903.079954 1478.920046,851.778065 1436.000000,834.000000 1426.894413,830.228342 1408.000000,833.855817 1408.000000,824.000000 1408.000000,764.696637 1404.694415,702.789163 1382.000000,648.000000 Z "/></g>
</svg>