<?xml version="1.0" encoding="UTF-8"?>
<!DOCTYPE svg PUBLIC "-//W3C//DTD SVG 1.1 Tiny//EN" "http://www.w3.org/Graphics/SVG/1.1/DTD/svg11-tiny.dtd">
<svg version="1.1" width="2048" height="2048" viewBox="0 0 2048 2048" xmlns="http://www.w3.org/2000/svg">
<g fill="black">
<path d="M1054.000000,1882.000000 C1000.724781,1904.067318 917.932682,1860.724781 940.000000,1914.000000 947.399112,1931.863037 976.665188,1936.000000 996.000000,1936.000000 1023.711154,1936.000000 1071.395400,1939.601768 1082.000000,1914.000000 1090.139389,1894.349778 1072.594134,1874.298058 1054.000000,1882.000000 Z M942.000000,1778.000000 C920.329941,1769.023968 900.976032,1758.329941 892.000000,1780.000000 881.212497,1806.043336 909.956664,1811.212497 936.000000,1822.000000 962.820862,1833.109565 1031.179138,1839.109565 1058.000000,1828.000000 1081.217803,1818.382871 1118.382871,1823.217803 1128.000000,1800.000000 1136.426987,1779.655453 1117.808039,1759.795242 1098.000000,1768.000000 1049.859660,1787.940382 990.140340,1797.940382 942.000000,1778.000000 Z M882.000000,1670.000000 C847.059741,1655.527271 829.059741,1697.527271 864.000000,1712.000000 922.842371,1736.373308 1073.157629,1742.373308 1132.000000,1718.000000 1143.306782,1713.316577 1159.316577,1711.306782 1164.000000,1700.000000 1173.372583,1677.372583 1154.627417,1658.627417 1132.000000,1668.000000 1076.001963,1691.195146 937.998037,1693.195146 882.000000,1670.000000 Z M816.000000,1562.000000 C792.578244,1552.298391 774.298391,1568.578244 784.000000,1592.000000 790.435030,1607.535536 828.464464,1607.564970 844.000000,1614.000000 872.002222,1625.598900 973.690614,1636.000000 1004.000000,1636.000000 1069.081146,1636.000000 1137.872861,1638.905476 1198.000000,1614.000000 1216.807393,1606.209723 1237.790277,1600.807393 1230.000000,1582.000000 1217.005362,1550.628168 1187.371832,1567.005362 1156.000000,1580.000000 1129.338509,1591.043551 1022.858190,1590.000000 994.000000,1590.000000 959.796882,1590.000000 847.599561,1575.088967 816.000000,1562.000000 Z M812.000000,1458.000000 C781.497729,1445.365546 756.634454,1411.497729 744.000000,1442.000000 723.847300,1490.652922 791.347078,1493.847300 840.000000,1514.000000 855.453289,1520.400962 940.546711,1527.599038 956.000000,1534.000000 960.982420,1536.063786 993.017580,1533.936214 998.000000,1536.000000 1019.809255,1545.033689 1080.190745,1543.033689 1102.000000,1534.000000 1147.682810,1515.077560 1265.077560,1521.682810 1284.000000,1476.000000 1291.810486,1457.143819 1272.856181,1438.189514 1254.000000,1446.000000 1251.424538,1447.066791 1240.575462,1456.933209 1238.000000,1458.000000 1140.744545,1498.284528 909.255455,1498.284528 812.000000,1458.000000 Z M1328.000000,1160.000000 C1272.519179,1137.019092 1058.052008,1136.000000 998.000000,1136.000000 906.258818,1136.000000 810.757800,1142.892170 726.000000,1178.000000 656.084391,1206.959994 627.040006,1260.084391 656.000000,1330.000000 676.561786,1379.640543 794.359457,1395.438214 844.000000,1416.000000 859.655230,1422.484609 944.344770,1431.515391 960.000000,1438.000000 984.869181,1448.301152 1083.081792,1440.000000 1110.000000,1440.000000 1142.447217,1440.000000 1256.022681,1434.417012 1286.000000,1422.000000 1302.695376,1415.084549 1341.084549,1400.695376 1348.000000,1384.000000 1366.921975,1338.318310 1349.681690,1302.921975 1304.000000,1284.000000 1285.132886,1276.184985 1180.867114,1267.815015 1162.000000,1260.000000 1149.614741,1254.869858 1101.405708,1254.000000 1088.000000,1254.000000 999.273203,1254.000000 905.972871,1254.045725 824.000000,1288.000000 792.527279,1301.036428 766.527279,1326.963572 798.000000,1340.000000 817.125470,1347.922029 854.874530,1325.922029 874.000000,1318.000000 941.977558,1289.842774 1020.421622,1300.000000 1094.000000,1300.000000 1129.012984,1300.000000 1247.652221,1310.601111 1280.000000,1324.000000 1378.335573,1364.731928 1226.437657,1394.000000 1120.000000,1394.000000 1082.346144,1394.000000 948.787627,1398.409507 914.000000,1384.000000 857.960687,1360.787756 717.212244,1360.039313 694.000000,1304.000000 673.473582,1254.444843 716.444843,1230.526418 766.000000,1210.000000 831.243893,1182.975095 905.380519,1182.000000 976.000000,1182.000000 1103.233818,1182.000000 1238.451280,1169.309726 1356.000000,1218.000000 1374.431863,1225.634728 1392.365272,1232.431863 1400.000000,1214.000000 1415.556883,1176.442363 1365.557637,1175.556883 1328.000000,1160.000000 Z M1636.000000,944.000000 C1600.710166,858.802803 1500.385482,819.389535 1412.000000,856.000000 1367.037863,874.623927 1334.623927,921.037863 1316.000000,966.000000 1310.460046,979.374633 1319.374633,1007.539954 1306.000000,1002.000000 1271.854283,987.856381 1222.134000,1013.866000 1196.000000,1040.000000 1185.522453,1050.477547 1218.310425,1038.329592 1232.000000,1044.000000 1244.060326,1048.995551 1311.939674,1053.004449 1324.000000,1058.000000 1340.260621,1064.735370 1417.739379,1089.264630 1434.000000,1096.000000 1451.296474,1103.164434 1480.835566,1134.703526 1488.000000,1152.000000 1503.106170,1188.469520 1493.106170,1233.530480 1478.000000,1270.000000 1475.712058,1275.523581 1466.021319,1280.000000 1472.000000,1280.000000 1540.666667,1280.000000 1609.333333,1280.000000 1678.000000,1280.000000 1786.380952,1280.000000 1862.830890,1159.402915 1820.000000,1056.000000 1803.399398,1015.922602 1766.077398,982.600602 1726.000000,966.000000 1700.627398,955.490324 1671.463107,958.000000 1644.000000,958.000000 1638.429212,958.000000 1638.131848,949.146737 1636.000000,944.000000 Z M644.000000,854.000000 C557.156367,818.028189 489.971811,849.156367 454.000000,936.000000 452.327763,940.037138 450.266667,976.000000 448.000000,976.000000 444.398041,976.000000 435.327776,969.378410 432.000000,968.000000 391.121303,951.067489 340.878697,965.067489 300.000000,982.000000 261.689003,997.868934 241.868934,1043.689003 226.000000,1082.000000 214.437071,1109.915380 232.437071,1172.084620 244.000000,1200.000000 254.538908,1225.443175 304.556825,1259.461092 330.000000,1270.000000 364.441675,1284.266209 506.720600,1278.000000 544.000000,1278.000000 546.666667,1278.000000 548.000000,1250.000000 548.000000,1250.000000 551.755800,1240.932698 564.244200,1197.067302 568.000000,1188.000000 583.376361,1150.878181 654.878181,1099.376361 692.000000,1084.000000 707.186855,1077.709399 782.813145,1060.290601 798.000000,1054.000000 808.929921,1049.472679 873.070079,1048.527321 884.000000,1044.000000 889.358298,1041.780520 896.101064,1044.101064 892.000000,1040.000000 851.640504,999.640504 778.732222,976.157598 726.000000,998.000000 715.672469,1002.277803 703.722197,1012.327531 708.000000,1002.000000 728.568616,952.342967 693.657033,874.568616 644.000000,854.000000 Z M1640.000000,264.000000 C1505.624683,208.339921 1344.929540,270.216786 1292.000000,398.000000 1264.186990,465.146546 1260.186990,548.853454 1288.000000,616.000000 1299.885046,644.693040 1337.306960,706.114954 1366.000000,718.000000 1381.205427,724.298294 1404.794573,756.298294 1420.000000,750.000000 1457.986359,734.265535 1548.013641,750.265535 1586.000000,766.000000 1612.741131,777.076539 1643.258869,755.076539 1670.000000,744.000000 1708.352152,728.114019 1766.114019,656.352152 1782.000000,618.000000 1839.870656,478.287878 1776.611913,320.586507 1640.000000,264.000000 Z M1430.000000,96.000000 C1425.605004,94.179533 1423.820467,89.605004 1422.000000,94.000000 1416.058328,108.344465 1381.941672,171.655535 1376.000000,186.000000 1369.820506,200.918619 1366.918619,220.179494 1352.000000,214.000000 1338.576232,208.439693 1257.423768,209.560307 1244.000000,204.000000 1239.054526,201.951518 1228.000000,203.333333 1228.000000,206.000000 1228.000000,218.039338 1234.000000,285.960662 1234.000000,298.000000 1234.000000,311.513658 1246.484992,336.828547 1234.000000,342.000000 1215.994012,349.458324 1136.005988,390.541676 1118.000000,398.000000 1114.221919,399.564932 1118.435068,400.221919 1120.000000,404.000000 1127.043074,421.003486 1184.956926,492.996514 1192.000000,510.000000 1193.352534,513.265306 1185.352534,518.734694 1184.000000,522.000000 1177.355206,538.041952 1122.644794,605.958048 1116.000000,622.000000 1114.091458,626.607627 1121.392373,626.091458 1126.000000,628.000000 1139.720792,633.683338 1200.279208,666.316662 1214.000000,672.000000 1227.343001,677.526852 1243.526852,680.656999 1238.000000,694.000000 1232.439693,707.423768 1233.560307,788.576232 1228.000000,802.000000 1215.428561,832.350140 1265.149246,814.000000 1298.000000,814.000000 1306.012202,814.000000 1324.597690,791.066137 1332.000000,788.000000 1340.377413,784.529962 1362.377413,775.470038 1354.000000,772.000000 1314.116239,755.479605 1258.520395,673.883761 1242.000000,634.000000 1237.940112,624.198563 1226.059888,575.801437 1222.000000,566.000000 1202.109585,517.980291 1236.109585,408.019709 1256.000000,360.000000 1272.858767,319.299337 1343.299337,248.858767 1384.000000,232.000000 1432.019709,212.109585 1541.980291,178.109585 1590.000000,198.000000 1599.801437,202.059888 1648.198563,213.940112 1658.000000,218.000000 1820.431862,285.281480 1896.152529,471.465239 1828.000000,636.000000 1797.830111,708.836556 1732.836556,773.830111 1660.000000,804.000000 1654.639382,806.220441 1646.639382,805.779559 1652.000000,808.000000 1659.899443,811.272056 1679.954028,837.954028 1686.000000,844.000000 1694.609185,852.609185 1704.751558,803.340743 1716.000000,808.000000 1736.745999,816.593274 1817.544692,818.000000 1840.000000,818.000000 1842.666667,818.000000 1842.000000,818.666667 1842.000000,816.000000 1842.000000,793.544692 1840.593274,712.745999 1832.000000,692.000000 1828.104861,682.596304 1838.596304,679.895139 1848.000000,676.000000 1863.864011,669.428911 1934.135989,632.571089 1950.000000,626.000000 1952.350924,625.026215 1954.973785,624.350924 1954.000000,622.000000 1946.684996,604.340019 1885.315004,529.659981 1878.000000,512.000000 1876.409458,508.160091 1886.409458,501.839909 1888.000000,498.000000 1893.040513,485.831125 1932.959487,434.168875 1938.000000,422.000000 1942.567739,410.972502 1963.027498,400.567739 1952.000000,396.000000 1934.348393,388.688465 1855.651607,349.311535 1838.000000,342.000000 1825.022564,336.624570 1836.000000,314.046675 1836.000000,300.000000 1836.000000,287.716902 1842.000000,218.283098 1842.000000,206.000000 1842.000000,203.333333 1830.945474,201.951518 1826.000000,204.000000 1812.576232,209.560307 1731.423768,208.439693 1718.000000,214.000000 1703.081381,220.179494 1700.179494,200.918619 1694.000000,186.000000 1688.574995,172.902880 1657.425005,115.097120 1652.000000,102.000000 1650.091458,97.392373 1650.607627,90.091458 1646.000000,92.000000 1628.340019,99.315004 1553.659981,160.684996 1536.000000,168.000000 1532.734694,169.352534 1527.265306,161.352534 1524.000000,160.000000 1508.919591,153.753490 1445.080409,102.246510 1430.000000,96.000000 Z "/></g>
</svg>