<?xml version="1.0" encoding="UTF-8"?>
<!DOCTYPE svg PUBLIC "-//W3C//DTD SVG 1.1 Tiny//EN" "http://www.w3.org/Graphics/SVG/1.1/DTD/svg11-tiny.dtd">
<svg version="1.1" width="2048" height="2048" viewBox="0 0 2048 2048" xmlns="http://www.w3.org/2000/svg">
<g fill="black">
<path d="M1054.000000,1882.000000 C1000.724781,1904.067318 917.932682,1860.724781 940.000000,1914.000000 947.399112,1931.863037 976.665188,1936.000000 996.000000,1936.000000 1023.711154,1936.000000 1071.395400,1939.601768 1082.000000,1914.000000 1090.139389,1894.349778 1072.594134,1874.298058 1054.000000,1882.000000 Z M942.000000,1778.000000 C920.329941,1769.023968 900.976032,1758.329941 892.000000,1780.000000 881.212497,1806.043336 909.956664,1811.212497 936.000000,1822.000000 962.820862,1833.109565 1031.179138,1839.109565 1058.000000,1828.000000 1081.217803,1818.382871 1118.382871,1823.217803 1128.000000,1800.000000 1136.426987,1779.655453 1117.808039,1759.795242 1098.000000,1768.000000 1049.859660,1787.940382 990.140340,1797.940382 942.000000,1778.000000 Z M882.000000,1670.000000 C847.059741,1655.527271 829.059741,1697.527271 864.000000,1712.000000 922.842371,1736.373308 1073.157629,1742.373308 1132.000000,1718.000000 1143.306782,1713.316577 1159.316577,1711.306782 1164.000000,1700.000000 1173.372583,1677.372583 1154.627417,1658.627417 1132.000000,1668.000000 1076.001963,1691.195146 937.998037,1693.195146 882.000000,1670.000000 Z M816.000000,1562.000000 C792.578244,1552.298391 774.298391,1568.578244 784.000000,1592.000000 790.435030,1607.535536 828.464464,1607.564970 844.000000,1614.000000 872.002222,1625.598900 973.690614,1636.000000 1004.000000,1636.000000 1069.081146,1636.000000 1137.872861,1638.905476 1198.000000,1614.000000 1216.807393,1606.209723 1237.790277,1600.807393 1230.000000,1582.000000 1217.005362,1550.628168 1187.371832,1567.005362 1156.000000,1580.000000 1129.338509,1591.043551 1022.858190,1590.000000 994.000000,1590.000000 959.796882,1590.000000 847.599561,1575.088967 816.000000,1562.000000 Z M1376.000000,1504.000000 C1372.409890,1504.000000 1373.373876,1510.683171 1372.000000,1514.000000 1366.040414,1528.387713 1346.387713,1558.040414 1332.000000,1564.000000 1317.014027,1570.207393 1330.207393,1597.014027 1324.000000,1612.000000 1315.671584,1632.106574 1296.106574,1675.671584 1276.000000,1684.000000 1268.320581,1687.180920 1255.687857,1694.000000 1264.000000,1694.000000 1377.333333,1694.000000 1490.666667,1694.000000 1604.000000,1694.000000 1636.173059,1694.000000 1673.687903,1667.724031 1686.000000,1638.000000 1711.994668,1575.243320 1668.398010,1504.000000 1604.000000,1504.000000 1528.000000,1504.000000 1452.000000,1504.000000 1376.000000,1504.000000 Z M250.000000,1504.000000 C185.601990,1504.000000 142.005332,1575.243320 168.000000,1638.000000 180.312097,1667.724031 217.826941,1694.000000 250.000000,1694.000000 290.976077,1694.000000 448.143041,1701.680866 486.000000,1686.000000 560.666667,1655.072054 560.666667,1542.927946 486.000000,1512.000000 448.143041,1496.319134 290.976077,1504.000000 250.000000,1504.000000 Z M812.000000,1458.000000 C781.497729,1445.365546 756.634454,1411.497729 744.000000,1442.000000 723.847300,1490.652922 791.347078,1493.847300 840.000000,1514.000000 855.453289,1520.400962 940.546711,1527.599038 956.000000,1534.000000 960.982420,1536.063786 993.017580,1533.936214 998.000000,1536.000000 1019.809255,1545.033689 1080.190745,1543.033689 1102.000000,1534.000000 1147.682810,1515.077560 1265.077560,1521.682810 1284.000000,1476.000000 1291.810486,1457.143819 1272.856181,1438.189514 1254.000000,1446.000000 1251.424538,1447.066791 1240.575462,1456.933209 1238.000000,1458.000000 1140.744545,1498.284528 909.255455,1498.284528 812.000000,1458.000000 Z M1328.000000,1160.000000 C1272.519179,1137.019092 1058.052008,1136.000000 998.000000,1136.000000 906.258818,1136.000000 810.757800,1142.892170 726.000000,1178.000000 656.084391,1206.959994 627.040006,1260.084391 656.000000,1330.000000 676.561786,1379.640543 794.359457,1395.438214 844.000000,1416.000000 859.655230,1422.484609 944.344770,1431.515391 960.000000,1438.000000 984.869181,1448.301152 1083.081792,1440.000000 1110.000000,1440.000000 1142.447217,1440.000000 1256.022681,1434.417012 1286.000000,1422.000000 1302.695376,1415.084549 1341.084549,1400.695376 1348.000000,1384.000000 1366.921975,1338.318310 1349.681690,1302.921975 1304.000000,1284.000000 1285.132886,1276.184985 1180.867114,1267.815015 1162.000000,1260.000000 1149.614741,1254.869858 1101.405708,1254.000000 1088.000000,1254.000000 999.273203,1254.000000 905.972871,1254.045725 824.000000,1288.000000 792.527279,1301.036428 766.527279,1326.963572 798.000000,1340.000000 817.125470,1347.922029 854.874530,1325.922029 874.000000,1318.000000 941.977558,1289.842774 1020.421622,1300.000000 1094.000000,1300.000000 1129.012984,1300.000000 1247.652221,1310.601111 1280.000000,1324.000000 1378.335573,1364.731928 1226.437657,1394.000000 1120.000000,1394.000000 1082.346144,1394.000000 948.787627,1398.409507 914.000000,1384.000000 857.960687,1360.787756 717.212244,1360.039313 694.000000,1304.000000 673.473582,1254.444843 716.444843,1230.526418 766.000000,1210.000000 831.243893,1182.975095 905.380519,1182.000000 976.000000,1182.000000 1103.233818,1182.000000 1238.451280,1169.309726 1356.000000,1218.000000 1374.431863,1225.634728 1392.365272,1232.431863 1400.000000,1214.000000 1415.556883,1176.442363 1365.557637,1175.556883 1328.000000,1160.000000 Z M442.000000,1120.000000 C377.601990,1120.000000 334.005332,1191.243320 360.000000,1254.000000 372.312097,1283.724031 409.826941,1310.000000 442.000000,1310.000000 476.666667,1310.000000 511.333333,1310.000000 546.000000,1310.000000 550.319498,1310.000000 546.000000,1306.319498 546.000000,1302.000000 546.000000,1267.584241 548.829659,1231.796015 562.000000,1200.000000 573.993461,1171.045223 597.838973,1148.161027 620.000000,1126.000000 623.672037,1122.327963 631.193045,1120.000000 626.000000,1120.000000 564.666667,1120.000000 503.333333,1120.000000 442.000000,1120.000000 Z M826.000000,736.000000 C793.826941,736.000000 756.312097,762.275969 744.000000,792.000000 718.005332,854.756680 761.601990,926.000000 826.000000,926.000000 1149.333333,926.000000 1472.666667,926.000000 1796.000000,926.000000 1828.173059,926.000000 1865.687903,899.724031 1878.000000,870.000000 1903.994668,807.243320 1860.398010,736.000000 1796.000000,736.000000 1472.666667,736.000000 1149.333333,736.000000 826.000000,736.000000 Z M250.000000,736.000000 C185.601990,736.000000 142.005332,807.243320 168.000000,870.000000 180.312097,899.724031 217.826941,926.000000 250.000000,926.000000 290.976077,926.000000 448.143041,933.680866 486.000000,918.000000 577.797739,879.976132 550.901099,736.000000 452.000000,736.000000 384.666667,736.000000 317.333333,736.000000 250.000000,736.000000 Z M1796.000000,352.000000 C1755.023923,352.000000 1597.856959,344.319134 1560.000000,360.000000 1485.333333,390.927946 1485.333333,503.072054 1560.000000,534.000000 1597.856959,549.680866 1755.023923,542.000000 1796.000000,542.000000 1860.398010,542.000000 1903.994668,470.756680 1878.000000,408.000000 1865.687903,378.275969 1828.173059,352.000000 1796.000000,352.000000 Z M250.000000,352.000000 C217.826941,352.000000 180.312097,378.275969 168.000000,408.000000 142.005332,470.756680 185.601990,542.000000 250.000000,542.000000 509.333333,542.000000 768.666667,542.000000 1028.000000,542.000000 1092.398010,542.000000 1135.994668,470.756680 1110.000000,408.000000 1097.687903,378.275969 1060.173059,352.000000 1028.000000,352.000000 768.666667,352.000000 509.333333,352.000000 250.000000,352.000000 Z "/></g>
</svg>