<?xml version="1.0" encoding="UTF-8"?>
<!DOCTYPE svg PUBLIC "-//W3C//DTD SVG 1.1 Tiny//EN" "http://www.w3.org/Graphics/SVG/1.1/DTD/svg11-tiny.dtd">
<svg version="1.1" width="2048" height="2048" viewBox="0 0 2048 2048" xmlns="http://www.w3.org/2000/svg">
<g fill="black">
<path d="M456.000000,1882.000000 C437.405866,1874.298058 419.860611,1894.349778 428.000000,1914.000000 435.399112,1931.863037 464.665188,1936.000000 484.000000,1936.000000 511.711154,1936.000000 559.395400,1939.601768 570.000000,1914.000000 579.282060,1891.591124 560.408876,1874.717940 538.000000,1884.000000 512.739783,1894.463125 481.260217,1892.463125 456.000000,1882.000000 Z M430.000000,1778.000000 C408.329941,1769.023968 388.976032,1758.329941 380.000000,1780.000000 370.186471,1803.691956 394.308044,1810.186471 418.000000,1820.000000 460.842726,1837.746038 561.157274,1829.746038 604.000000,1812.000000 628.097089,1802.018659 622.097089,1775.981341 598.000000,1766.000000 591.878350,1763.464329 580.121650,1773.464329 574.000000,1776.000000 542.035628,1789.240076 461.964372,1791.240076 430.000000,1778.000000 Z M370.000000,1670.000000 C335.059741,1655.527271 317.059741,1697.527271 352.000000,1712.000000 410.842371,1736.373308 561.157629,1742.373308 620.000000,1718.000000 631.306782,1713.316577 647.316577,1711.306782 652.000000,1700.000000 661.372583,1677.372583 642.627417,1658.627417 620.000000,1668.000000 564.001963,1691.195146 425.998037,1693.195146 370.000000,1670.000000 Z M304.000000,1562.000000 C289.016168,1555.793494 278.206506,1559.016168 272.000000,1574.000000 262.884626,1596.006458 283.993542,1600.884626 306.000000,1610.000000 338.607329,1623.506398 456.706082,1636.000000 492.000000,1636.000000 521.509279,1636.000000 628.736981,1635.292712 656.000000,1624.000000 671.906940,1617.411130 709.411130,1613.906940 716.000000,1598.000000 732.888745,1557.226963 684.773037,1563.111255 644.000000,1580.000000 617.338509,1591.043551 510.858190,1590.000000 482.000000,1590.000000 447.796882,1590.000000 335.599561,1575.088967 304.000000,1562.000000 Z M272.000000,1442.000000 C261.145453,1415.794806 219.145453,1433.794806 230.000000,1460.000000 243.258998,1492.010052 287.989948,1498.741002 320.000000,1512.000000 336.582541,1518.868713 427.417459,1527.131287 444.000000,1534.000000 448.982420,1536.063786 481.017580,1533.936214 486.000000,1536.000000 507.809255,1545.033689 568.190745,1543.033689 590.000000,1534.000000 635.682810,1515.077560 753.077560,1521.682810 772.000000,1476.000000 779.810486,1457.143819 760.856181,1438.189514 742.000000,1446.000000 739.424538,1447.066791 728.575462,1456.933209 726.000000,1458.000000 627.186184,1498.930023 392.813816,1496.930023 294.000000,1456.000000 288.047556,1453.534417 274.465583,1447.952444 272.000000,1442.000000 Z M1850.000000,1394.000000 C1845.457134,1383.032552 1850.542866,1375.032552 1846.000000,1386.000000 1825.974033,1434.346961 1780.025967,1681.653039 1760.000000,1730.000000 1739.216881,1780.174887 1762.504518,1837.498300 1812.000000,1858.000000 1883.169186,1887.479242 1966.076859,1813.783533 1938.000000,1746.000000 1917.508313,1696.528691 1870.491687,1443.471309 1850.000000,1394.000000 Z M1336.000000,1168.000000 C1333.649436,1162.325237 1336.350564,1160.325237 1334.000000,1166.000000 1316.717457,1207.723749 1281.282543,1424.276251 1264.000000,1466.000000 1247.870071,1504.941093 1212.129929,1705.058907 1196.000000,1744.000000 1189.124526,1760.598863 1189.124526,1803.401137 1196.000000,1820.000000 1205.969678,1844.068933 1231.931067,1894.030322 1256.000000,1904.000000 1270.884372,1910.165309 1285.115628,1917.834691 1300.000000,1924.000000 1336.150866,1938.974179 1379.849134,1920.974179 1416.000000,1906.000000 1468.497896,1884.254660 1501.745340,1800.497896 1480.000000,1748.000000 1446.271026,1666.571053 1369.728974,1249.428947 1336.000000,1168.000000 Z M816.000000,1160.000000 C760.519179,1137.019092 546.052008,1136.000000 486.000000,1136.000000 394.258818,1136.000000 298.757800,1142.892170 214.000000,1178.000000 144.084391,1206.959994 115.040006,1260.084391 144.000000,1330.000000 164.561786,1379.640543 282.359457,1395.438214 332.000000,1416.000000 347.655230,1422.484609 432.344770,1431.515391 448.000000,1438.000000 472.869181,1448.301152 571.081792,1440.000000 598.000000,1440.000000 630.447217,1440.000000 744.022681,1434.417012 774.000000,1422.000000 790.695376,1415.084549 829.084549,1400.695376 836.000000,1384.000000 854.921975,1338.318310 837.681690,1302.921975 792.000000,1284.000000 750.074387,1266.633843 595.379956,1254.000000 550.000000,1254.000000 469.861231,1254.000000 386.038568,1257.332221 312.000000,1288.000000 280.527279,1301.036428 254.527279,1326.963572 286.000000,1340.000000 305.125470,1347.922029 342.874530,1325.922029 362.000000,1318.000000 429.977558,1289.842774 508.421622,1300.000000 582.000000,1300.000000 617.012984,1300.000000 735.652221,1310.601111 768.000000,1324.000000 866.335573,1364.731928 714.437657,1394.000000 608.000000,1394.000000 582.098095,1394.000000 485.930240,1403.912230 462.000000,1394.000000 442.497954,1385.921988 337.502046,1374.078012 318.000000,1366.000000 281.822569,1351.014818 196.985182,1340.177431 182.000000,1304.000000 165.314355,1263.717289 191.717289,1236.685645 232.000000,1220.000000 322.153897,1182.657033 424.418126,1180.000000 522.000000,1180.000000 556.579287,1180.000000 686.052905,1176.767080 718.000000,1190.000000 730.270223,1195.082493 797.729777,1200.917507 810.000000,1206.000000 843.610171,1219.921788 876.078212,1243.610171 890.000000,1210.000000 904.497484,1174.999978 851.000022,1174.497484 816.000000,1160.000000 Z M1568.000000,1074.000000 C1564.636557,1065.879929 1569.363443,1067.879929 1566.000000,1076.000000 1547.528533,1120.594065 1500.471467,1345.405935 1482.000000,1390.000000 1455.047122,1455.070004 1527.272277,1533.982673 1590.000000,1508.000000 1673.063542,1473.593954 1664.406046,1399.063542 1630.000000,1316.000000 1615.858878,1281.860311 1582.141122,1108.139689 1568.000000,1074.000000 Z M1730.000000,664.000000 C1726.311752,655.095783 1729.688248,651.095783 1726.000000,660.000000 1720.877078,672.367827 1709.122922,735.632173 1704.000000,748.000000 1700.883728,755.523347 1705.523347,765.116272 1698.000000,762.000000 1683.785315,756.112085 1614.214685,737.887915 1600.000000,732.000000 1594.124238,729.566180 1593.502887,729.502887 1598.000000,734.000000 1607.038733,743.038733 1662.961267,794.961267 1672.000000,804.000000 1674.666667,806.666667 1674.666667,807.333333 1672.000000,810.000000 1662.718356,819.281644 1605.281644,872.718356 1596.000000,882.000000 1589.395214,888.604786 1603.370432,881.574484 1612.000000,878.000000 1623.810311,873.108009 1682.189689,858.891991 1694.000000,854.000000 1706.156197,848.964738 1700.964738,863.843803 1706.000000,876.000000 1709.161240,883.631909 1716.838760,922.368091 1720.000000,930.000000 1727.518626,948.151569 1720.481374,970.151569 1728.000000,952.000000 1732.092727,942.119284 1741.907273,891.880716 1746.000000,882.000000 1751.943121,867.652036 1745.652036,848.056879 1760.000000,854.000000 1768.918409,857.694126 1813.081591,868.305874 1822.000000,872.000000 1847.291083,882.475910 1869.356957,895.356957 1850.000000,876.000000 1842.930762,868.930762 1799.069238,827.069238 1792.000000,820.000000 1786.334619,814.334619 1774.334619,811.665381 1780.000000,806.000000 1793.099739,792.900261 1840.884366,739.089528 1858.000000,732.000000 1861.193240,730.677317 1861.193240,728.677317 1858.000000,730.000000 1843.147938,736.151925 1770.852062,755.848075 1756.000000,762.000000 1749.122392,764.848799 1752.848799,756.877608 1750.000000,750.000000 1745.048149,738.045173 1734.951851,675.954827 1730.000000,664.000000 Z M1882.000000,204.000000 C1879.120366,197.047948 1882.879634,191.047948 1880.000000,198.000000 1874.116528,212.203959 1861.883472,285.796041 1856.000000,300.000000 1853.454741,306.144800 1846.144800,300.545259 1840.000000,298.000000 1827.306752,292.742284 1764.693248,277.257716 1752.000000,272.000000 1747.845209,270.279029 1746.820061,268.820061 1750.000000,272.000000 1759.281644,281.281644 1816.718356,334.718356 1826.000000,344.000000 1828.666667,346.666667 1828.666667,347.333333 1826.000000,350.000000 1817.204188,358.795812 1762.795812,409.204188 1754.000000,418.000000 1749.523510,422.476490 1744.151183,424.422659 1750.000000,422.000000 1763.819160,416.275917 1832.180840,399.724083 1846.000000,394.000000 1849.920424,392.376107 1854.376107,390.079576 1856.000000,394.000000 1861.883472,408.203959 1874.116528,481.796041 1880.000000,496.000000 1881.242551,498.999783 1878.757449,500.999783 1880.000000,498.000000 1885.588642,484.507825 1898.411358,415.492175 1904.000000,402.000000 1906.574529,395.784537 1903.784537,389.425471 1910.000000,392.000000 1921.810311,396.891991 1980.189689,411.108009 1992.000000,416.000000 2002.984635,420.549985 2018.407275,428.407275 2010.000000,420.000000 1997.574874,407.574874 1952.234210,358.724430 1936.000000,352.000000 1921.462497,345.978369 1946.873477,333.126523 1958.000000,322.000000 1966.731642,313.268358 1998.591560,278.725530 2010.000000,274.000000 2012.837816,272.824538 2012.837816,268.824538 2010.000000,270.000000 1996.912472,275.421032 1933.087528,292.578968 1920.000000,298.000000 1913.350583,300.754279 1906.754279,304.649417 1904.000000,298.000000 1898.582330,284.920588 1887.417670,217.079412 1882.000000,204.000000 Z M1344.000000,48.000000 C1340.636557,39.879929 1345.363443,37.879929 1342.000000,46.000000 1330.233055,74.407918 1305.766945,221.592082 1294.000000,250.000000 1290.788753,257.752635 1285.752635,255.211247 1278.000000,252.000000 1249.235955,240.085542 1106.764045,205.914458 1078.000000,194.000000 1073.447715,192.114382 1095.333333,211.333333 1098.000000,214.000000 1115.129782,231.129782 1220.870218,326.870218 1238.000000,344.000000 1240.666667,346.666667 1240.666667,345.333333 1238.000000,348.000000 1197.654272,388.345728 1154.345728,425.654272 1114.000000,466.000000 1100.599355,479.400645 1062.491213,507.252377 1080.000000,500.000000 1109.161119,487.921069 1252.838881,452.078931 1282.000000,440.000000 1287.948326,437.536123 1291.536123,438.051674 1294.000000,444.000000 1305.301145,471.283379 1328.698855,612.716621 1340.000000,640.000000 1345.289149,652.769136 1338.710851,658.769136 1344.000000,646.000000 1355.766945,617.592082 1380.233055,470.407918 1392.000000,442.000000 1395.061467,434.608964 1408.608964,438.938533 1416.000000,442.000000 1441.537528,452.577990 1566.462472,485.422010 1592.000000,496.000000 1596.355210,497.803987 1609.333333,501.333333 1606.000000,498.000000 1588.165452,480.165452 1477.834548,377.834548 1460.000000,360.000000 1453.787740,353.787740 1441.787740,350.212260 1448.000000,344.000000 1467.317010,324.682990 1586.682990,215.317010 1606.000000,196.000000 1608.666667,193.333333 1608.666667,194.000000 1606.000000,194.000000 1597.998709,194.000000 1575.392229,202.938038 1568.000000,206.000000 1545.748646,215.216813 1436.251354,242.783187 1414.000000,252.000000 1407.224883,254.806345 1394.806345,258.775117 1392.000000,252.000000 1380.233055,223.592082 1355.766945,76.407918 1344.000000,48.000000 Z "/></g>
</svg>