<?xml version="1.0" encoding="UTF-8"?>
<!DOCTYPE svg PUBLIC "-//W3C//DTD SVG 1.1 Tiny//EN" "http://www.w3.org/Graphics/SVG/1.1/DTD/svg11-tiny.dtd">
<svg version="1.1" width="2048" height="2048" viewBox="0 0 2048 2048" xmlns="http://www.w3.org/2000/svg">
<g fill="black">
<path d="M456.000000,1882.000000 C437.405866,1874.298058 419.860611,1894.349778 428.000000,1914.000000 435.399112,1931.863037 464.665188,1936.000000 484.000000,1936.000000 511.711154,1936.000000 559.395400,1939.601768 570.000000,1914.000000 579.282060,1891.591124 560.408876,1874.717940 538.000000,1884.000000 512.739783,1894.463125 481.260217,1892.463125 456.000000,1882.000000 Z M430.000000,1778.000000 C408.329941,1769.023968 388.976032,1758.329941 380.000000,1780.000000 370.186471,1803.691956 394.308044,1810.186471 418.000000,1820.000000 460.842726,1837.746038 561.157274,1829.746038 604.000000,1812.000000 628.097089,1802.018659 622.097089,1775.981341 598.000000,1766.000000 591.878350,1763.464329 580.121650,1773.464329 574.000000,1776.000000 542.035628,1789.240076 461.964372,1791.240076 430.000000,1778.000000 Z M370.000000,1670.000000 C335.059741,1655.527271 317.059741,1697.527271 352.000000,1712.000000 410.842371,1736.373308 561.157629,1742.373308 620.000000,1718.000000 631.306782,1713.316577 647.316577,1711.306782 652.000000,1700.000000 661.372583,1677.372583 642.627417,1658.627417 620.000000,1668.000000 564.001963,1691.195146 425.998037,1693.195146 370.000000,1670.000000 Z M304.000000,1562.000000 C289.016168,1555.793494 278.206506,1559.016168 272.000000,1574.000000 262.884626,1596.006458 283.993542,1600.884626 306.000000,1610.000000 338.607329,1623.506398 456.706082,1636.000000 492.000000,1636.000000 521.509279,1636.000000 628.736981,1635.292712 656.000000,1624.000000 671.906940,1617.411130 709.411130,1613.906940 716.000000,1598.000000 732.888745,1557.226963 684.773037,1563.111255 644.000000,1580.000000 617.338509,1591.043551 510.858190,1590.000000 482.000000,1590.000000 447.796882,1590.000000 335.599561,1575.088967 304.000000,1562.000000 Z M172.000000,1592.000000 C170.633309,1588.700516 177.156534,1542.379453 174.000000,1550.000000 150.000478,1607.939972 158.060028,1662.000478 216.000000,1686.000000 223.004422,1688.901327 235.384615,1692.615385 236.000000,1692.000000 245.192842,1682.807158 221.192842,1679.192842 212.000000,1670.000000 185.894737,1643.894737 183.181809,1618.995276 172.000000,1592.000000 Z M1406.000000,1504.000000 C1401.693296,1504.000000 1404.351896,1508.021124 1406.000000,1512.000000 1415.582659,1535.134586 1438.417341,1652.865414 1448.000000,1676.000000 1450.488984,1682.008938 1447.495972,1694.000000 1454.000000,1694.000000 1524.507149,1694.000000 1653.018082,1713.140112 1680.000000,1648.000000 1691.251442,1620.836615 1697.251442,1587.163385 1686.000000,1560.000000 1652.267183,1478.561775 1494.148100,1504.000000 1406.000000,1504.000000 Z M1146.000000,1504.000000 C1117.461991,1504.000000 1010.365683,1501.078977 984.000000,1512.000000 909.333333,1542.927946 909.333333,1655.072054 984.000000,1686.000000 1019.193761,1700.577733 1059.906548,1694.000000 1098.000000,1694.000000 1103.103971,1694.000000 1100.046795,1684.715454 1102.000000,1680.000000 1111.850410,1656.219006 1136.149590,1535.780994 1146.000000,1512.000000 1147.648104,1508.021124 1150.306704,1504.000000 1146.000000,1504.000000 Z M272.000000,1442.000000 C261.145453,1415.794806 219.145453,1433.794806 230.000000,1460.000000 243.258998,1492.010052 287.989948,1498.741002 320.000000,1512.000000 336.582541,1518.868713 427.417459,1527.131287 444.000000,1534.000000 448.982420,1536.063786 481.017580,1533.936214 486.000000,1536.000000 507.809255,1545.033689 568.190745,1543.033689 590.000000,1534.000000 635.682810,1515.077560 753.077560,1521.682810 772.000000,1476.000000 779.810486,1457.143819 760.856181,1438.189514 742.000000,1446.000000 739.424538,1447.066791 728.575462,1456.933209 726.000000,1458.000000 627.186184,1498.930023 392.813816,1496.930023 294.000000,1456.000000 288.047556,1453.534417 274.465583,1447.952444 272.000000,1442.000000 Z M1278.000000,1408.000000 C1274.636557,1399.879929 1279.363443,1401.879929 1276.000000,1410.000000 1257.528533,1454.594065 1210.471467,1679.405935 1192.000000,1724.000000 1165.047122,1789.070004 1237.272277,1867.982673 1300.000000,1842.000000 1383.063542,1807.593954 1374.406046,1733.063542 1340.000000,1650.000000 1325.858878,1615.860311 1292.141122,1442.139689 1278.000000,1408.000000 Z M1850.000000,1394.000000 C1845.457134,1383.032552 1850.542866,1375.032552 1846.000000,1386.000000 1825.974033,1434.346961 1780.025967,1681.653039 1760.000000,1730.000000 1739.216881,1780.174887 1762.504518,1837.498300 1812.000000,1858.000000 1883.169186,1887.479242 1966.076859,1813.783533 1938.000000,1746.000000 1917.508313,1696.528691 1870.491687,1443.471309 1850.000000,1394.000000 Z M816.000000,1160.000000 C760.519179,1137.019092 546.052008,1136.000000 486.000000,1136.000000 394.258818,1136.000000 298.757800,1142.892170 214.000000,1178.000000 144.084391,1206.959994 115.040006,1260.084391 144.000000,1330.000000 164.561786,1379.640543 282.359457,1395.438214 332.000000,1416.000000 347.655230,1422.484609 432.344770,1431.515391 448.000000,1438.000000 472.869181,1448.301152 571.081792,1440.000000 598.000000,1440.000000 630.447217,1440.000000 744.022681,1434.417012 774.000000,1422.000000 790.695376,1415.084549 829.084549,1400.695376 836.000000,1384.000000 854.921975,1338.318310 837.681690,1302.921975 792.000000,1284.000000 750.074387,1266.633843 595.379956,1254.000000 550.000000,1254.000000 469.861231,1254.000000 386.038568,1257.332221 312.000000,1288.000000 280.527279,1301.036428 254.527279,1326.963572 286.000000,1340.000000 305.125470,1347.922029 342.874530,1325.922029 362.000000,1318.000000 429.977558,1289.842774 508.421622,1300.000000 582.000000,1300.000000 617.012984,1300.000000 735.652221,1310.601111 768.000000,1324.000000 866.335573,1364.731928 714.437657,1394.000000 608.000000,1394.000000 582.098095,1394.000000 485.930240,1403.912230 462.000000,1394.000000 442.497954,1385.921988 337.502046,1374.078012 318.000000,1366.000000 281.822569,1351.014818 196.985182,1340.177431 182.000000,1304.000000 165.314355,1263.717289 191.717289,1236.685645 232.000000,1220.000000 322.153897,1182.657033 424.418126,1180.000000 522.000000,1180.000000 556.579287,1180.000000 686.052905,1176.767080 718.000000,1190.000000 730.270223,1195.082493 797.729777,1200.917507 810.000000,1206.000000 843.610171,1219.921788 876.078212,1243.610171 890.000000,1210.000000 904.497484,1174.999978 851.000022,1174.497484 816.000000,1160.000000 Z M954.000000,1120.000000 C951.333333,1120.000000 971.896564,1142.921856 974.000000,1148.000000 981.762536,1166.740421 991.762536,1211.259579 984.000000,1230.000000 976.347851,1248.473921 958.473921,1288.347851 940.000000,1296.000000 932.448216,1299.128051 931.826008,1310.000000 940.000000,1310.000000 1033.333333,1310.000000 1126.666667,1310.000000 1220.000000,1310.000000 1284.398010,1310.000000 1327.994668,1238.756680 1302.000000,1176.000000 1289.687903,1146.275969 1252.173059,1120.000000 1220.000000,1120.000000 1131.333333,1120.000000 1042.666667,1120.000000 954.000000,1120.000000 Z M826.000000,736.000000 C793.826941,736.000000 756.312097,762.275969 744.000000,792.000000 718.005332,854.756680 761.601990,926.000000 826.000000,926.000000 1149.333333,926.000000 1472.666667,926.000000 1796.000000,926.000000 1834.944009,926.000000 1869.096773,887.979573 1884.000000,852.000000 1891.333675,834.294942 1877.333675,795.705058 1870.000000,778.000000 1859.782322,753.332343 1844.879807,783.120193 1826.000000,802.000000 1789.387919,838.612081 1745.835989,870.185685 1698.000000,890.000000 1563.417672,945.745825 1369.004854,927.004854 1266.000000,824.000000 1251.570905,809.570905 1197.808970,756.852521 1190.000000,738.000000 1189.639203,737.128958 1190.666667,736.000000 1188.000000,736.000000 1067.333333,736.000000 946.666667,736.000000 826.000000,736.000000 Z M250.000000,736.000000 C185.601990,736.000000 142.005332,807.243320 168.000000,870.000000 180.312097,899.724031 217.826941,926.000000 250.000000,926.000000 290.976077,926.000000 448.143041,933.680866 486.000000,918.000000 577.797739,879.976132 550.901099,736.000000 452.000000,736.000000 384.666667,736.000000 317.333333,736.000000 250.000000,736.000000 Z M1796.000000,352.000000 C1755.023923,352.000000 1597.856959,344.319134 1560.000000,360.000000 1528.709098,372.961116 1529.038884,428.709098 1542.000000,460.000000 1549.564154,478.261482 1563.738518,518.435846 1582.000000,526.000000 1586.366405,527.808624 1597.273838,542.000000 1602.000000,542.000000 1658.000000,542.000000 1714.000000,542.000000 1770.000000,542.000000 1774.607516,542.000000 1785.743211,531.763220 1790.000000,530.000000 1811.513150,521.088962 1841.534548,530.465452 1858.000000,514.000000 1916.404762,455.595238 1876.757202,352.000000 1796.000000,352.000000 Z M250.000000,352.000000 C217.826941,352.000000 180.312097,378.275969 168.000000,408.000000 142.005332,470.756680 185.601990,542.000000 250.000000,542.000000 509.333333,542.000000 768.666667,542.000000 1028.000000,542.000000 1092.398010,542.000000 1135.994668,470.756680 1110.000000,408.000000 1097.687903,378.275969 1060.173059,352.000000 1028.000000,352.000000 768.666667,352.000000 509.333333,352.000000 250.000000,352.000000 Z M1558.000000,198.000000 C1516.935901,180.990693 1425.064099,216.990693 1384.000000,234.000000 1334.593032,254.465036 1262.465036,344.593032 1242.000000,394.000000 1177.908037,548.731686 1253.967909,737.026246 1406.000000,800.000000 1455.919901,820.677500 1511.967088,826.000000 1566.000000,826.000000 1676.206000,826.000000 1787.825990,723.817068 1830.000000,622.000000 1831.447085,618.506428 1797.692519,641.985227 1788.000000,646.000000 1723.620972,672.666667 1650.379028,672.666667 1586.000000,646.000000 1535.924868,625.258201 1482.741799,572.075132 1462.000000,522.000000 1435.333333,457.620972 1435.333333,384.379028 1462.000000,320.000000 1477.902419,281.608165 1539.608165,215.902419 1578.000000,200.000000 1586.463176,196.494438 1566.463176,201.505562 1558.000000,198.000000 Z "/></g>
</svg>