<?xml version="1.0" encoding="UTF-8"?>
<!DOCTYPE svg PUBLIC "-//W3C//DTD SVG 1.1 Tiny//EN" "http://www.w3.org/Graphics/SVG/1.1/DTD/svg11-tiny.dtd">
<svg version="1.1" width="2048" height="2048" viewBox="0 0 2048 2048" xmlns="http://www.w3.org/2000/svg">
<g fill="black">
<path d="M456.000000,1882.000000 C437.405866,1874.298058 419.860611,1894.349778 428.000000,1914.000000 435.399112,1931.863037 464.665188,1936.000000 484.000000,1936.000000 511.711154,1936.000000 559.395400,1939.601768 570.000000,1914.000000 579.282060,1891.591124 560.408876,1874.717940 538.000000,1884.000000 512.739783,1894.463125 481.260217,1892.463125 456.000000,1882.000000 Z M430.000000,1778.000000 C408.329941,1769.023968 388.976032,1758.329941 380.000000,1780.000000 370.186471,1803.691956 394.308044,1810.186471 418.000000,1820.000000 460.842726,1837.746038 561.157274,1829.746038 604.000000,1812.000000 628.097089,1802.018659 622.097089,1775.981341 598.000000,1766.000000 591.878350,1763.464329 580.121650,1773.464329 574.000000,1776.000000 542.035628,1789.240076 461.964372,1791.240076 430.000000,1778.000000 Z M370.000000,1670.000000 C335.059741,1655.527271 317.059741,1697.527271 352.000000,1712.000000 410.842371,1736.373308 561.157629,1742.373308 620.000000,1718.000000 631.306782,1713.316577 647.316577,1711.306782 652.000000,1700.000000 661.372583,1677.372583 642.627417,1658.627417 620.000000,1668.000000 564.001963,1691.195146 425.998037,1693.195146 370.000000,1670.000000 Z M304.000000,1562.000000 C289.016168,1555.793494 278.206506,1559.016168 272.000000,1574.000000 262.884626,1596.006458 283.993542,1600.884626 306.000000,1610.000000 338.607329,1623.506398 456.706082,1636.000000 492.000000,1636.000000 521.509279,1636.000000 628.736981,1635.292712 656.000000,1624.000000 671.906940,1617.411130 709.411130,1613.906940 716.000000,1598.000000 732.888745,1557.226963 684.773037,1563.111255 644.000000,1580.000000 617.338509,1591.043551 510.858190,1590.000000 482.000000,1590.000000 447.796882,1590.000000 335.599561,1575.088967 304.000000,1562.000000 Z M172.000000,1592.000000 C170.633309,1588.700516 177.156534,1542.379453 174.000000,1550.000000 150.000478,1607.939972 158.060028,1662.000478 216.000000,1686.000000 223.004422,1688.901327 235.384615,1692.615385 236.000000,1692.000000 245.192842,1682.807158 221.192842,1679.192842 212.000000,1670.000000 185.894737,1643.894737 183.181809,1618.995276 172.000000,1592.000000 Z M1004.000000,1510.000000 C1001.436053,1503.810084 990.189916,1509.436053 984.000000,1512.000000 909.333333,1542.927946 909.333333,1655.072054 984.000000,1686.000000 989.678499,1688.352111 1004.352111,1695.678499 1002.000000,1690.000000 986.435449,1652.423851 984.435449,1605.576149 1000.000000,1568.000000 1001.991265,1563.192660 1018.008735,1542.807340 1020.000000,1538.000000 1023.094409,1530.529435 1007.094409,1517.470565 1004.000000,1510.000000 Z M272.000000,1442.000000 C261.145453,1415.794806 219.145453,1433.794806 230.000000,1460.000000 243.258998,1492.010052 287.989948,1498.741002 320.000000,1512.000000 336.582541,1518.868713 427.417459,1527.131287 444.000000,1534.000000 448.982420,1536.063786 481.017580,1533.936214 486.000000,1536.000000 507.809255,1545.033689 568.190745,1543.033689 590.000000,1534.000000 635.682810,1515.077560 753.077560,1521.682810 772.000000,1476.000000 779.810486,1457.143819 760.856181,1438.189514 742.000000,1446.000000 739.424538,1447.066791 728.575462,1456.933209 726.000000,1458.000000 627.186184,1498.930023 392.813816,1496.930023 294.000000,1456.000000 288.047556,1453.534417 274.465583,1447.952444 272.000000,1442.000000 Z M816.000000,1160.000000 C760.519179,1137.019092 546.052008,1136.000000 486.000000,1136.000000 394.258818,1136.000000 298.757800,1142.892170 214.000000,1178.000000 144.084391,1206.959994 115.040006,1260.084391 144.000000,1330.000000 164.561786,1379.640543 282.359457,1395.438214 332.000000,1416.000000 347.655230,1422.484609 432.344770,1431.515391 448.000000,1438.000000 472.869181,1448.301152 571.081792,1440.000000 598.000000,1440.000000 630.447217,1440.000000 744.022681,1434.417012 774.000000,1422.000000 790.695376,1415.084549 829.084549,1400.695376 836.000000,1384.000000 854.921975,1338.318310 837.681690,1302.921975 792.000000,1284.000000 750.074387,1266.633843 595.379956,1254.000000 550.000000,1254.000000 469.861231,1254.000000 386.038568,1257.332221 312.000000,1288.000000 280.527279,1301.036428 254.527279,1326.963572 286.000000,1340.000000 305.125470,1347.922029 342.874530,1325.922029 362.000000,1318.000000 429.977558,1289.842774 508.421622,1300.000000 582.000000,1300.000000 617.012984,1300.000000 735.652221,1310.601111 768.000000,1324.000000 866.335573,1364.731928 714.437657,1394.000000 608.000000,1394.000000 582.098095,1394.000000 485.930240,1403.912230 462.000000,1394.000000 442.497954,1385.921988 337.502046,1374.078012 318.000000,1366.000000 281.822569,1351.014818 196.985182,1340.177431 182.000000,1304.000000 165.314355,1263.717289 191.717289,1236.685645 232.000000,1220.000000 322.153897,1182.657033 424.418126,1180.000000 522.000000,1180.000000 556.579287,1180.000000 686.052905,1176.767080 718.000000,1190.000000 730.270223,1195.082493 797.729777,1200.917507 810.000000,1206.000000 843.610171,1219.921788 876.078212,1243.610171 890.000000,1210.000000 904.497484,1174.999978 851.000022,1174.497484 816.000000,1160.000000 Z M954.000000,1120.000000 C951.333333,1120.000000 971.896564,1142.921856 974.000000,1148.000000 981.762536,1166.740421 991.762536,1211.259579 984.000000,1230.000000 976.347851,1248.473921 958.473921,1288.347851 940.000000,1296.000000 933.633959,1298.636901 931.633959,1307.363099 938.000000,1310.000000 943.870953,1312.431829 988.000000,1310.666667 988.000000,1308.000000 988.000000,1241.575758 1019.550187,1191.382278 1076.000000,1168.000000 1079.528024,1166.538645 1096.471976,1161.461355 1100.000000,1160.000000 1107.156429,1157.035710 1127.035710,1163.156429 1130.000000,1156.000000 1132.635451,1149.637459 1162.666667,1120.000000 1160.000000,1120.000000 1091.333333,1120.000000 1022.666667,1120.000000 954.000000,1120.000000 Z M1580.000000,1052.000000 C1564.536027,1014.666667 1507.463973,1014.666667 1492.000000,1052.000000 1487.876679,1061.954577 1489.915022,1127.278509 1482.000000,1124.000000 1463.812110,1116.466329 1448.187890,1103.533671 1430.000000,1096.000000 1391.784343,1080.170556 1353.533537,1122.246442 1370.000000,1162.000000 1377.262541,1179.533325 1412.466675,1198.737459 1430.000000,1206.000000 1436.695810,1208.773495 1465.304190,1229.226505 1472.000000,1232.000000 1477.991954,1234.481949 1488.000000,1237.514356 1488.000000,1244.000000 1488.000000,1311.333333 1488.000000,1378.666667 1488.000000,1446.000000 1488.000000,1453.087184 1482.547704,1446.712148 1476.000000,1444.000000 1449.749204,1433.126564 1336.250796,1360.873436 1310.000000,1350.000000 1305.447715,1348.114382 1302.000000,1344.666667 1302.000000,1342.000000 1302.000000,1293.149370 1317.132097,1206.694327 1272.000000,1188.000000 1241.204734,1175.244183 1218.755817,1195.204734 1206.000000,1226.000000 1197.280355,1247.051085 1223.051085,1294.719645 1202.000000,1286.000000 1174.147079,1274.462942 1143.852921,1246.462942 1116.000000,1258.000000 1053.214924,1284.006430 1089.214924,1343.993570 1152.000000,1370.000000 1161.595496,1373.974584 1149.595496,1378.025416 1140.000000,1382.000000 1103.179711,1397.251463 1072.748537,1423.179711 1088.000000,1460.000000 1116.061275,1527.745910 1176.254090,1464.061275 1244.000000,1436.000000 1248.131715,1434.288588 1251.868285,1428.288588 1256.000000,1430.000000 1283.270302,1441.295729 1400.729698,1518.704271 1428.000000,1530.000000 1435.243444,1533.000333 1441.243444,1534.999667 1434.000000,1538.000000 1405.765204,1549.695235 1284.234796,1630.304765 1256.000000,1642.000000 1253.779270,1642.919856 1252.220730,1638.919856 1250.000000,1638.000000 1181.515562,1609.632817 1118.367183,1539.515562 1090.000000,1608.000000 1071.694668,1652.192982 1109.807018,1677.694668 1154.000000,1696.000000 1161.022565,1698.908842 1143.022565,1707.091158 1136.000000,1710.000000 1122.170760,1715.728259 1095.728259,1734.170760 1090.000000,1748.000000 1073.533537,1787.753558 1111.784343,1829.829444 1150.000000,1814.000000 1157.554939,1810.870642 1190.445061,1791.129358 1198.000000,1788.000000 1203.958288,1785.531996 1208.000000,1779.550796 1208.000000,1786.000000 1208.000000,1798.091944 1205.372613,1844.828500 1210.000000,1856.000000 1226.251762,1895.235224 1284.044696,1896.519512 1300.000000,1858.000000 1308.611934,1837.208951 1304.000000,1750.504069 1304.000000,1728.000000 1304.000000,1724.441145 1308.712046,1723.361915 1312.000000,1722.000000 1338.931109,1710.844769 1455.068891,1635.155231 1482.000000,1624.000000 1483.847759,1623.234633 1488.000000,1618.666667 1488.000000,1624.000000 1488.000000,1692.000000 1488.000000,1760.000000 1488.000000,1828.000000 1488.000000,1834.485644 1477.991954,1837.518051 1472.000000,1840.000000 1463.713911,1843.432210 1428.286089,1868.567790 1420.000000,1872.000000 1405.166197,1878.144362 1376.144362,1895.166197 1370.000000,1910.000000 1353.533537,1949.753558 1391.784343,1991.829444 1430.000000,1976.000000 1448.187890,1968.466329 1463.812110,1955.533671 1482.000000,1948.000000 1489.915022,1944.721491 1487.876679,2010.045423 1492.000000,2020.000000 1506.359403,2054.666667 1565.640597,2054.666667 1580.000000,2020.000000 1584.123321,2010.045423 1582.084978,1944.721491 1590.000000,1948.000000 1608.187890,1955.533671 1623.812110,1968.466329 1642.000000,1976.000000 1680.215657,1991.829444 1718.466463,1949.753558 1702.000000,1910.000000 1695.855638,1895.166197 1666.833803,1878.144362 1652.000000,1872.000000 1643.713911,1868.567790 1608.286089,1843.432210 1600.000000,1840.000000 1594.008046,1837.518051 1584.000000,1834.485644 1584.000000,1828.000000 1584.000000,1760.000000 1584.000000,1692.000000 1584.000000,1624.000000 1584.000000,1617.550796 1588.041712,1623.531996 1594.000000,1626.000000 1620.250796,1636.873436 1733.749204,1709.126564 1760.000000,1720.000000 1764.552285,1721.885618 1768.000000,1725.333333 1768.000000,1728.000000 1768.000000,1776.850630 1752.867903,1863.305673 1798.000000,1882.000000 1828.795266,1894.755817 1851.244183,1874.795266 1864.000000,1844.000000 1872.719645,1822.948915 1846.948915,1775.280355 1868.000000,1784.000000 1895.852921,1795.537058 1926.147079,1823.537058 1954.000000,1812.000000 1991.981766,1796.267438 1995.895341,1738.868337 1960.000000,1724.000000 1928.637734,1711.009324 1898.637734,1700.990676 1930.000000,1688.000000 1966.820289,1672.748537 1997.251463,1646.820289 1982.000000,1610.000000 1952.465827,1538.698198 1889.301802,1610.465827 1818.000000,1640.000000 1814.414284,1641.485252 1807.585716,1635.485252 1804.000000,1634.000000 1777.694420,1623.103872 1664.305580,1548.896128 1638.000000,1538.000000 1631.902706,1535.474418 1645.902706,1526.525582 1652.000000,1524.000000 1677.965983,1513.244538 1790.034017,1440.755462 1816.000000,1430.000000 1818.220730,1429.080144 1819.779270,1433.080144 1822.000000,1434.000000 1890.484438,1462.367183 1953.632817,1532.484438 1982.000000,1464.000000 2000.305332,1419.807018 1962.192982,1394.305332 1918.000000,1376.000000 1910.977435,1373.091158 1928.977435,1364.908842 1936.000000,1362.000000 1949.829240,1356.271741 1976.271741,1337.829240 1982.000000,1324.000000 1998.466463,1284.246442 1960.215657,1242.170556 1922.000000,1258.000000 1914.445061,1261.129358 1881.554939,1280.870642 1874.000000,1284.000000 1868.041712,1286.468004 1864.000000,1292.449204 1864.000000,1286.000000 1864.000000,1273.908056 1866.627387,1227.171500 1862.000000,1216.000000 1845.748238,1176.764776 1787.955304,1175.480488 1772.000000,1214.000000 1758.903645,1245.617397 1787.617397,1340.903645 1756.000000,1354.000000 1729.749204,1364.873436 1616.250796,1437.126564 1590.000000,1448.000000 1588.152241,1448.765367 1584.000000,1453.333333 1584.000000,1448.000000 1584.000000,1380.000000 1584.000000,1312.000000 1584.000000,1244.000000 1584.000000,1237.514356 1594.008046,1234.481949 1600.000000,1232.000000 1606.695810,1229.226505 1635.304190,1208.773495 1642.000000,1206.000000 1659.533325,1198.737459 1694.737459,1179.533325 1702.000000,1162.000000 1718.466463,1122.246442 1680.215657,1080.170556 1642.000000,1096.000000 1623.812110,1103.533671 1608.187890,1116.466329 1590.000000,1124.000000 1582.084978,1127.278509 1584.123321,1061.954577 1580.000000,1052.000000 Z M826.000000,736.000000 C793.826941,736.000000 756.312097,762.275969 744.000000,792.000000 718.005332,854.756680 761.601990,926.000000 826.000000,926.000000 1052.000000,926.000000 1278.000000,926.000000 1504.000000,926.000000 1507.399346,926.000000 1503.300874,919.140587 1502.000000,916.000000 1487.701767,881.481012 1505.580310,834.419690 1532.000000,808.000000 1537.011099,802.988901 1520.711987,798.547316 1518.000000,792.000000 1515.416664,785.763276 1500.583336,758.236724 1498.000000,752.000000 1495.835743,746.775022 1499.655475,736.000000 1494.000000,736.000000 1456.613134,736.000000 1416.540961,727.692666 1382.000000,742.000000 1357.363212,752.204892 1326.636788,752.204892 1302.000000,742.000000 1299.871605,741.118390 1294.303758,736.000000 1292.000000,736.000000 1136.666667,736.000000 981.333333,736.000000 826.000000,736.000000 Z M250.000000,736.000000 C185.601990,736.000000 142.005332,807.243320 168.000000,870.000000 180.312097,899.724031 217.826941,926.000000 250.000000,926.000000 290.976077,926.000000 448.143041,933.680866 486.000000,918.000000 577.797739,879.976132 550.901099,736.000000 452.000000,736.000000 384.666667,736.000000 317.333333,736.000000 250.000000,736.000000 Z M1730.000000,664.000000 C1726.311752,655.095783 1729.688248,651.095783 1726.000000,660.000000 1720.877078,672.367827 1709.122922,735.632173 1704.000000,748.000000 1700.883728,755.523347 1705.523347,765.116272 1698.000000,762.000000 1683.785315,756.112085 1614.214685,737.887915 1600.000000,732.000000 1594.124238,729.566180 1593.502887,729.502887 1598.000000,734.000000 1607.038733,743.038733 1662.961267,794.961267 1672.000000,804.000000 1674.666667,806.666667 1674.666667,807.333333 1672.000000,810.000000 1662.718356,819.281644 1605.281644,872.718356 1596.000000,882.000000 1589.395214,888.604786 1603.370432,881.574484 1612.000000,878.000000 1623.810311,873.108009 1682.189689,858.891991 1694.000000,854.000000 1706.156197,848.964738 1700.964738,863.843803 1706.000000,876.000000 1709.161240,883.631909 1716.838760,922.368091 1720.000000,930.000000 1727.518626,948.151569 1720.481374,970.151569 1728.000000,952.000000 1732.092727,942.119284 1741.907273,891.880716 1746.000000,882.000000 1751.943121,867.652036 1745.652036,848.056879 1760.000000,854.000000 1768.918409,857.694126 1813.081591,868.305874 1822.000000,872.000000 1847.291083,882.475910 1869.356957,895.356957 1850.000000,876.000000 1842.930762,868.930762 1799.069238,827.069238 1792.000000,820.000000 1786.334619,814.334619 1774.334619,811.665381 1780.000000,806.000000 1793.099739,792.900261 1840.884366,739.089528 1858.000000,732.000000 1861.193240,730.677317 1861.193240,728.677317 1858.000000,730.000000 1843.147938,736.151925 1770.852062,755.848075 1756.000000,762.000000 1749.122392,764.848799 1752.848799,756.877608 1750.000000,750.000000 1745.048149,738.045173 1734.951851,675.954827 1730.000000,664.000000 Z M1708.000000,512.000000 C1695.113391,506.662192 1703.337808,519.113391 1698.000000,532.000000 1696.699126,535.140587 1692.600654,542.000000 1696.000000,542.000000 1727.333333,542.000000 1758.666667,542.000000 1790.000000,542.000000 1793.428571,542.000000 1785.888798,515.610793 1782.000000,514.000000 1777.516037,512.142682 1772.483963,516.142682 1768.000000,518.000000 1754.297006,523.675966 1721.702994,517.675966 1708.000000,512.000000 Z M1594.000000,352.000000 C1591.333333,352.000000 1591.333333,351.333333 1594.000000,354.000000 1602.731642,362.731642 1634.591560,397.274470 1646.000000,402.000000 1650.011774,403.661731 1652.000000,410.342313 1652.000000,406.000000 1652.000000,392.501029 1660.834167,380.471423 1666.000000,368.000000 1669.324895,359.972993 1686.688370,352.000000 1678.000000,352.000000 1650.000000,352.000000 1622.000000,352.000000 1594.000000,352.000000 Z M250.000000,352.000000 C217.826941,352.000000 180.312097,378.275969 168.000000,408.000000 142.005332,470.756680 185.601990,542.000000 250.000000,542.000000 495.333333,542.000000 740.666667,542.000000 986.000000,542.000000 989.399346,542.000000 985.300874,535.140587 984.000000,532.000000 974.812055,509.818338 976.812055,482.181662 986.000000,460.000000 994.557104,439.341324 1056.188534,385.811466 1072.000000,370.000000 1076.055175,365.944825 1063.298341,362.194645 1058.000000,360.000000 1052.304986,357.641048 1034.164239,352.000000 1028.000000,352.000000 768.666667,352.000000 509.333333,352.000000 250.000000,352.000000 Z M1882.000000,204.000000 C1879.120366,197.047948 1882.879634,191.047948 1880.000000,198.000000 1874.116528,212.203959 1861.883472,285.796041 1856.000000,300.000000 1853.454741,306.144800 1846.144800,300.545259 1840.000000,298.000000 1827.306752,292.742284 1764.693248,277.257716 1752.000000,272.000000 1747.845209,270.279029 1746.820061,268.820061 1750.000000,272.000000 1759.281644,281.281644 1816.718356,334.718356 1826.000000,344.000000 1828.666667,346.666667 1828.666667,347.333333 1826.000000,350.000000 1817.204188,358.795812 1762.795812,409.204188 1754.000000,418.000000 1749.523510,422.476490 1744.151183,424.422659 1750.000000,422.000000 1763.819160,416.275917 1832.180840,399.724083 1846.000000,394.000000 1849.920424,392.376107 1854.376107,390.079576 1856.000000,394.000000 1861.883472,408.203959 1874.116528,481.796041 1880.000000,496.000000 1881.242551,498.999783 1878.757449,500.999783 1880.000000,498.000000 1885.588642,484.507825 1898.411358,415.492175 1904.000000,402.000000 1906.574529,395.784537 1903.784537,389.425471 1910.000000,392.000000 1921.810311,396.891991 1980.189689,411.108009 1992.000000,416.000000 2002.984635,420.549985 2018.407275,428.407275 2010.000000,420.000000 1997.574874,407.574874 1952.234210,358.724430 1936.000000,352.000000 1921.462497,345.978369 1946.873477,333.126523 1958.000000,322.000000 1966.731642,313.268358 1998.591560,278.725530 2010.000000,274.000000 2012.837816,272.824538 2012.837816,268.824538 2010.000000,270.000000 1996.912472,275.421032 1933.087528,292.578968 1920.000000,298.000000 1913.350583,300.754279 1906.754279,304.649417 1904.000000,298.000000 1898.582330,284.920588 1887.417670,217.079412 1882.000000,204.000000 Z M1344.000000,48.000000 C1340.636557,39.879929 1345.363443,37.879929 1342.000000,46.000000 1330.233055,74.407918 1305.766945,221.592082 1294.000000,250.000000 1290.788753,257.752635 1285.752635,255.211247 1278.000000,252.000000 1249.235955,240.085542 1106.764045,205.914458 1078.000000,194.000000 1073.447715,192.114382 1095.333333,211.333333 1098.000000,214.000000 1115.129782,231.129782 1220.870218,326.870218 1238.000000,344.000000 1240.666667,346.666667 1240.666667,345.333333 1238.000000,348.000000 1197.654272,388.345728 1154.345728,425.654272 1114.000000,466.000000 1100.599355,479.400645 1062.491213,507.252377 1080.000000,500.000000 1109.161119,487.921069 1252.838881,452.078931 1282.000000,440.000000 1287.948326,437.536123 1291.536123,438.051674 1294.000000,444.000000 1305.301145,471.283379 1328.698855,612.716621 1340.000000,640.000000 1345.289149,652.769136 1338.710851,658.769136 1344.000000,646.000000 1355.766945,617.592082 1380.233055,470.407918 1392.000000,442.000000 1395.061467,434.608964 1408.608964,438.938533 1416.000000,442.000000 1441.537528,452.577990 1566.462472,485.422010 1592.000000,496.000000 1596.355210,497.803987 1609.333333,501.333333 1606.000000,498.000000 1588.165452,480.165452 1477.834548,377.834548 1460.000000,360.000000 1453.787740,353.787740 1441.787740,350.212260 1448.000000,344.000000 1467.317010,324.682990 1586.682990,215.317010 1606.000000,196.000000 1608.666667,193.333333 1608.666667,194.000000 1606.000000,194.000000 1597.998709,194.000000 1575.392229,202.938038 1568.000000,206.000000 1545.748646,215.216813 1436.251354,242.783187 1414.000000,252.000000 1407.224883,254.806345 1394.806345,258.775117 1392.000000,252.000000 1380.233055,223.592082 1355.766945,76.407918 1344.000000,48.000000 Z "/></g>
</svg>