<?xml version="1.0" encoding="UTF-8"?>
<!DOCTYPE svg PUBLIC "-//W3C//DTD SVG 1.1 Tiny//EN" "http://www.w3.org/Graphics/SVG/1.1/DTD/svg11-tiny.dtd">
<svg version="1.1" width="2048" height="2048" viewBox="0 0 2048 2048" xmlns="http://www.w3.org/2000/svg">
<g fill="black">
<path d="M456.000000,1882.000000 C437.405866,1874.298058 419.860611,1894.349778 428.000000,1914.000000 435.106885,1931.157537 462.842463,1926.893115 480.000000,1934.000000 509.280488,1946.128375 559.871625,1939.280488 572.000000,1910.000000 575.502099,1901.545185 544.199601,1881.775187 534.000000,1886.000000 509.947567,1895.962844 480.052433,1891.962844 456.000000,1882.000000 Z M476.000000,1786.000000 C458.550160,1786.000000 408.121550,1761.322235 392.000000,1768.000000 358.798185,1781.752642 384.798185,1806.247358 418.000000,1820.000000 430.865137,1825.328914 476.074876,1832.000000 490.000000,1832.000000 492.666667,1832.000000 478.666667,1786.000000 476.000000,1786.000000 Z M370.000000,1670.000000 C335.059741,1655.527271 317.059741,1697.527271 352.000000,1712.000000 367.702788,1718.504308 456.297212,1723.495692 472.000000,1730.000000 486.807714,1736.133556 502.027754,1684.000000 486.000000,1684.000000 464.302156,1684.000000 390.046194,1678.303405 370.000000,1670.000000 Z M1688.000000,1566.000000 C1683.765636,1555.777340 1678.222660,1571.765636 1668.000000,1576.000000 1635.848048,1589.317774 1602.801022,1606.000000 1568.000000,1606.000000 1565.333333,1606.000000 1568.169275,1654.762907 1566.000000,1660.000000 1561.662921,1670.470635 1554.666667,1694.000000 1566.000000,1694.000000 1606.976958,1694.000000 1664.318797,1685.857773 1680.000000,1648.000000 1688.236528,1628.115263 1696.236528,1585.884737 1688.000000,1566.000000 Z M354.000000,1574.000000 C310.366543,1555.926430 253.926430,1548.366543 272.000000,1592.000000 278.435030,1607.535536 316.464464,1607.564970 332.000000,1614.000000 356.913101,1624.319344 447.034253,1634.000000 474.000000,1634.000000 476.666667,1634.000000 482.524096,1591.045515 480.000000,1590.000000 463.832322,1583.303129 370.167678,1580.696871 354.000000,1574.000000 Z M172.000000,1592.000000 C170.633309,1588.700516 177.156534,1542.379453 174.000000,1550.000000 150.000478,1607.939972 158.060028,1662.000478 216.000000,1686.000000 223.004422,1688.901327 235.384615,1692.615385 236.000000,1692.000000 245.192842,1682.807158 221.192842,1679.192842 212.000000,1670.000000 185.894737,1643.894737 183.181809,1618.995276 172.000000,1592.000000 Z M272.000000,1442.000000 C265.372583,1426.000000 238.627417,1426.000000 232.000000,1442.000000 217.554826,1476.873735 257.126265,1487.554826 292.000000,1502.000000 330.278822,1517.855607 464.567302,1538.000000 506.000000,1538.000000 513.372067,1538.000000 502.821168,1530.810901 500.000000,1524.000000 495.776975,1513.804715 490.223025,1504.195285 486.000000,1494.000000 481.956807,1484.238869 451.761131,1492.043193 442.000000,1488.000000 432.220768,1483.949309 377.779232,1480.050691 368.000000,1476.000000 344.087417,1466.095084 281.904916,1465.912583 272.000000,1442.000000 Z M1850.000000,1394.000000 C1845.457134,1383.032552 1850.542866,1375.032552 1846.000000,1386.000000 1825.974033,1434.346961 1780.025967,1681.653039 1760.000000,1730.000000 1739.216881,1780.174887 1762.504518,1837.498300 1812.000000,1858.000000 1883.169186,1887.479242 1966.076859,1813.783533 1938.000000,1746.000000 1917.508313,1696.528691 1870.491687,1443.471309 1850.000000,1394.000000 Z M478.000000,1270.000000 C482.178555,1259.912075 490.087925,1249.821445 480.000000,1254.000000 470.438690,1257.960424 413.561310,1258.039576 404.000000,1262.000000 388.813145,1268.290601 313.186855,1285.709399 298.000000,1292.000000 273.205356,1302.270278 261.205356,1329.729722 286.000000,1340.000000 300.045130,1345.817683 315.954870,1333.817683 330.000000,1328.000000 346.975460,1320.968534 437.024540,1309.031466 454.000000,1302.000000 459.024838,1299.918644 473.918644,1303.024838 476.000000,1298.000000 477.411311,1294.592793 476.588689,1273.407207 478.000000,1270.000000 Z M1336.000000,1168.000000 C1333.649436,1162.325237 1336.350564,1160.325237 1334.000000,1166.000000 1316.717457,1207.723749 1281.282543,1424.276251 1264.000000,1466.000000 1247.870071,1504.941093 1212.129929,1705.058907 1196.000000,1744.000000 1189.124526,1760.598863 1189.124526,1803.401137 1196.000000,1820.000000 1205.969678,1844.068933 1231.931067,1894.030322 1256.000000,1904.000000 1270.884372,1910.165309 1285.115628,1917.834691 1300.000000,1924.000000 1336.150866,1938.974179 1379.849134,1920.974179 1416.000000,1906.000000 1468.497896,1884.254660 1501.745340,1800.497896 1480.000000,1748.000000 1446.271026,1666.571053 1369.728974,1249.428947 1336.000000,1168.000000 Z M626.000000,1136.000000 C558.895270,1136.000000 317.996687,1136.320131 256.000000,1162.000000 224.735774,1174.950066 156.950066,1200.735774 144.000000,1232.000000 128.000000,1270.627417 128.000000,1291.372583 144.000000,1330.000000 160.542844,1369.937958 252.062042,1389.457156 292.000000,1406.000000 324.961138,1419.652950 438.323121,1440.000000 474.000000,1440.000000 479.845725,1440.000000 473.762938,1427.400746 476.000000,1422.000000 479.571712,1413.377124 484.622876,1397.571712 476.000000,1394.000000 467.802226,1390.604371 420.197774,1389.395629 412.000000,1386.000000 353.624928,1361.820254 206.179746,1362.375072 182.000000,1304.000000 161.473582,1254.444843 204.444843,1230.526418 254.000000,1210.000000 303.128466,1189.650323 488.823732,1180.000000 542.000000,1180.000000 552.153889,1180.000000 578.619030,1163.885725 588.000000,1160.000000 595.156429,1157.035710 615.035710,1163.156429 618.000000,1156.000000 622.795219,1144.423317 638.530511,1136.000000 626.000000,1136.000000 Z M1568.000000,1074.000000 C1564.636557,1065.879929 1569.363443,1067.879929 1566.000000,1076.000000 1547.528533,1120.594065 1500.471467,1345.405935 1482.000000,1390.000000 1455.047122,1455.070004 1527.272277,1533.982673 1590.000000,1508.000000 1673.063542,1473.593954 1664.406046,1399.063542 1630.000000,1316.000000 1615.858878,1281.860311 1582.141122,1108.139689 1568.000000,1074.000000 Z M1068.000000,1052.000000 C1052.536027,1014.666667 995.463973,1014.666667 980.000000,1052.000000 975.876679,1061.954577 977.915022,1127.278509 970.000000,1124.000000 951.812110,1116.466329 936.187890,1103.533671 918.000000,1096.000000 879.784343,1080.170556 841.533537,1122.246442 858.000000,1162.000000 865.262541,1179.533325 900.466675,1198.737459 918.000000,1206.000000 924.695810,1208.773495 953.304190,1229.226505 960.000000,1232.000000 965.991954,1234.481949 976.000000,1237.514356 976.000000,1244.000000 976.000000,1311.333333 976.000000,1378.666667 976.000000,1446.000000 976.000000,1450.753774 972.391915,1449.819191 968.000000,1448.000000 941.068891,1436.844769 824.931109,1361.155231 798.000000,1350.000000 793.447715,1348.114382 790.000000,1344.666667 790.000000,1342.000000 790.000000,1293.149370 805.132097,1206.694327 760.000000,1188.000000 729.204734,1175.244183 706.755817,1195.204734 694.000000,1226.000000 685.280355,1247.051085 711.051085,1294.719645 690.000000,1286.000000 662.147079,1274.462942 631.852921,1246.462942 604.000000,1258.000000 566.018234,1273.732562 562.104659,1331.131663 598.000000,1346.000000 629.362266,1358.990676 659.362266,1369.009324 628.000000,1382.000000 591.179711,1397.251463 560.748537,1423.179711 576.000000,1460.000000 604.061275,1527.745910 664.254090,1464.061275 732.000000,1436.000000 736.131715,1434.288588 739.868285,1428.288588 744.000000,1430.000000 771.270302,1441.295729 888.729698,1518.704271 916.000000,1530.000000 923.243444,1533.000333 929.243444,1534.999667 922.000000,1538.000000 893.765204,1549.695235 772.234796,1630.304765 744.000000,1642.000000 741.779270,1642.919856 740.220730,1638.919856 738.000000,1638.000000 669.515562,1609.632817 606.367183,1539.515562 578.000000,1608.000000 559.694668,1652.192982 597.807018,1677.694668 642.000000,1696.000000 649.022565,1698.908842 631.022565,1707.091158 624.000000,1710.000000 610.170760,1715.728259 583.728259,1734.170760 578.000000,1748.000000 561.533537,1787.753558 599.784343,1829.829444 638.000000,1814.000000 645.554939,1810.870642 678.445061,1791.129358 686.000000,1788.000000 691.958288,1785.531996 696.000000,1779.550796 696.000000,1786.000000 696.000000,1798.091944 693.372613,1844.828500 698.000000,1856.000000 714.251762,1895.235224 772.044696,1896.519512 788.000000,1858.000000 796.611934,1837.208951 792.000000,1750.504069 792.000000,1728.000000 792.000000,1724.441145 796.712046,1723.361915 800.000000,1722.000000 826.931109,1710.844769 943.068891,1635.155231 970.000000,1624.000000 971.847759,1623.234633 976.000000,1618.666667 976.000000,1624.000000 976.000000,1692.000000 976.000000,1760.000000 976.000000,1828.000000 976.000000,1834.485644 965.991954,1837.518051 960.000000,1840.000000 951.713911,1843.432210 916.286089,1868.567790 908.000000,1872.000000 893.166197,1878.144362 864.144362,1895.166197 858.000000,1910.000000 841.533537,1949.753558 879.784343,1991.829444 918.000000,1976.000000 936.187890,1968.466329 951.812110,1955.533671 970.000000,1948.000000 977.915022,1944.721491 975.876679,2010.045423 980.000000,2020.000000 994.359403,2054.666667 1053.640597,2054.666667 1068.000000,2020.000000 1072.123321,2010.045423 1070.084978,1944.721491 1078.000000,1948.000000 1106.258567,1959.705082 1137.741433,1985.705082 1166.000000,1974.000000 1193.820350,1962.476434 1149.523566,1949.820350 1138.000000,1922.000000 1134.987446,1914.727051 1115.012554,1883.272949 1112.000000,1876.000000 1109.912947,1870.961408 1107.856371,1853.856371 1104.000000,1850.000000 1096.917445,1842.917445 1072.000000,1838.016245 1072.000000,1828.000000 1072.000000,1760.000000 1072.000000,1692.000000 1072.000000,1624.000000 1072.000000,1617.550796 1076.041712,1623.531996 1082.000000,1626.000000 1102.643004,1634.550612 1113.449388,1656.643004 1122.000000,1636.000000 1126.681124,1624.698766 1135.318876,1565.301234 1140.000000,1554.000000 1142.655554,1547.588925 1122.000000,1542.939298 1122.000000,1536.000000 1122.000000,1529.500429 1147.512722,1524.004821 1150.000000,1518.000000 1157.010829,1501.074360 1170.989171,1412.925640 1178.000000,1396.000000 1179.891771,1391.432861 1182.567139,1390.108229 1178.000000,1392.000000 1162.204300,1398.542793 1093.795700,1441.457207 1078.000000,1448.000000 1076.152241,1448.765367 1072.000000,1453.333333 1072.000000,1448.000000 1072.000000,1380.000000 1072.000000,1312.000000 1072.000000,1244.000000 1072.000000,1237.514356 1082.008046,1234.481949 1088.000000,1232.000000 1094.695810,1229.226505 1123.304190,1208.773495 1130.000000,1206.000000 1147.533325,1198.737459 1182.737459,1179.533325 1190.000000,1162.000000 1206.466463,1122.246442 1168.215657,1080.170556 1130.000000,1096.000000 1111.812110,1103.533671 1096.187890,1116.466329 1078.000000,1124.000000 1070.084978,1127.278509 1072.123321,1061.954577 1068.000000,1052.000000 Z M826.000000,736.000000 C793.826941,736.000000 756.312097,762.275969 744.000000,792.000000 718.005332,854.756680 761.601990,926.000000 826.000000,926.000000 1052.000000,926.000000 1278.000000,926.000000 1504.000000,926.000000 1507.399346,926.000000 1503.300874,919.140587 1502.000000,916.000000 1487.701767,881.481012 1505.580310,834.419690 1532.000000,808.000000 1537.011099,802.988901 1520.711987,798.547316 1518.000000,792.000000 1515.416664,785.763276 1500.583336,758.236724 1498.000000,752.000000 1495.835743,746.775022 1499.655475,736.000000 1494.000000,736.000000 1456.613134,736.000000 1416.540961,727.692666 1382.000000,742.000000 1357.363212,752.204892 1326.636788,752.204892 1302.000000,742.000000 1299.871605,741.118390 1294.303758,736.000000 1292.000000,736.000000 1136.666667,736.000000 981.333333,736.000000 826.000000,736.000000 Z M250.000000,736.000000 C185.601990,736.000000 142.005332,807.243320 168.000000,870.000000 180.312097,899.724031 217.826941,926.000000 250.000000,926.000000 290.976077,926.000000 448.143041,933.680866 486.000000,918.000000 577.797739,879.976132 550.901099,736.000000 452.000000,736.000000 384.666667,736.000000 317.333333,736.000000 250.000000,736.000000 Z M1730.000000,664.000000 C1726.311752,655.095783 1729.688248,651.095783 1726.000000,660.000000 1720.877078,672.367827 1709.122922,735.632173 1704.000000,748.000000 1700.883728,755.523347 1705.523347,765.116272 1698.000000,762.000000 1683.785315,756.112085 1614.214685,737.887915 1600.000000,732.000000 1594.124238,729.566180 1593.502887,729.502887 1598.000000,734.000000 1607.038733,743.038733 1662.961267,794.961267 1672.000000,804.000000 1674.666667,806.666667 1674.666667,807.333333 1672.000000,810.000000 1662.718356,819.281644 1605.281644,872.718356 1596.000000,882.000000 1589.395214,888.604786 1603.370432,881.574484 1612.000000,878.000000 1623.810311,873.108009 1682.189689,858.891991 1694.000000,854.000000 1706.156197,848.964738 1700.964738,863.843803 1706.000000,876.000000 1709.161240,883.631909 1716.838760,922.368091 1720.000000,930.000000 1727.518626,948.151569 1720.481374,970.151569 1728.000000,952.000000 1732.092727,942.119284 1741.907273,891.880716 1746.000000,882.000000 1751.943121,867.652036 1745.652036,848.056879 1760.000000,854.000000 1768.918409,857.694126 1813.081591,868.305874 1822.000000,872.000000 1847.291083,882.475910 1869.356957,895.356957 1850.000000,876.000000 1842.930762,868.930762 1799.069238,827.069238 1792.000000,820.000000 1786.334619,814.334619 1774.334619,811.665381 1780.000000,806.000000 1793.099739,792.900261 1840.884366,739.089528 1858.000000,732.000000 1861.193240,730.677317 1861.193240,728.677317 1858.000000,730.000000 1843.147938,736.151925 1770.852062,755.848075 1756.000000,762.000000 1749.122392,764.848799 1752.848799,756.877608 1750.000000,750.000000 1745.048149,738.045173 1734.951851,675.954827 1730.000000,664.000000 Z M1708.000000,512.000000 C1695.113391,506.662192 1703.337808,519.113391 1698.000000,532.000000 1696.699126,535.140587 1692.600654,542.000000 1696.000000,542.000000 1727.333333,542.000000 1758.666667,542.000000 1790.000000,542.000000 1793.428571,542.000000 1785.888798,515.610793 1782.000000,514.000000 1777.516037,512.142682 1772.483963,516.142682 1768.000000,518.000000 1754.297006,523.675966 1721.702994,517.675966 1708.000000,512.000000 Z M1594.000000,352.000000 C1591.333333,352.000000 1591.333333,351.333333 1594.000000,354.000000 1602.731642,362.731642 1634.591560,397.274470 1646.000000,402.000000 1650.011774,403.661731 1652.000000,410.342313 1652.000000,406.000000 1652.000000,392.501029 1660.834167,380.471423 1666.000000,368.000000 1669.324895,359.972993 1686.688370,352.000000 1678.000000,352.000000 1650.000000,352.000000 1622.000000,352.000000 1594.000000,352.000000 Z M250.000000,352.000000 C217.826941,352.000000 180.312097,378.275969 168.000000,408.000000 142.005332,470.756680 185.601990,542.000000 250.000000,542.000000 495.333333,542.000000 740.666667,542.000000 986.000000,542.000000 989.399346,542.000000 985.300874,535.140587 984.000000,532.000000 974.812055,509.818338 976.812055,482.181662 986.000000,460.000000 994.557104,439.341324 1056.188534,385.811466 1072.000000,370.000000 1076.055175,365.944825 1063.298341,362.194645 1058.000000,360.000000 1052.304986,357.641048 1034.164239,352.000000 1028.000000,352.000000 768.666667,352.000000 509.333333,352.000000 250.000000,352.000000 Z M1882.000000,204.000000 C1879.120366,197.047948 1882.879634,191.047948 1880.000000,198.000000 1874.116528,212.203959 1861.883472,285.796041 1856.000000,300.000000 1853.454741,306.144800 1846.144800,300.545259 1840.000000,298.000000 1827.306752,292.742284 1764.693248,277.257716 1752.000000,272.000000 1747.845209,270.279029 1746.820061,268.820061 1750.000000,272.000000 1759.281644,281.281644 1816.718356,334.718356 1826.000000,344.000000 1828.666667,346.666667 1828.666667,347.333333 1826.000000,350.000000 1817.204188,358.795812 1762.795812,409.204188 1754.000000,418.000000 1749.523510,422.476490 1744.151183,424.422659 1750.000000,422.000000 1763.819160,416.275917 1832.180840,399.724083 1846.000000,394.000000 1849.920424,392.376107 1854.376107,390.079576 1856.000000,394.000000 1861.883472,408.203959 1874.116528,481.796041 1880.000000,496.000000 1881.242551,498.999783 1878.757449,500.999783 1880.000000,498.000000 1885.588642,484.507825 1898.411358,415.492175 1904.000000,402.000000 1906.574529,395.784537 1903.784537,389.425471 1910.000000,392.000000 1921.810311,396.891991 1980.189689,411.108009 1992.000000,416.000000 2002.984635,420.549985 2018.407275,428.407275 2010.000000,420.000000 1997.574874,407.574874 1952.234210,358.724430 1936.000000,352.000000 1921.462497,345.978369 1946.873477,333.126523 1958.000000,322.000000 1966.731642,313.268358 1998.591560,278.725530 2010.000000,274.000000 2012.837816,272.824538 2012.837816,268.824538 2010.000000,270.000000 1996.912472,275.421032 1933.087528,292.578968 1920.000000,298.000000 1913.350583,300.754279 1906.754279,304.649417 1904.000000,298.000000 1898.582330,284.920588 1887.417670,217.079412 1882.000000,204.000000 Z M1344.000000,48.000000 C1340.636557,39.879929 1345.363443,37.879929 1342.000000,46.000000 1330.233055,74.407918 1305.766945,221.592082 1294.000000,250.000000 1290.788753,257.752635 1285.752635,255.211247 1278.000000,252.000000 1249.235955,240.085542 1106.764045,205.914458 1078.000000,194.000000 1073.447715,192.114382 1095.333333,211.333333 1098.000000,214.000000 1115.129782,231.129782 1220.870218,326.870218 1238.000000,344.000000 1240.666667,346.666667 1240.666667,345.333333 1238.000000,348.000000 1197.654272,388.345728 1154.345728,425.654272 1114.000000,466.000000 1100.599355,479.400645 1062.491213,507.252377 1080.000000,500.000000 1109.161119,487.921069 1252.838881,452.078931 1282.000000,440.000000 1287.948326,437.536123 1291.536123,438.051674 1294.000000,444.000000 1305.301145,471.283379 1328.698855,612.716621 1340.000000,640.000000 1345.289149,652.769136 1338.710851,658.769136 1344.000000,646.000000 1355.766945,617.592082 1380.233055,470.407918 1392.000000,442.000000 1395.061467,434.608964 1408.608964,438.938533 1416.000000,442.000000 1441.537528,452.577990 1566.462472,485.422010 1592.000000,496.000000 1596.355210,497.803987 1609.333333,501.333333 1606.000000,498.000000 1588.165452,480.165452 1477.834548,377.834548 1460.000000,360.000000 1453.787740,353.787740 1441.787740,350.212260 1448.000000,344.000000 1467.317010,324.682990 1586.682990,215.317010 1606.000000,196.000000 1608.666667,193.333333 1608.666667,194.000000 1606.000000,194.000000 1597.998709,194.000000 1575.392229,202.938038 1568.000000,206.000000 1545.748646,215.216813 1436.251354,242.783187 1414.000000,252.000000 1407.224883,254.806345 1394.806345,258.775117 1392.000000,252.000000 1380.233055,223.592082 1355.766945,76.407918 1344.000000,48.000000 Z "/></g>
</svg>