<?xml version="1.0" encoding="UTF-8"?>
<!DOCTYPE svg PUBLIC "-//W3C//DTD SVG 1.1 Tiny//EN" "http://www.w3.org/Graphics/SVG/1.1/DTD/svg11-tiny.dtd">
<svg version="1.1" width="2048" height="2048" viewBox="0 0 2048 2048" xmlns="http://www.w3.org/2000/svg">
<g fill="black">
<path d="M456.000000,1882.000000 C437.405866,1874.298058 419.860611,1894.349778 428.000000,1914.000000 435.399112,1931.863037 464.665188,1936.000000 484.000000,1936.000000 511.711154,1936.000000 559.395400,1939.601768 570.000000,1914.000000 579.282060,1891.591124 560.408876,1874.717940 538.000000,1884.000000 512.739783,1894.463125 481.260217,1892.463125 456.000000,1882.000000 Z M430.000000,1778.000000 C408.329941,1769.023968 388.976032,1758.329941 380.000000,1780.000000 367.950831,1809.089267 402.910733,1811.950831 432.000000,1824.000000 458.875302,1835.132115 529.124698,1839.132115 556.000000,1828.000000 565.105587,1824.228342 584.000000,1827.855817 584.000000,1818.000000 584.000000,1812.120588 582.000000,1777.879412 582.000000,1772.000000 582.000000,1766.944392 578.670773,1774.065302 574.000000,1776.000000 542.035628,1789.240076 461.964372,1791.240076 430.000000,1778.000000 Z M370.000000,1670.000000 C335.059741,1655.527271 317.059741,1697.527271 352.000000,1712.000000 373.508416,1720.909077 450.719459,1730.000000 474.000000,1730.000000 489.115096,1730.000000 548.035472,1733.784297 562.000000,1728.000000 569.734144,1724.796413 588.000000,1732.371377 588.000000,1724.000000 588.000000,1700.217324 613.972328,1670.898764 592.000000,1680.000000 582.082144,1684.108110 542.735010,1684.000000 532.000000,1684.000000 501.823653,1684.000000 397.879309,1681.547988 370.000000,1670.000000 Z M1276.000000,1628.000000 C1272.883709,1626.709190 1275.290810,1626.883709 1274.000000,1630.000000 1267.211772,1646.388233 1250.788228,1729.611767 1244.000000,1746.000000 1218.479855,1807.611080 1296.831155,1887.336965 1358.000000,1862.000000 1368.205174,1857.772878 1389.772878,1850.205174 1394.000000,1840.000000 1399.185500,1827.481097 1402.814500,1756.518903 1408.000000,1744.000000 1420.288317,1714.333379 1412.288317,1677.666621 1400.000000,1648.000000 1397.726931,1642.512325 1399.939816,1632.000000 1394.000000,1632.000000 1373.511961,1632.000000 1294.928480,1635.840433 1276.000000,1628.000000 Z M304.000000,1562.000000 C289.016168,1555.793494 278.206506,1559.016168 272.000000,1574.000000 262.884626,1596.006458 283.993542,1600.884626 306.000000,1610.000000 338.607329,1623.506398 456.706082,1636.000000 492.000000,1636.000000 510.135543,1636.000000 579.244943,1638.940172 596.000000,1632.000000 598.171296,1631.100620 608.338162,1633.661838 610.000000,1632.000000 616.253661,1625.746339 616.615543,1596.170802 620.000000,1588.000000 622.823481,1581.183513 618.816487,1583.176519 612.000000,1586.000000 591.208951,1594.611934 504.504069,1590.000000 482.000000,1590.000000 447.796882,1590.000000 335.599561,1575.088967 304.000000,1562.000000 Z M300.000000,1458.000000 C269.497729,1445.365546 244.634454,1411.497729 232.000000,1442.000000 211.847300,1490.652922 279.347078,1493.847300 328.000000,1514.000000 343.453289,1520.400962 428.546711,1527.599038 444.000000,1534.000000 476.001776,1547.255570 599.361527,1526.000000 634.000000,1526.000000 636.666667,1526.000000 637.091158,1511.022565 640.000000,1504.000000 646.337125,1488.700826 655.299174,1473.662875 640.000000,1480.000000 613.982950,1490.776615 512.160652,1492.000000 484.000000,1492.000000 447.978885,1492.000000 333.279171,1471.784684 300.000000,1458.000000 Z M550.000000,1254.000000 C469.861231,1254.000000 386.038568,1257.332221 312.000000,1288.000000 289.077494,1297.494813 266.505187,1305.077494 276.000000,1328.000000 288.722941,1358.715896 317.284104,1334.722941 348.000000,1322.000000 452.156008,1278.857169 573.262350,1310.000000 686.000000,1310.000000 688.666667,1310.000000 696.000000,1270.000000 696.000000,1270.000000 698.241183,1264.589306 665.772383,1267.704708 652.000000,1262.000000 634.966886,1254.944653 568.436510,1254.000000 550.000000,1254.000000 Z M824.000000,1168.000000 C821.649436,1162.325237 824.350564,1160.325237 822.000000,1166.000000 804.717457,1207.723749 769.282543,1424.276251 752.000000,1466.000000 736.434200,1503.579166 701.565800,1696.420834 686.000000,1734.000000 658.422870,1800.577081 698.510500,1888.388080 770.000000,1918.000000 857.430501,1954.214899 929.785101,1911.430501 966.000000,1824.000000 973.023621,1807.043478 975.023621,1764.956522 968.000000,1748.000000 934.271026,1666.571053 857.728974,1249.428947 824.000000,1168.000000 Z M632.000000,1138.000000 C490.702835,1138.000000 340.541559,1123.927916 210.000000,1178.000000 141.916227,1206.201222 115.798778,1261.916227 144.000000,1330.000000 158.922150,1366.025257 239.974743,1387.077850 276.000000,1402.000000 299.540493,1411.750791 424.459507,1428.249209 448.000000,1438.000000 478.467119,1450.619894 599.022628,1438.000000 632.000000,1438.000000 637.981320,1438.000000 653.770568,1440.229432 658.000000,1436.000000 663.591531,1430.408469 662.973885,1403.305687 666.000000,1396.000000 669.304597,1388.021998 627.344824,1394.000000 608.000000,1394.000000 582.098095,1394.000000 485.930240,1403.912230 462.000000,1394.000000 442.497954,1385.921988 337.502046,1374.078012 318.000000,1366.000000 281.822569,1351.014818 196.985182,1340.177431 182.000000,1304.000000 161.473582,1254.444843 204.444843,1230.526418 254.000000,1210.000000 309.376290,1187.062390 522.061135,1180.000000 582.000000,1180.000000 599.189756,1180.000000 696.810244,1188.000000 714.000000,1188.000000 718.484848,1188.000000 728.484848,1144.000000 724.000000,1144.000000 711.960662,1144.000000 644.039338,1138.000000 632.000000,1138.000000 Z M1378.000000,1098.000000 C1372.344525,1098.000000 1376.164257,1108.775022 1374.000000,1114.000000 1361.198076,1144.906578 1346.801924,1315.093422 1334.000000,1346.000000 1324.103986,1369.891091 1315.896014,1504.108909 1306.000000,1528.000000 1302.412140,1536.661861 1304.624469,1536.000000 1314.000000,1536.000000 1388.666667,1536.000000 1463.333333,1536.000000 1538.000000,1536.000000 1544.034767,1536.000000 1542.309405,1542.424602 1540.000000,1548.000000 1530.016363,1572.102631 1519.983637,1705.897369 1510.000000,1730.000000 1497.466852,1760.257696 1486.533148,1929.742304 1474.000000,1960.000000 1472.132411,1964.508758 1470.132411,1970.508758 1472.000000,1966.000000 1505.655850,1884.747591 1728.344150,1533.252409 1762.000000,1452.000000 1763.569409,1448.211111 1768.101064,1446.000000 1764.000000,1446.000000 1686.666667,1446.000000 1609.333333,1446.000000 1532.000000,1446.000000 1523.885943,1446.000000 1532.894885,1439.496411 1536.000000,1432.000000 1557.464231,1380.180763 1698.535769,1155.819237 1720.000000,1104.000000 1721.569409,1100.211111 1726.101064,1098.000000 1722.000000,1098.000000 1607.333333,1098.000000 1492.666667,1098.000000 1378.000000,1098.000000 Z M1056.000000,1074.000000 C1052.636557,1065.879929 1057.363443,1067.879929 1054.000000,1076.000000 1035.528533,1120.594065 988.471467,1345.405935 970.000000,1390.000000 943.047122,1455.070004 1015.272277,1533.982673 1078.000000,1508.000000 1161.063542,1473.593954 1152.406046,1399.063542 1118.000000,1316.000000 1103.858878,1281.860311 1070.141122,1108.139689 1056.000000,1074.000000 Z M1636.000000,944.000000 C1600.710166,858.802803 1500.385482,819.389535 1412.000000,856.000000 1367.037863,874.623927 1334.623927,921.037863 1316.000000,966.000000 1310.460046,979.374633 1319.374633,1007.539954 1306.000000,1002.000000 1291.183767,995.862915 1256.816233,1003.862915 1242.000000,1010.000000 1208.029363,1024.071099 1178.071099,1054.029363 1164.000000,1088.000000 1160.324423,1096.873629 1166.324423,1115.126371 1170.000000,1124.000000 1184.013872,1157.832480 1182.167520,1241.986128 1216.000000,1256.000000 1234.770960,1263.775186 1242.224814,1280.770960 1250.000000,1262.000000 1261.291974,1234.738763 1274.708026,1085.261237 1286.000000,1058.000000 1298.605521,1027.567581 1337.060187,1000.000000 1370.000000,1000.000000 1489.333333,1000.000000 1608.666667,1000.000000 1728.000000,1000.000000 1793.098039,1000.000000 1838.131912,1072.911984 1812.000000,1136.000000 1804.021697,1155.261326 1751.978303,1238.738674 1744.000000,1258.000000 1741.963791,1262.915843 1737.084157,1264.036209 1742.000000,1262.000000 1816.246648,1231.246031 1852.705343,1134.957683 1820.000000,1056.000000 1803.399398,1015.922602 1766.077398,982.600602 1726.000000,966.000000 1700.627398,955.490324 1671.463107,958.000000 1644.000000,958.000000 1638.429212,958.000000 1638.131848,949.146737 1636.000000,944.000000 Z M644.000000,854.000000 C557.156367,818.028189 489.971811,849.156367 454.000000,936.000000 452.327763,940.037138 450.266667,976.000000 448.000000,976.000000 441.458113,976.000000 424.043915,966.503472 418.000000,964.000000 398.304008,955.841653 349.695992,959.841653 330.000000,968.000000 279.924868,988.741799 252.741799,1015.924868 232.000000,1066.000000 230.337901,1070.012663 229.987337,1067.662099 234.000000,1066.000000 277.180078,1048.114226 437.262221,1036.000000 484.000000,1036.000000 627.136299,1036.000000 777.759303,1035.224110 910.000000,1090.000000 919.134277,1093.783541 921.783541,1099.134277 918.000000,1090.000000 882.420820,1004.104262 811.895738,962.420820 726.000000,998.000000 715.672469,1002.277803 703.722197,1012.327531 708.000000,1002.000000 728.568616,952.342967 693.657033,874.568616 644.000000,854.000000 Z M1640.000000,264.000000 C1505.624683,208.339921 1344.929540,270.216786 1292.000000,398.000000 1264.186990,465.146546 1260.186990,548.853454 1288.000000,616.000000 1299.885046,644.693040 1337.306960,706.114954 1366.000000,718.000000 1381.205427,724.298294 1404.794573,756.298294 1420.000000,750.000000 1457.986359,734.265535 1548.013641,750.265535 1586.000000,766.000000 1612.741131,777.076539 1643.258869,755.076539 1670.000000,744.000000 1708.352152,728.114019 1766.114019,656.352152 1782.000000,618.000000 1839.870656,478.287878 1776.611913,320.586507 1640.000000,264.000000 Z M1430.000000,96.000000 C1425.605004,94.179533 1423.820467,89.605004 1422.000000,94.000000 1416.058328,108.344465 1381.941672,171.655535 1376.000000,186.000000 1369.820506,200.918619 1366.918619,220.179494 1352.000000,214.000000 1338.576232,208.439693 1257.423768,209.560307 1244.000000,204.000000 1239.054526,201.951518 1228.000000,203.333333 1228.000000,206.000000 1228.000000,218.039338 1234.000000,285.960662 1234.000000,298.000000 1234.000000,311.513658 1246.484992,336.828547 1234.000000,342.000000 1215.994012,349.458324 1136.005988,390.541676 1118.000000,398.000000 1114.221919,399.564932 1118.435068,400.221919 1120.000000,404.000000 1127.043074,421.003486 1184.956926,492.996514 1192.000000,510.000000 1193.352534,513.265306 1185.352534,518.734694 1184.000000,522.000000 1177.355206,538.041952 1122.644794,605.958048 1116.000000,622.000000 1114.091458,626.607627 1121.392373,626.091458 1126.000000,628.000000 1139.720792,633.683338 1200.279208,666.316662 1214.000000,672.000000 1227.343001,677.526852 1243.526852,680.656999 1238.000000,694.000000 1232.439693,707.423768 1233.560307,788.576232 1228.000000,802.000000 1215.428561,832.350140 1265.149246,814.000000 1298.000000,814.000000 1306.012202,814.000000 1324.597690,791.066137 1332.000000,788.000000 1340.377413,784.529962 1362.377413,775.470038 1354.000000,772.000000 1314.116239,755.479605 1258.520395,673.883761 1242.000000,634.000000 1237.940112,624.198563 1226.059888,575.801437 1222.000000,566.000000 1202.109585,517.980291 1236.109585,408.019709 1256.000000,360.000000 1272.858767,319.299337 1343.299337,248.858767 1384.000000,232.000000 1432.019709,212.109585 1541.980291,178.109585 1590.000000,198.000000 1599.801437,202.059888 1648.198563,213.940112 1658.000000,218.000000 1820.431862,285.281480 1896.152529,471.465239 1828.000000,636.000000 1797.830111,708.836556 1732.836556,773.830111 1660.000000,804.000000 1654.639382,806.220441 1646.639382,805.779559 1652.000000,808.000000 1659.899443,811.272056 1679.954028,837.954028 1686.000000,844.000000 1694.609185,852.609185 1704.751558,803.340743 1716.000000,808.000000 1736.745999,816.593274 1817.544692,818.000000 1840.000000,818.000000 1842.666667,818.000000 1842.000000,818.666667 1842.000000,816.000000 1842.000000,793.544692 1840.593274,712.745999 1832.000000,692.000000 1828.104861,682.596304 1838.596304,679.895139 1848.000000,676.000000 1863.864011,669.428911 1934.135989,632.571089 1950.000000,626.000000 1952.350924,625.026215 1954.973785,624.350924 1954.000000,622.000000 1946.684996,604.340019 1885.315004,529.659981 1878.000000,512.000000 1876.409458,508.160091 1886.409458,501.839909 1888.000000,498.000000 1893.040513,485.831125 1932.959487,434.168875 1938.000000,422.000000 1942.567739,410.972502 1963.027498,400.567739 1952.000000,396.000000 1934.348393,388.688465 1855.651607,349.311535 1838.000000,342.000000 1825.022564,336.624570 1836.000000,314.046675 1836.000000,300.000000 1836.000000,287.716902 1842.000000,218.283098 1842.000000,206.000000 1842.000000,203.333333 1830.945474,201.951518 1826.000000,204.000000 1812.576232,209.560307 1731.423768,208.439693 1718.000000,214.000000 1703.081381,220.179494 1700.179494,200.918619 1694.000000,186.000000 1688.574995,172.902880 1657.425005,115.097120 1652.000000,102.000000 1650.091458,97.392373 1650.607627,90.091458 1646.000000,92.000000 1628.340019,99.315004 1553.659981,160.684996 1536.000000,168.000000 1532.734694,169.352534 1527.265306,161.352534 1524.000000,160.000000 1508.919591,153.753490 1445.080409,102.246510 1430.000000,96.000000 Z "/></g>
</svg>