<?xml version="1.0" encoding="UTF-8"?>
<!DOCTYPE svg PUBLIC "-//W3C//DTD SVG 1.1 Tiny//EN" "http://www.w3.org/Graphics/SVG/1.1/DTD/svg11-tiny.dtd">
<svg version="1.1" width="2048" height="2048" viewBox="0 0 2048 2048" xmlns="http://www.w3.org/2000/svg">
<g fill="black">
<path d="M456.000000,1882.000000 C437.405866,1874.298058 419.860611,1894.349778 428.000000,1914.000000 435.399112,1931.863037 464.665188,1936.000000 484.000000,1936.000000 511.711154,1936.000000 559.395400,1939.601768 570.000000,1914.000000 579.282060,1891.591124 560.408876,1874.717940 538.000000,1884.000000 512.739783,1894.463125 481.260217,1892.463125 456.000000,1882.000000 Z M430.000000,1778.000000 C408.329941,1769.023968 388.976032,1758.329941 380.000000,1780.000000 367.950831,1809.089267 402.910733,1811.950831 432.000000,1824.000000 458.875302,1835.132115 529.124698,1839.132115 556.000000,1828.000000 565.105587,1824.228342 584.000000,1827.855817 584.000000,1818.000000 584.000000,1812.120588 582.000000,1777.879412 582.000000,1772.000000 582.000000,1766.944392 578.670773,1774.065302 574.000000,1776.000000 542.035628,1789.240076 461.964372,1791.240076 430.000000,1778.000000 Z M370.000000,1670.000000 C335.059741,1655.527271 317.059741,1697.527271 352.000000,1712.000000 373.508416,1720.909077 450.719459,1730.000000 474.000000,1730.000000 489.115096,1730.000000 548.035472,1733.784297 562.000000,1728.000000 569.734144,1724.796413 588.000000,1732.371377 588.000000,1724.000000 588.000000,1700.217324 613.972328,1670.898764 592.000000,1680.000000 582.082144,1684.108110 542.735010,1684.000000 532.000000,1684.000000 501.823653,1684.000000 397.879309,1681.547988 370.000000,1670.000000 Z M1276.000000,1628.000000 C1272.883709,1626.709190 1275.290810,1626.883709 1274.000000,1630.000000 1267.211772,1646.388233 1250.788228,1729.611767 1244.000000,1746.000000 1218.479855,1807.611080 1296.831155,1887.336965 1358.000000,1862.000000 1368.205174,1857.772878 1389.772878,1850.205174 1394.000000,1840.000000 1399.185500,1827.481097 1402.814500,1756.518903 1408.000000,1744.000000 1420.288317,1714.333379 1412.288317,1677.666621 1400.000000,1648.000000 1397.726931,1642.512325 1399.939816,1632.000000 1394.000000,1632.000000 1373.511961,1632.000000 1294.928480,1635.840433 1276.000000,1628.000000 Z M304.000000,1562.000000 C289.016168,1555.793494 278.206506,1559.016168 272.000000,1574.000000 262.884626,1596.006458 283.993542,1600.884626 306.000000,1610.000000 338.607329,1623.506398 456.706082,1636.000000 492.000000,1636.000000 510.135543,1636.000000 579.244943,1638.940172 596.000000,1632.000000 598.171296,1631.100620 608.338162,1633.661838 610.000000,1632.000000 616.253661,1625.746339 616.615543,1596.170802 620.000000,1588.000000 622.823481,1581.183513 618.816487,1583.176519 612.000000,1586.000000 591.208951,1594.611934 504.504069,1590.000000 482.000000,1590.000000 447.796882,1590.000000 335.599561,1575.088967 304.000000,1562.000000 Z M172.000000,1592.000000 C170.633309,1588.700516 177.156534,1542.379453 174.000000,1550.000000 150.000478,1607.939972 158.060028,1662.000478 216.000000,1686.000000 223.004422,1688.901327 235.384615,1692.615385 236.000000,1692.000000 245.192842,1682.807158 221.192842,1679.192842 212.000000,1670.000000 185.894737,1643.894737 183.181809,1618.995276 172.000000,1592.000000 Z M1192.000000,1546.000000 C1193.720971,1541.845209 1195.179939,1540.820061 1192.000000,1544.000000 1163.700020,1572.299980 1124.975706,1588.684161 1088.000000,1604.000000 1082.715974,1606.188715 1030.872659,1603.278357 1032.000000,1606.000000 1036.289933,1616.356814 1045.710067,1669.643186 1050.000000,1680.000000 1051.953205,1684.715454 1048.896029,1694.000000 1054.000000,1694.000000 1087.333333,1694.000000 1120.666667,1694.000000 1154.000000,1694.000000 1160.504028,1694.000000 1157.511016,1682.008938 1160.000000,1676.000000 1167.550038,1657.772597 1184.449962,1564.227403 1192.000000,1546.000000 Z M300.000000,1458.000000 C269.497729,1445.365546 244.634454,1411.497729 232.000000,1442.000000 211.847300,1490.652922 279.347078,1493.847300 328.000000,1514.000000 343.453289,1520.400962 428.546711,1527.599038 444.000000,1534.000000 476.001776,1547.255570 599.361527,1526.000000 634.000000,1526.000000 636.666667,1526.000000 637.091158,1511.022565 640.000000,1504.000000 646.337125,1488.700826 655.299174,1473.662875 640.000000,1480.000000 613.982950,1490.776615 512.160652,1492.000000 484.000000,1492.000000 447.978885,1492.000000 333.279171,1471.784684 300.000000,1458.000000 Z M550.000000,1254.000000 C469.861231,1254.000000 386.038568,1257.332221 312.000000,1288.000000 289.077494,1297.494813 266.505187,1305.077494 276.000000,1328.000000 288.722941,1358.715896 317.284104,1334.722941 348.000000,1322.000000 452.156008,1278.857169 573.262350,1310.000000 686.000000,1310.000000 688.666667,1310.000000 696.000000,1270.000000 696.000000,1270.000000 698.241183,1264.589306 665.772383,1267.704708 652.000000,1262.000000 634.966886,1254.944653 568.436510,1254.000000 550.000000,1254.000000 Z M824.000000,1168.000000 C821.649436,1162.325237 824.350564,1160.325237 822.000000,1166.000000 804.717457,1207.723749 769.282543,1424.276251 752.000000,1466.000000 736.434200,1503.579166 701.565800,1696.420834 686.000000,1734.000000 658.422870,1800.577081 698.510500,1888.388080 770.000000,1918.000000 857.430501,1954.214899 929.785101,1911.430501 966.000000,1824.000000 973.023621,1807.043478 975.023621,1764.956522 968.000000,1748.000000 934.271026,1666.571053 857.728974,1249.428947 824.000000,1168.000000 Z M632.000000,1138.000000 C490.702835,1138.000000 340.541559,1123.927916 210.000000,1178.000000 141.916227,1206.201222 115.798778,1261.916227 144.000000,1330.000000 158.922150,1366.025257 239.974743,1387.077850 276.000000,1402.000000 299.540493,1411.750791 424.459507,1428.249209 448.000000,1438.000000 478.467119,1450.619894 599.022628,1438.000000 632.000000,1438.000000 637.981320,1438.000000 653.770568,1440.229432 658.000000,1436.000000 663.591531,1430.408469 662.973885,1403.305687 666.000000,1396.000000 669.304597,1388.021998 627.344824,1394.000000 608.000000,1394.000000 582.098095,1394.000000 485.930240,1403.912230 462.000000,1394.000000 442.497954,1385.921988 337.502046,1374.078012 318.000000,1366.000000 281.822569,1351.014818 196.985182,1340.177431 182.000000,1304.000000 161.473582,1254.444843 204.444843,1230.526418 254.000000,1210.000000 309.376290,1187.062390 522.061135,1180.000000 582.000000,1180.000000 599.189756,1180.000000 696.810244,1188.000000 714.000000,1188.000000 718.484848,1188.000000 728.484848,1144.000000 724.000000,1144.000000 711.960662,1144.000000 644.039338,1138.000000 632.000000,1138.000000 Z M1170.000000,1120.000000 C1166.948354,1120.000000 1168.832185,1121.180646 1170.000000,1124.000000 1179.412935,1146.724835 1200.587065,1263.275165 1210.000000,1286.000000 1215.392208,1299.017942 1210.982058,1313.392208 1224.000000,1308.000000 1230.886191,1305.147646 1239.124194,1309.771236 1244.000000,1298.000000 1252.482298,1277.521922 1259.517702,1162.478078 1268.000000,1142.000000 1270.525582,1135.902706 1260.097294,1130.525582 1254.000000,1128.000000 1228.014320,1117.236379 1198.126697,1120.000000 1170.000000,1120.000000 Z M1378.000000,1098.000000 C1372.344525,1098.000000 1376.164257,1108.775022 1374.000000,1114.000000 1361.198076,1144.906578 1346.801924,1315.093422 1334.000000,1346.000000 1324.103986,1369.891091 1315.896014,1504.108909 1306.000000,1528.000000 1302.412140,1536.661861 1304.624469,1536.000000 1314.000000,1536.000000 1388.666667,1536.000000 1463.333333,1536.000000 1538.000000,1536.000000 1544.034767,1536.000000 1542.309405,1542.424602 1540.000000,1548.000000 1530.016363,1572.102631 1519.983637,1705.897369 1510.000000,1730.000000 1497.466852,1760.257696 1486.533148,1929.742304 1474.000000,1960.000000 1472.132411,1964.508758 1470.132411,1970.508758 1472.000000,1966.000000 1505.655850,1884.747591 1728.344150,1533.252409 1762.000000,1452.000000 1763.569409,1448.211111 1768.101064,1446.000000 1764.000000,1446.000000 1686.666667,1446.000000 1609.333333,1446.000000 1532.000000,1446.000000 1523.885943,1446.000000 1532.894885,1439.496411 1536.000000,1432.000000 1557.464231,1380.180763 1698.535769,1155.819237 1720.000000,1104.000000 1721.569409,1100.211111 1726.101064,1098.000000 1722.000000,1098.000000 1607.333333,1098.000000 1492.666667,1098.000000 1378.000000,1098.000000 Z M1056.000000,1074.000000 C1052.636557,1065.879929 1057.363443,1067.879929 1054.000000,1076.000000 1035.528533,1120.594065 988.471467,1345.405935 970.000000,1390.000000 943.047122,1455.070004 1015.272277,1533.982673 1078.000000,1508.000000 1161.063542,1473.593954 1152.406046,1399.063542 1118.000000,1316.000000 1103.858878,1281.860311 1070.141122,1108.139689 1056.000000,1074.000000 Z M826.000000,736.000000 C793.826941,736.000000 756.312097,762.275969 744.000000,792.000000 718.005332,854.756680 761.601990,926.000000 826.000000,926.000000 1052.000000,926.000000 1278.000000,926.000000 1504.000000,926.000000 1507.399346,926.000000 1503.300874,919.140587 1502.000000,916.000000 1487.701767,881.481012 1505.580310,834.419690 1532.000000,808.000000 1537.011099,802.988901 1520.711987,798.547316 1518.000000,792.000000 1515.416664,785.763276 1500.583336,758.236724 1498.000000,752.000000 1495.835743,746.775022 1499.655475,736.000000 1494.000000,736.000000 1456.613134,736.000000 1416.540961,727.692666 1382.000000,742.000000 1357.363212,752.204892 1326.636788,752.204892 1302.000000,742.000000 1299.871605,741.118390 1294.303758,736.000000 1292.000000,736.000000 1136.666667,736.000000 981.333333,736.000000 826.000000,736.000000 Z M250.000000,736.000000 C185.601990,736.000000 142.005332,807.243320 168.000000,870.000000 180.312097,899.724031 217.826941,926.000000 250.000000,926.000000 290.976077,926.000000 448.143041,933.680866 486.000000,918.000000 577.797739,879.976132 550.901099,736.000000 452.000000,736.000000 384.666667,736.000000 317.333333,736.000000 250.000000,736.000000 Z M1730.000000,664.000000 C1726.311752,655.095783 1729.688248,651.095783 1726.000000,660.000000 1720.877078,672.367827 1709.122922,735.632173 1704.000000,748.000000 1700.883728,755.523347 1705.523347,765.116272 1698.000000,762.000000 1683.785315,756.112085 1614.214685,737.887915 1600.000000,732.000000 1594.124238,729.566180 1593.502887,729.502887 1598.000000,734.000000 1607.038733,743.038733 1662.961267,794.961267 1672.000000,804.000000 1674.666667,806.666667 1674.666667,807.333333 1672.000000,810.000000 1662.718356,819.281644 1605.281644,872.718356 1596.000000,882.000000 1589.395214,888.604786 1603.370432,881.574484 1612.000000,878.000000 1623.810311,873.108009 1682.189689,858.891991 1694.000000,854.000000 1706.156197,848.964738 1700.964738,863.843803 1706.000000,876.000000 1709.161240,883.631909 1716.838760,922.368091 1720.000000,930.000000 1727.518626,948.151569 1720.481374,970.151569 1728.000000,952.000000 1732.092727,942.119284 1741.907273,891.880716 1746.000000,882.000000 1751.943121,867.652036 1745.652036,848.056879 1760.000000,854.000000 1768.918409,857.694126 1813.081591,868.305874 1822.000000,872.000000 1847.291083,882.475910 1869.356957,895.356957 1850.000000,876.000000 1842.930762,868.930762 1799.069238,827.069238 1792.000000,820.000000 1786.334619,814.334619 1774.334619,811.665381 1780.000000,806.000000 1793.099739,792.900261 1840.884366,739.089528 1858.000000,732.000000 1861.193240,730.677317 1861.193240,728.677317 1858.000000,730.000000 1843.147938,736.151925 1770.852062,755.848075 1756.000000,762.000000 1749.122392,764.848799 1752.848799,756.877608 1750.000000,750.000000 1745.048149,738.045173 1734.951851,675.954827 1730.000000,664.000000 Z M1708.000000,512.000000 C1695.113391,506.662192 1703.337808,519.113391 1698.000000,532.000000 1696.699126,535.140587 1692.600654,542.000000 1696.000000,542.000000 1727.333333,542.000000 1758.666667,542.000000 1790.000000,542.000000 1793.428571,542.000000 1785.888798,515.610793 1782.000000,514.000000 1777.516037,512.142682 1772.483963,516.142682 1768.000000,518.000000 1754.297006,523.675966 1721.702994,517.675966 1708.000000,512.000000 Z M1594.000000,352.000000 C1591.333333,352.000000 1591.333333,351.333333 1594.000000,354.000000 1602.731642,362.731642 1634.591560,397.274470 1646.000000,402.000000 1650.011774,403.661731 1652.000000,410.342313 1652.000000,406.000000 1652.000000,392.501029 1660.834167,380.471423 1666.000000,368.000000 1669.324895,359.972993 1686.688370,352.000000 1678.000000,352.000000 1650.000000,352.000000 1622.000000,352.000000 1594.000000,352.000000 Z M250.000000,352.000000 C217.826941,352.000000 180.312097,378.275969 168.000000,408.000000 142.005332,470.756680 185.601990,542.000000 250.000000,542.000000 495.333333,542.000000 740.666667,542.000000 986.000000,542.000000 989.399346,542.000000 985.300874,535.140587 984.000000,532.000000 974.812055,509.818338 976.812055,482.181662 986.000000,460.000000 994.557104,439.341324 1056.188534,385.811466 1072.000000,370.000000 1076.055175,365.944825 1063.298341,362.194645 1058.000000,360.000000 1052.304986,357.641048 1034.164239,352.000000 1028.000000,352.000000 768.666667,352.000000 509.333333,352.000000 250.000000,352.000000 Z M1882.000000,204.000000 C1879.120366,197.047948 1882.879634,191.047948 1880.000000,198.000000 1874.116528,212.203959 1861.883472,285.796041 1856.000000,300.000000 1853.454741,306.144800 1846.144800,300.545259 1840.000000,298.000000 1827.306752,292.742284 1764.693248,277.257716 1752.000000,272.000000 1747.845209,270.279029 1746.820061,268.820061 1750.000000,272.000000 1759.281644,281.281644 1816.718356,334.718356 1826.000000,344.000000 1828.666667,346.666667 1828.666667,347.333333 1826.000000,350.000000 1817.204188,358.795812 1762.795812,409.204188 1754.000000,418.000000 1749.523510,422.476490 1744.151183,424.422659 1750.000000,422.000000 1763.819160,416.275917 1832.180840,399.724083 1846.000000,394.000000 1849.920424,392.376107 1854.376107,390.079576 1856.000000,394.000000 1861.883472,408.203959 1874.116528,481.796041 1880.000000,496.000000 1881.242551,498.999783 1878.757449,500.999783 1880.000000,498.000000 1885.588642,484.507825 1898.411358,415.492175 1904.000000,402.000000 1906.574529,395.784537 1903.784537,389.425471 1910.000000,392.000000 1921.810311,396.891991 1980.189689,411.108009 1992.000000,416.000000 2002.984635,420.549985 2018.407275,428.407275 2010.000000,420.000000 1997.574874,407.574874 1952.234210,358.724430 1936.000000,352.000000 1921.462497,345.978369 1946.873477,333.126523 1958.000000,322.000000 1966.731642,313.268358 1998.591560,278.725530 2010.000000,274.000000 2012.837816,272.824538 2012.837816,268.824538 2010.000000,270.000000 1996.912472,275.421032 1933.087528,292.578968 1920.000000,298.000000 1913.350583,300.754279 1906.754279,304.649417 1904.000000,298.000000 1898.582330,284.920588 1887.417670,217.079412 1882.000000,204.000000 Z M1344.000000,48.000000 C1340.636557,39.879929 1345.363443,37.879929 1342.000000,46.000000 1330.233055,74.407918 1305.766945,221.592082 1294.000000,250.000000 1290.788753,257.752635 1285.752635,255.211247 1278.000000,252.000000 1249.235955,240.085542 1106.764045,205.914458 1078.000000,194.000000 1073.447715,192.114382 1095.333333,211.333333 1098.000000,214.000000 1115.129782,231.129782 1220.870218,326.870218 1238.000000,344.000000 1240.666667,346.666667 1240.666667,345.333333 1238.000000,348.000000 1197.654272,388.345728 1154.345728,425.654272 1114.000000,466.000000 1100.599355,479.400645 1062.491213,507.252377 1080.000000,500.000000 1109.161119,487.921069 1252.838881,452.078931 1282.000000,440.000000 1287.948326,437.536123 1291.536123,438.051674 1294.000000,444.000000 1305.301145,471.283379 1328.698855,612.716621 1340.000000,640.000000 1345.289149,652.769136 1338.710851,658.769136 1344.000000,646.000000 1355.766945,617.592082 1380.233055,470.407918 1392.000000,442.000000 1395.061467,434.608964 1408.608964,438.938533 1416.000000,442.000000 1441.537528,452.577990 1566.462472,485.422010 1592.000000,496.000000 1596.355210,497.803987 1609.333333,501.333333 1606.000000,498.000000 1588.165452,480.165452 1477.834548,377.834548 1460.000000,360.000000 1453.787740,353.787740 1441.787740,350.212260 1448.000000,344.000000 1467.317010,324.682990 1586.682990,215.317010 1606.000000,196.000000 1608.666667,193.333333 1608.666667,194.000000 1606.000000,194.000000 1597.998709,194.000000 1575.392229,202.938038 1568.000000,206.000000 1545.748646,215.216813 1436.251354,242.783187 1414.000000,252.000000 1407.224883,254.806345 1394.806345,258.775117 1392.000000,252.000000 1380.233055,223.592082 1355.766945,76.407918 1344.000000,48.000000 Z "/></g>
</svg>