<?xml version="1.0" encoding="UTF-8"?>
<!DOCTYPE svg PUBLIC "-//W3C//DTD SVG 1.1 Tiny//EN" "http://www.w3.org/Graphics/SVG/1.1/DTD/svg11-tiny.dtd">
<svg version="1.1" width="2048" height="2048" viewBox="0 0 2048 2048" xmlns="http://www.w3.org/2000/svg">
<g fill="black">
<path d="M456.000000,1882.000000 C437.405866,1874.298058 419.860611,1894.349778 428.000000,1914.000000 435.106885,1931.157537 462.842463,1926.893115 480.000000,1934.000000 509.280488,1946.128375 559.871625,1939.280488 572.000000,1910.000000 575.502099,1901.545185 544.199601,1881.775187 534.000000,1886.000000 509.947567,1895.962844 480.052433,1891.962844 456.000000,1882.000000 Z M476.000000,1786.000000 C458.550160,1786.000000 408.121550,1761.322235 392.000000,1768.000000 358.798185,1781.752642 384.798185,1806.247358 418.000000,1820.000000 430.865137,1825.328914 476.074876,1832.000000 490.000000,1832.000000 492.666667,1832.000000 478.666667,1786.000000 476.000000,1786.000000 Z M370.000000,1670.000000 C335.059741,1655.527271 317.059741,1697.527271 352.000000,1712.000000 367.702788,1718.504308 456.297212,1723.495692 472.000000,1730.000000 486.807714,1736.133556 502.027754,1684.000000 486.000000,1684.000000 464.302156,1684.000000 390.046194,1678.303405 370.000000,1670.000000 Z M354.000000,1574.000000 C310.366543,1555.926430 253.926430,1548.366543 272.000000,1592.000000 278.435030,1607.535536 316.464464,1607.564970 332.000000,1614.000000 356.913101,1624.319344 447.034253,1634.000000 474.000000,1634.000000 476.666667,1634.000000 482.524096,1591.045515 480.000000,1590.000000 463.832322,1583.303129 370.167678,1580.696871 354.000000,1574.000000 Z M272.000000,1442.000000 C265.372583,1426.000000 238.627417,1426.000000 232.000000,1442.000000 217.554826,1476.873735 257.126265,1487.554826 292.000000,1502.000000 330.278822,1517.855607 464.567302,1538.000000 506.000000,1538.000000 513.372067,1538.000000 502.821168,1530.810901 500.000000,1524.000000 495.776975,1513.804715 490.223025,1504.195285 486.000000,1494.000000 481.956807,1484.238869 451.761131,1492.043193 442.000000,1488.000000 432.220768,1483.949309 377.779232,1480.050691 368.000000,1476.000000 344.087417,1466.095084 281.904916,1465.912583 272.000000,1442.000000 Z M478.000000,1270.000000 C482.178555,1259.912075 490.087925,1249.821445 480.000000,1254.000000 470.438690,1257.960424 413.561310,1258.039576 404.000000,1262.000000 388.813145,1268.290601 313.186855,1285.709399 298.000000,1292.000000 273.205356,1302.270278 261.205356,1329.729722 286.000000,1340.000000 300.045130,1345.817683 315.954870,1333.817683 330.000000,1328.000000 346.975460,1320.968534 437.024540,1309.031466 454.000000,1302.000000 459.024838,1299.918644 473.918644,1303.024838 476.000000,1298.000000 477.411311,1294.592793 476.588689,1273.407207 478.000000,1270.000000 Z M626.000000,1136.000000 C558.895270,1136.000000 317.996687,1136.320131 256.000000,1162.000000 224.735774,1174.950066 156.950066,1200.735774 144.000000,1232.000000 128.000000,1270.627417 128.000000,1291.372583 144.000000,1330.000000 160.542844,1369.937958 252.062042,1389.457156 292.000000,1406.000000 324.961138,1419.652950 438.323121,1440.000000 474.000000,1440.000000 479.845725,1440.000000 473.762938,1427.400746 476.000000,1422.000000 479.571712,1413.377124 484.622876,1397.571712 476.000000,1394.000000 467.802226,1390.604371 420.197774,1389.395629 412.000000,1386.000000 353.624928,1361.820254 206.179746,1362.375072 182.000000,1304.000000 161.473582,1254.444843 204.444843,1230.526418 254.000000,1210.000000 303.128466,1189.650323 488.823732,1180.000000 542.000000,1180.000000 552.153889,1180.000000 578.619030,1163.885725 588.000000,1160.000000 595.156429,1157.035710 615.035710,1163.156429 618.000000,1156.000000 622.795219,1144.423317 638.530511,1136.000000 626.000000,1136.000000 Z M1378.000000,1098.000000 C1372.344525,1098.000000 1376.164257,1108.775022 1374.000000,1114.000000 1361.198076,1144.906578 1346.801924,1315.093422 1334.000000,1346.000000 1324.103986,1369.891091 1315.896014,1504.108909 1306.000000,1528.000000 1302.412140,1536.661861 1304.624469,1536.000000 1314.000000,1536.000000 1388.666667,1536.000000 1463.333333,1536.000000 1538.000000,1536.000000 1544.034767,1536.000000 1542.309405,1542.424602 1540.000000,1548.000000 1530.016363,1572.102631 1519.983637,1705.897369 1510.000000,1730.000000 1497.466852,1760.257696 1486.533148,1929.742304 1474.000000,1960.000000 1472.132411,1964.508758 1470.132411,1970.508758 1472.000000,1966.000000 1505.655850,1884.747591 1728.344150,1533.252409 1762.000000,1452.000000 1763.569409,1448.211111 1768.101064,1446.000000 1764.000000,1446.000000 1686.666667,1446.000000 1609.333333,1446.000000 1532.000000,1446.000000 1523.885943,1446.000000 1532.894885,1439.496411 1536.000000,1432.000000 1557.464231,1380.180763 1698.535769,1155.819237 1720.000000,1104.000000 1721.569409,1100.211111 1726.101064,1098.000000 1722.000000,1098.000000 1607.333333,1098.000000 1492.666667,1098.000000 1378.000000,1098.000000 Z M1068.000000,1052.000000 C1052.536027,1014.666667 995.463973,1014.666667 980.000000,1052.000000 975.876679,1061.954577 977.915022,1127.278509 970.000000,1124.000000 951.812110,1116.466329 936.187890,1103.533671 918.000000,1096.000000 879.784343,1080.170556 841.533537,1122.246442 858.000000,1162.000000 865.262541,1179.533325 900.466675,1198.737459 918.000000,1206.000000 924.695810,1208.773495 953.304190,1229.226505 960.000000,1232.000000 965.991954,1234.481949 976.000000,1237.514356 976.000000,1244.000000 976.000000,1311.333333 976.000000,1378.666667 976.000000,1446.000000 976.000000,1453.087184 970.547704,1446.712148 964.000000,1444.000000 937.749204,1433.126564 824.250796,1360.873436 798.000000,1350.000000 793.447715,1348.114382 790.000000,1344.666667 790.000000,1342.000000 790.000000,1293.149370 805.132097,1206.694327 760.000000,1188.000000 729.204734,1175.244183 706.755817,1195.204734 694.000000,1226.000000 685.280355,1247.051085 711.051085,1294.719645 690.000000,1286.000000 662.147079,1274.462942 631.852921,1246.462942 604.000000,1258.000000 566.018234,1273.732562 562.104659,1331.131663 598.000000,1346.000000 629.362266,1358.990676 659.362266,1369.009324 628.000000,1382.000000 591.179711,1397.251463 560.748537,1423.179711 576.000000,1460.000000 604.061275,1527.745910 664.254090,1464.061275 732.000000,1436.000000 736.131715,1434.288588 739.868285,1428.288588 744.000000,1430.000000 771.270302,1441.295729 888.729698,1518.704271 916.000000,1530.000000 923.243444,1533.000333 929.243444,1534.999667 922.000000,1538.000000 893.765204,1549.695235 772.234796,1630.304765 744.000000,1642.000000 741.779270,1642.919856 740.220730,1638.919856 738.000000,1638.000000 669.515562,1609.632817 606.367183,1539.515562 578.000000,1608.000000 559.694668,1652.192982 597.807018,1677.694668 642.000000,1696.000000 649.022565,1698.908842 631.022565,1707.091158 624.000000,1710.000000 610.170760,1715.728259 583.728259,1734.170760 578.000000,1748.000000 561.533537,1787.753558 599.784343,1829.829444 638.000000,1814.000000 645.554939,1810.870642 678.445061,1791.129358 686.000000,1788.000000 691.958288,1785.531996 696.000000,1779.550796 696.000000,1786.000000 696.000000,1798.091944 693.372613,1844.828500 698.000000,1856.000000 714.251762,1895.235224 772.044696,1896.519512 788.000000,1858.000000 796.611934,1837.208951 792.000000,1750.504069 792.000000,1728.000000 792.000000,1724.441145 796.712046,1723.361915 800.000000,1722.000000 826.931109,1710.844769 943.068891,1635.155231 970.000000,1624.000000 971.847759,1623.234633 976.000000,1618.666667 976.000000,1624.000000 976.000000,1692.000000 976.000000,1760.000000 976.000000,1828.000000 976.000000,1834.485644 965.991954,1837.518051 960.000000,1840.000000 951.713911,1843.432210 916.286089,1868.567790 908.000000,1872.000000 893.166197,1878.144362 864.144362,1895.166197 858.000000,1910.000000 841.533537,1949.753558 879.784343,1991.829444 918.000000,1976.000000 936.187890,1968.466329 951.812110,1955.533671 970.000000,1948.000000 977.915022,1944.721491 975.876679,2010.045423 980.000000,2020.000000 994.359403,2054.666667 1053.640597,2054.666667 1068.000000,2020.000000 1072.123321,2010.045423 1070.084978,1944.721491 1078.000000,1948.000000 1096.187890,1955.533671 1111.812110,1968.466329 1130.000000,1976.000000 1168.215657,1991.829444 1206.466463,1949.753558 1190.000000,1910.000000 1183.855638,1895.166197 1154.833803,1878.144362 1140.000000,1872.000000 1131.713911,1868.567790 1096.286089,1843.432210 1088.000000,1840.000000 1082.008046,1837.518051 1072.000000,1834.485644 1072.000000,1828.000000 1072.000000,1760.000000 1072.000000,1692.000000 1072.000000,1624.000000 1072.000000,1617.550796 1076.041712,1623.531996 1082.000000,1626.000000 1108.250796,1636.873436 1221.749204,1709.126564 1248.000000,1720.000000 1252.552285,1721.885618 1256.000000,1725.333333 1256.000000,1728.000000 1256.000000,1776.850630 1240.867903,1863.305673 1286.000000,1882.000000 1316.795266,1894.755817 1339.244183,1874.795266 1352.000000,1844.000000 1360.719645,1822.948915 1334.948915,1775.280355 1356.000000,1784.000000 1370.058628,1789.823275 1381.941372,1800.176725 1396.000000,1806.000000 1404.217394,1809.403756 1398.596244,1788.217394 1402.000000,1780.000000 1405.955270,1770.451133 1410.044730,1717.548867 1414.000000,1708.000000 1416.185670,1702.723325 1399.961408,1700.038592 1404.000000,1696.000000 1405.976905,1694.023095 1413.417050,1689.069893 1416.000000,1688.000000 1420.216654,1686.253405 1429.904762,1632.000000 1426.000000,1632.000000 1385.911210,1632.000000 1343.037213,1624.658684 1306.000000,1640.000000 1300.761950,1642.169671 1291.238050,1632.169671 1286.000000,1630.000000 1274.104615,1625.072770 1261.895385,1620.927230 1250.000000,1616.000000 1246.794847,1614.672382 1233.205153,1599.327618 1230.000000,1598.000000 1213.523240,1591.175103 1142.476760,1544.824897 1126.000000,1538.000000 1121.432861,1536.108229 1121.432861,1535.891771 1126.000000,1534.000000 1139.347121,1528.471442 1196.652879,1489.528558 1210.000000,1484.000000 1218.217394,1480.596244 1212.596244,1466.217394 1216.000000,1458.000000 1221.273693,1445.268178 1226.726307,1374.731822 1232.000000,1362.000000 1234.378314,1356.258243 1235.741757,1359.621686 1230.000000,1362.000000 1205.965175,1371.955550 1102.034825,1438.044450 1078.000000,1448.000000 1076.152241,1448.765367 1072.000000,1453.333333 1072.000000,1448.000000 1072.000000,1380.000000 1072.000000,1312.000000 1072.000000,1244.000000 1072.000000,1237.514356 1082.008046,1234.481949 1088.000000,1232.000000 1094.695810,1229.226505 1123.304190,1208.773495 1130.000000,1206.000000 1147.533325,1198.737459 1182.737459,1179.533325 1190.000000,1162.000000 1206.466463,1122.246442 1168.215657,1080.170556 1130.000000,1096.000000 1111.812110,1103.533671 1096.187890,1116.466329 1078.000000,1124.000000 1070.084978,1127.278509 1072.123321,1061.954577 1068.000000,1052.000000 Z M1382.000000,648.000000 C1304.516387,460.938009 1089.610325,372.289259 902.000000,450.000000 815.766844,485.718943 739.718943,561.766844 704.000000,648.000000 699.574419,658.684297 686.425581,711.315703 682.000000,722.000000 675.621578,737.398872 687.398872,758.378422 672.000000,752.000000 659.616694,746.870667 606.383306,711.129333 594.000000,706.000000 518.766980,674.837463 425.233020,662.837463 350.000000,694.000000 325.735578,704.050653 302.264422,715.949347 278.000000,726.000000 238.377639,742.412119 168.412119,812.377639 152.000000,852.000000 141.949347,876.264422 130.050653,899.735578 120.000000,924.000000 102.047339,967.341557 98.047339,1072.658443 116.000000,1116.000000 117.869728,1120.513923 135.529365,1104.337079 146.000000,1100.000000 159.234430,1094.518120 220.765570,1071.481880 234.000000,1066.000000 248.062975,1060.174925 323.937025,1051.825075 338.000000,1046.000000 344.814414,1043.177377 387.185586,1044.822623 394.000000,1042.000000 433.449082,1025.659655 595.300622,1040.000000 638.000000,1040.000000 663.799028,1040.000000 756.164806,1042.127140 780.000000,1052.000000 791.831431,1056.900739 798.168569,1032.900739 810.000000,1028.000000 818.731413,1024.383330 857.268587,1003.616670 866.000000,1000.000000 869.298999,998.633510 898.808323,996.876963 900.000000,994.000000 907.837174,975.079388 945.079388,945.837174 964.000000,938.000000 1000.339262,922.947785 1045.660738,922.947785 1082.000000,938.000000 1108.598889,949.017621 1125.642091,975.642091 1146.000000,996.000000 1153.233492,1003.233492 1188.548987,1002.085262 1198.000000,1006.000000 1231.981802,1020.075723 1263.924277,1048.018198 1278.000000,1082.000000 1281.227070,1089.790836 1282.772930,1065.790836 1286.000000,1058.000000 1298.605521,1027.567581 1337.060187,1000.000000 1370.000000,1000.000000 1489.333333,1000.000000 1608.666667,1000.000000 1728.000000,1000.000000 1767.700577,1000.000000 1802.807247,1039.321449 1818.000000,1076.000000 1825.502117,1094.111713 1811.502117,1133.888287 1804.000000,1152.000000 1791.949783,1181.091796 1712.050217,1306.908204 1700.000000,1336.000000 1698.288588,1340.131715 1689.527864,1348.000000 1694.000000,1348.000000 1706.086712,1348.000000 1754.833334,1352.625384 1766.000000,1348.000000 1794.896620,1336.030628 1838.030628,1278.896620 1850.000000,1250.000000 1897.377393,1135.620854 1846.300292,1005.687877 1736.000000,960.000000 1706.274317,947.687219 1635.725683,933.687219 1606.000000,946.000000 1595.359887,950.407279 1586.407279,956.640113 1582.000000,946.000000 1564.221935,903.079954 1478.920046,851.778065 1436.000000,834.000000 1426.894413,830.228342 1408.000000,833.855817 1408.000000,824.000000 1408.000000,764.696637 1404.694415,702.789163 1382.000000,648.000000 Z "/></g>
</svg>