<?xml version="1.0" encoding="UTF-8"?>
<!DOCTYPE svg PUBLIC "-//W3C//DTD SVG 1.1 Tiny//EN" "http://www.w3.org/Graphics/SVG/1.1/DTD/svg11-tiny.dtd">
<svg version="1.1" width="2048" height="2048" viewBox="0 0 2048 2048" xmlns="http://www.w3.org/2000/svg">
<g fill="black">
<path d="M1688.000000,1566.000000 C1685.624631,1560.265353 1645.847169,1589.234878 1644.000000,1590.000000 1613.420347,1602.666507 1579.099178,1606.000000 1546.000000,1606.000000 1541.779294,1606.000000 1542.384806,1602.100576 1544.000000,1606.000000 1548.289933,1616.356814 1557.710067,1669.643186 1562.000000,1680.000000 1563.953205,1684.715454 1560.896029,1694.000000 1566.000000,1694.000000 1606.976958,1694.000000 1664.318797,1685.857773 1680.000000,1648.000000 1688.236528,1628.115263 1696.236528,1585.884737 1688.000000,1566.000000 Z M1046.000000,1504.000000 C1041.294118,1504.000000 1024.055521,1533.305614 1026.000000,1538.000000 1029.616670,1546.731413 1050.383330,1585.268587 1054.000000,1594.000000 1062.297155,1614.031104 1054.297155,1663.968896 1046.000000,1684.000000 1044.626124,1687.316829 1038.409890,1694.000000 1042.000000,1694.000000 1063.333333,1694.000000 1084.666667,1694.000000 1106.000000,1694.000000 1111.103971,1694.000000 1108.046795,1684.715454 1110.000000,1680.000000 1119.707757,1656.563402 1140.292243,1535.436598 1150.000000,1512.000000 1151.648104,1508.021124 1154.306704,1504.000000 1150.000000,1504.000000 1115.333333,1504.000000 1080.666667,1504.000000 1046.000000,1504.000000 Z M1850.000000,1394.000000 C1845.457134,1383.032552 1850.542866,1375.032552 1846.000000,1386.000000 1825.974033,1434.346961 1780.025967,1681.653039 1760.000000,1730.000000 1739.216881,1780.174887 1762.504518,1837.498300 1812.000000,1858.000000 1883.169186,1887.479242 1966.076859,1813.783533 1938.000000,1746.000000 1917.508313,1696.528691 1870.491687,1443.471309 1850.000000,1394.000000 Z M1336.000000,1168.000000 C1333.649436,1162.325237 1336.350564,1160.325237 1334.000000,1166.000000 1316.717457,1207.723749 1281.282543,1424.276251 1264.000000,1466.000000 1247.870071,1504.941093 1212.129929,1705.058907 1196.000000,1744.000000 1189.124526,1760.598863 1189.124526,1803.401137 1196.000000,1820.000000 1205.969678,1844.068933 1231.931067,1894.030322 1256.000000,1904.000000 1270.884372,1910.165309 1285.115628,1917.834691 1300.000000,1924.000000 1336.150866,1938.974179 1379.849134,1920.974179 1416.000000,1906.000000 1468.497896,1884.254660 1501.745340,1800.497896 1480.000000,1748.000000 1446.271026,1666.571053 1369.728974,1249.428947 1336.000000,1168.000000 Z M884.000000,1120.000000 C870.747164,1120.000000 902.928359,1133.755976 908.000000,1146.000000 915.084791,1163.104198 954.895802,1162.915209 972.000000,1170.000000 995.940254,1179.916378 1036.083622,1220.059746 1046.000000,1244.000000 1048.695485,1250.507477 1055.304515,1283.492523 1058.000000,1290.000000 1060.442182,1295.895949 1053.618271,1310.000000 1060.000000,1310.000000 1106.000000,1310.000000 1152.000000,1310.000000 1198.000000,1310.000000 1201.143771,1310.000000 1198.796931,1304.904466 1200.000000,1302.000000 1209.878658,1278.150809 1232.121342,1155.849191 1242.000000,1132.000000 1247.015309,1119.891973 1233.105634,1120.000000 1220.000000,1120.000000 1108.000000,1120.000000 996.000000,1120.000000 884.000000,1120.000000 Z M1568.000000,1074.000000 C1564.636557,1065.879929 1569.363443,1067.879929 1566.000000,1076.000000 1547.528533,1120.594065 1500.471467,1345.405935 1482.000000,1390.000000 1455.047122,1455.070004 1527.272277,1533.982673 1590.000000,1508.000000 1673.063542,1473.593954 1664.406046,1399.063542 1630.000000,1316.000000 1615.858878,1281.860311 1582.141122,1108.139689 1568.000000,1074.000000 Z M556.000000,1052.000000 C540.536027,1014.666667 483.463973,1014.666667 468.000000,1052.000000 463.876679,1061.954577 465.915022,1127.278509 458.000000,1124.000000 439.812110,1116.466329 424.187890,1103.533671 406.000000,1096.000000 367.784343,1080.170556 329.533537,1122.246442 346.000000,1162.000000 353.262541,1179.533325 388.466675,1198.737459 406.000000,1206.000000 412.695810,1208.773495 441.304190,1229.226505 448.000000,1232.000000 453.991954,1234.481949 464.000000,1237.514356 464.000000,1244.000000 464.000000,1311.333333 464.000000,1378.666667 464.000000,1446.000000 464.000000,1450.753774 460.391915,1449.819191 456.000000,1448.000000 429.068891,1436.844769 312.931109,1361.155231 286.000000,1350.000000 281.447715,1348.114382 278.000000,1344.666667 278.000000,1342.000000 278.000000,1293.149370 293.132097,1206.694327 248.000000,1188.000000 217.204734,1175.244183 194.755817,1195.204734 182.000000,1226.000000 173.280355,1247.051085 199.051085,1294.719645 178.000000,1286.000000 150.147079,1274.462942 119.852921,1246.462942 92.000000,1258.000000 54.018234,1273.732562 50.104659,1331.131663 86.000000,1346.000000 117.362266,1358.990676 147.362266,1369.009324 116.000000,1382.000000 79.179711,1397.251463 48.748537,1423.179711 64.000000,1460.000000 93.534173,1531.301802 156.698198,1459.534173 228.000000,1430.000000 231.585716,1428.514748 238.414284,1434.514748 242.000000,1436.000000 267.000567,1446.355574 374.999433,1515.644426 400.000000,1526.000000 411.791792,1530.884320 417.791792,1537.115680 406.000000,1542.000000 378.443443,1553.414299 259.556557,1630.585701 232.000000,1642.000000 229.779270,1642.919856 228.220730,1638.919856 226.000000,1638.000000 157.515562,1609.632817 94.367183,1539.515562 66.000000,1608.000000 47.694668,1652.192982 85.807018,1677.694668 130.000000,1696.000000 137.022565,1698.908842 119.022565,1707.091158 112.000000,1710.000000 98.170760,1715.728259 71.728259,1734.170760 66.000000,1748.000000 49.533537,1787.753558 87.784343,1829.829444 126.000000,1814.000000 133.554939,1810.870642 166.445061,1791.129358 174.000000,1788.000000 179.958288,1785.531996 184.000000,1779.550796 184.000000,1786.000000 184.000000,1798.091944 181.372613,1844.828500 186.000000,1856.000000 202.251762,1895.235224 260.044696,1896.519512 276.000000,1858.000000 284.611934,1837.208951 280.000000,1750.504069 280.000000,1728.000000 280.000000,1724.441145 284.712046,1723.361915 288.000000,1722.000000 314.931109,1710.844769 431.068891,1635.155231 458.000000,1624.000000 459.847759,1623.234633 464.000000,1618.666667 464.000000,1624.000000 464.000000,1692.000000 464.000000,1760.000000 464.000000,1828.000000 464.000000,1834.485644 453.991954,1837.518051 448.000000,1840.000000 439.713911,1843.432210 404.286089,1868.567790 396.000000,1872.000000 381.166197,1878.144362 352.144362,1895.166197 346.000000,1910.000000 329.533537,1949.753558 367.784343,1991.829444 406.000000,1976.000000 424.187890,1968.466329 439.812110,1955.533671 458.000000,1948.000000 465.915022,1944.721491 463.876679,2010.045423 468.000000,2020.000000 482.359403,2054.666667 541.640597,2054.666667 556.000000,2020.000000 560.123321,2010.045423 558.084978,1944.721491 566.000000,1948.000000 584.187890,1955.533671 599.812110,1968.466329 618.000000,1976.000000 656.215657,1991.829444 694.466463,1949.753558 678.000000,1910.000000 671.855638,1895.166197 642.833803,1878.144362 628.000000,1872.000000 619.713911,1868.567790 584.286089,1843.432210 576.000000,1840.000000 570.008046,1837.518051 560.000000,1834.485644 560.000000,1828.000000 560.000000,1760.000000 560.000000,1692.000000 560.000000,1624.000000 560.000000,1617.550796 564.041712,1623.531996 570.000000,1626.000000 596.250796,1636.873436 709.749204,1709.126564 736.000000,1720.000000 740.552285,1721.885618 744.000000,1725.333333 744.000000,1728.000000 744.000000,1776.850630 728.867903,1863.305673 774.000000,1882.000000 804.795266,1894.755817 827.244183,1874.795266 840.000000,1844.000000 848.719645,1822.948915 822.948915,1775.280355 844.000000,1784.000000 871.852921,1795.537058 902.147079,1823.537058 930.000000,1812.000000 992.785076,1785.993570 956.785076,1726.006430 894.000000,1700.000000 884.404504,1696.025416 896.404504,1691.974584 906.000000,1688.000000 942.820289,1672.748537 973.251463,1646.820289 958.000000,1610.000000 928.465827,1538.698198 865.301802,1610.465827 794.000000,1640.000000 790.414284,1641.485252 783.585716,1635.485252 780.000000,1634.000000 753.694420,1623.103872 640.305580,1548.896128 614.000000,1538.000000 607.902706,1535.474418 621.902706,1526.525582 628.000000,1524.000000 653.965983,1513.244538 766.034017,1440.755462 792.000000,1430.000000 794.220730,1429.080144 795.779270,1433.080144 798.000000,1434.000000 866.484438,1462.367183 929.632817,1532.484438 958.000000,1464.000000 976.305332,1419.807018 938.192982,1394.305332 894.000000,1376.000000 886.977435,1373.091158 904.977435,1364.908842 912.000000,1362.000000 925.829240,1356.271741 952.271741,1337.829240 958.000000,1324.000000 974.466463,1284.246442 936.215657,1242.170556 898.000000,1258.000000 890.445061,1261.129358 857.554939,1280.870642 850.000000,1284.000000 844.041712,1286.468004 840.000000,1292.449204 840.000000,1286.000000 840.000000,1273.908056 842.627387,1227.171500 838.000000,1216.000000 821.748238,1176.764776 763.955304,1175.480488 748.000000,1214.000000 739.388066,1234.791049 744.000000,1321.495931 744.000000,1344.000000 744.000000,1347.558855 739.287954,1348.638085 736.000000,1350.000000 709.068891,1361.155231 592.931109,1436.844769 566.000000,1448.000000 564.152241,1448.765367 560.000000,1453.333333 560.000000,1448.000000 560.000000,1380.000000 560.000000,1312.000000 560.000000,1244.000000 560.000000,1237.514356 570.008046,1234.481949 576.000000,1232.000000 588.044793,1227.010884 639.955207,1192.989116 652.000000,1188.000000 691.175415,1171.773012 692.460793,1113.930982 654.000000,1098.000000 625.741433,1086.294918 594.258567,1112.294918 566.000000,1124.000000 558.084978,1127.278509 560.123321,1061.954577 556.000000,1052.000000 Z M826.000000,736.000000 C793.826941,736.000000 756.312097,762.275969 744.000000,792.000000 718.005332,854.756680 761.601990,926.000000 826.000000,926.000000 1149.333333,926.000000 1472.666667,926.000000 1796.000000,926.000000 1828.173059,926.000000 1865.687903,899.724031 1878.000000,870.000000 1903.994668,807.243320 1860.398010,736.000000 1796.000000,736.000000 1472.666667,736.000000 1149.333333,736.000000 826.000000,736.000000 Z M250.000000,736.000000 C185.601990,736.000000 142.005332,807.243320 168.000000,870.000000 180.312097,899.724031 217.826941,926.000000 250.000000,926.000000 290.976077,926.000000 448.143041,933.680866 486.000000,918.000000 577.797739,879.976132 550.901099,736.000000 452.000000,736.000000 384.666667,736.000000 317.333333,736.000000 250.000000,736.000000 Z M1796.000000,352.000000 C1755.023923,352.000000 1597.856959,344.319134 1560.000000,360.000000 1485.333333,390.927946 1485.333333,503.072054 1560.000000,534.000000 1597.856959,549.680866 1755.023923,542.000000 1796.000000,542.000000 1860.398010,542.000000 1903.994668,470.756680 1878.000000,408.000000 1865.687903,378.275969 1828.173059,352.000000 1796.000000,352.000000 Z M250.000000,352.000000 C217.826941,352.000000 180.312097,378.275969 168.000000,408.000000 142.005332,470.756680 185.601990,542.000000 250.000000,542.000000 509.333333,542.000000 768.666667,542.000000 1028.000000,542.000000 1092.398010,542.000000 1135.994668,470.756680 1110.000000,408.000000 1097.687903,378.275969 1060.173059,352.000000 1028.000000,352.000000 768.666667,352.000000 509.333333,352.000000 250.000000,352.000000 Z "/></g>
</svg>