<?xml version="1.0" encoding="UTF-8"?>
<!DOCTYPE svg PUBLIC "-//W3C//DTD SVG 1.1 Tiny//EN" "http://www.w3.org/Graphics/SVG/1.1/DTD/svg11-tiny.dtd">
<svg version="1.1" width="2048" height="2048" viewBox="0 0 2048 2048" xmlns="http://www.w3.org/2000/svg">
<g fill="black">
<path d="M456.000000,1882.000000 C437.405866,1874.298058 419.860611,1894.349778 428.000000,1914.000000 435.399112,1931.863037 464.665188,1936.000000 484.000000,1936.000000 511.711154,1936.000000 559.395400,1939.601768 570.000000,1914.000000 579.282060,1891.591124 560.408876,1874.717940 538.000000,1884.000000 512.739783,1894.463125 481.260217,1892.463125 456.000000,1882.000000 Z M430.000000,1778.000000 C408.329941,1769.023968 388.976032,1758.329941 380.000000,1780.000000 370.186471,1803.691956 394.308044,1810.186471 418.000000,1820.000000 460.842726,1837.746038 561.157274,1829.746038 604.000000,1812.000000 628.097089,1802.018659 622.097089,1775.981341 598.000000,1766.000000 591.878350,1763.464329 580.121650,1773.464329 574.000000,1776.000000 542.035628,1789.240076 461.964372,1791.240076 430.000000,1778.000000 Z M370.000000,1670.000000 C335.059741,1655.527271 317.059741,1697.527271 352.000000,1712.000000 373.508416,1720.909077 450.719459,1730.000000 474.000000,1730.000000 492.807746,1730.000000 564.623909,1733.197413 582.000000,1726.000000 589.211629,1723.012846 601.519542,1727.519542 596.000000,1722.000000 587.410725,1713.410725 570.147069,1684.000000 558.000000,1684.000000 523.437991,1684.000000 401.931133,1683.226308 370.000000,1670.000000 Z M298.000000,1560.000000 C280.542098,1552.768700 264.121239,1572.978988 272.000000,1592.000000 280.366032,1612.197387 331.802613,1609.633968 352.000000,1618.000000 382.289898,1630.546487 497.214451,1636.000000 530.000000,1636.000000 532.666667,1636.000000 516.666667,1590.000000 514.000000,1590.000000 473.040467,1590.000000 335.841674,1575.674535 298.000000,1560.000000 Z M272.000000,1442.000000 C265.372583,1426.000000 238.627417,1426.000000 232.000000,1442.000000 221.910073,1466.359240 241.640760,1483.910073 266.000000,1494.000000 284.875679,1501.818562 381.124321,1520.181438 400.000000,1528.000000 410.693770,1532.429504 475.306230,1531.570496 486.000000,1536.000000 492.437903,1538.666667 510.000000,1538.666667 510.000000,1536.000000 510.000000,1528.613247 509.173212,1500.824470 512.000000,1494.000000 513.181468,1491.147684 488.067856,1493.341815 480.000000,1490.000000 465.653896,1484.057649 382.346104,1481.942351 368.000000,1476.000000 344.087417,1466.095084 281.904916,1465.912583 272.000000,1442.000000 Z M1226.000000,1398.000000 C1229.593664,1389.324127 1228.675873,1386.406336 1220.000000,1390.000000 1160.820298,1414.513035 1138.513035,1436.820298 1114.000000,1496.000000 1104.879118,1518.019756 1108.879118,1569.980244 1118.000000,1592.000000 1152.808443,1676.035015 1240.376607,1713.809517 1322.000000,1680.000000 1345.283068,1670.355838 1364.179911,1651.820089 1382.000000,1634.000000 1384.666667,1631.333333 1384.666667,1632.000000 1382.000000,1632.000000 1330.517213,1632.000000 1241.701610,1635.563893 1222.000000,1588.000000 1215.172808,1571.517700 1201.172808,1536.482300 1208.000000,1520.000000 1214.599277,1504.067937 1219.400723,1413.932063 1226.000000,1398.000000 Z M842.000000,1404.000000 C804.631386,1388.521413 759.368614,1370.521413 722.000000,1386.000000 695.643487,1396.917225 640.917225,1427.643487 630.000000,1454.000000 614.521413,1491.368614 596.521413,1536.631386 612.000000,1574.000000 622.917225,1600.356513 653.643487,1655.082775 680.000000,1666.000000 717.368614,1681.478587 762.631386,1699.478587 800.000000,1684.000000 826.356513,1673.082775 881.082775,1642.356513 892.000000,1616.000000 907.478587,1578.631386 925.478587,1533.368614 910.000000,1496.000000 899.082775,1469.643487 868.356513,1414.917225 842.000000,1404.000000 Z M550.000000,1254.000000 C465.050342,1254.000000 376.483251,1259.491173 298.000000,1292.000000 275.898490,1301.154745 259.898490,1328.845255 282.000000,1338.000000 302.444447,1346.468367 341.555553,1326.468367 362.000000,1318.000000 377.222211,1311.694754 460.777789,1304.305246 476.000000,1298.000000 499.343201,1288.330929 640.656799,1311.669071 664.000000,1302.000000 692.099862,1290.360656 759.900138,1274.360656 788.000000,1286.000000 791.992091,1287.653578 795.992091,1285.653578 792.000000,1284.000000 750.074387,1266.633843 595.379956,1254.000000 550.000000,1254.000000 Z M816.000000,1160.000000 C760.519179,1137.019092 546.052008,1136.000000 486.000000,1136.000000 394.258818,1136.000000 298.757800,1142.892170 214.000000,1178.000000 144.084391,1206.959994 115.040006,1260.084391 144.000000,1330.000000 164.561786,1379.640543 282.359457,1395.438214 332.000000,1416.000000 365.807673,1430.003597 487.406839,1444.000000 524.000000,1444.000000 527.942029,1444.000000 551.942029,1398.000000 548.000000,1398.000000 498.161997,1398.000000 334.044311,1377.072178 288.000000,1358.000000 259.135054,1346.043748 193.956252,1332.864946 182.000000,1304.000000 165.314355,1263.717289 191.717289,1236.685645 232.000000,1220.000000 322.153897,1182.657033 424.418126,1180.000000 522.000000,1180.000000 556.579287,1180.000000 686.052905,1176.767080 718.000000,1190.000000 730.270223,1195.082493 797.729777,1200.917507 810.000000,1206.000000 843.610171,1219.921788 876.078212,1243.610171 890.000000,1210.000000 904.497484,1174.999978 851.000022,1174.497484 816.000000,1160.000000 Z M1378.000000,1098.000000 C1372.344525,1098.000000 1376.164257,1108.775022 1374.000000,1114.000000 1361.198076,1144.906578 1346.801924,1315.093422 1334.000000,1346.000000 1324.103986,1369.891091 1315.896014,1504.108909 1306.000000,1528.000000 1302.412140,1536.661861 1304.624469,1536.000000 1314.000000,1536.000000 1388.666667,1536.000000 1463.333333,1536.000000 1538.000000,1536.000000 1544.034767,1536.000000 1542.309405,1542.424602 1540.000000,1548.000000 1530.016363,1572.102631 1519.983637,1705.897369 1510.000000,1730.000000 1497.466852,1760.257696 1486.533148,1929.742304 1474.000000,1960.000000 1472.132411,1964.508758 1470.132411,1970.508758 1472.000000,1966.000000 1505.655850,1884.747591 1728.344150,1533.252409 1762.000000,1452.000000 1763.569409,1448.211111 1768.101064,1446.000000 1764.000000,1446.000000 1686.666667,1446.000000 1609.333333,1446.000000 1532.000000,1446.000000 1523.885943,1446.000000 1532.894885,1439.496411 1536.000000,1432.000000 1557.464231,1380.180763 1698.535769,1155.819237 1720.000000,1104.000000 1721.569409,1100.211111 1726.101064,1098.000000 1722.000000,1098.000000 1607.333333,1098.000000 1492.666667,1098.000000 1378.000000,1098.000000 Z M1558.000000,198.000000 C1516.935901,180.990693 1425.064099,216.990693 1384.000000,234.000000 1334.593032,254.465036 1262.465036,344.593032 1242.000000,394.000000 1177.908037,548.731686 1253.967909,737.026246 1406.000000,800.000000 1455.919901,820.677500 1511.967088,826.000000 1566.000000,826.000000 1676.206000,826.000000 1787.825990,723.817068 1830.000000,622.000000 1831.447085,618.506428 1797.692519,641.985227 1788.000000,646.000000 1723.620972,672.666667 1650.379028,672.666667 1586.000000,646.000000 1535.924868,625.258201 1482.741799,572.075132 1462.000000,522.000000 1435.333333,457.620972 1435.333333,384.379028 1462.000000,320.000000 1477.902419,281.608165 1539.608165,215.902419 1578.000000,200.000000 1586.463176,196.494438 1566.463176,201.505562 1558.000000,198.000000 Z "/></g>
</svg>