<?xml version="1.0" encoding="UTF-8"?>
<!DOCTYPE svg PUBLIC "-//W3C//DTD SVG 1.1 Tiny//EN" "http://www.w3.org/Graphics/SVG/1.1/DTD/svg11-tiny.dtd">
<svg version="1.1" width="2048" height="2048" viewBox="0 0 2048 2048" xmlns="http://www.w3.org/2000/svg">
<g fill="black">
<path d="M448.000000,1916.000000 C445.436053,1909.810084 425.436053,1907.810084 428.000000,1914.000000 431.894273,1923.401606 444.598394,1926.105727 454.000000,1930.000000 467.634670,1935.647665 453.647665,1929.634670 448.000000,1916.000000 Z M764.000000,1860.000000 C760.247051,1850.939580 755.060420,1862.247051 746.000000,1866.000000 728.466675,1873.262541 693.262541,1892.466675 686.000000,1910.000000 669.533537,1949.753558 707.784343,1991.829444 746.000000,1976.000000 764.187890,1968.466329 779.812110,1955.533671 798.000000,1948.000000 805.915022,1944.721491 803.876679,2010.045423 808.000000,2020.000000 822.359403,2054.666667 881.640597,2054.666667 896.000000,2020.000000 897.803987,2015.644790 902.355210,2007.803987 898.000000,2006.000000 836.971092,1980.720999 789.279001,1921.028908 764.000000,1860.000000 Z M1232.000000,1606.000000 C1221.333333,1606.000000 1198.895431,1603.333333 1200.000000,1606.000000 1207.550038,1624.227403 1224.449962,1717.772597 1232.000000,1736.000000 1233.504651,1739.632550 1232.495349,1762.367450 1234.000000,1766.000000 1240.577934,1781.880538 1224.811030,1814.000000 1242.000000,1814.000000 1284.731858,1814.000000 1312.352774,1787.479089 1296.000000,1748.000000 1278.766785,1706.395339 1204.395339,1705.233215 1246.000000,1688.000000 1260.319063,1682.068850 1290.068850,1664.319063 1296.000000,1650.000000 1305.849778,1626.220533 1283.779467,1633.849778 1260.000000,1624.000000 1253.995179,1621.512722 1238.499571,1606.000000 1232.000000,1606.000000 Z M298.000000,1560.000000 C280.542098,1552.768700 264.121239,1572.978988 272.000000,1592.000000 275.712488,1600.962740 306.000000,1615.215686 306.000000,1608.000000 306.000000,1599.854986 312.883038,1575.525012 316.000000,1568.000000 318.512663,1561.933895 304.066105,1562.512663 298.000000,1560.000000 Z M300.000000,1458.000000 C269.497729,1445.365546 244.634454,1411.497729 232.000000,1442.000000 213.430367,1486.831060 273.168940,1491.430367 318.000000,1510.000000 325.183883,1512.975662 307.183883,1460.975662 300.000000,1458.000000 Z M306.000000,1322.000000 C300.142383,1307.858461 312.141539,1286.142383 298.000000,1292.000000 273.205356,1302.270278 261.205356,1329.729722 286.000000,1340.000000 302.982976,1347.034579 313.034579,1338.982976 306.000000,1322.000000 Z M992.000000,1168.000000 C990.527778,1164.445741 993.472222,1160.445741 992.000000,1164.000000 958.415484,1245.080193 885.584516,1662.919807 852.000000,1744.000000 843.841653,1763.695992 847.841653,1812.304008 856.000000,1832.000000 895.535313,1927.446688 976.553312,1945.535313 1072.000000,1906.000000 1124.497896,1884.254660 1157.745340,1800.497896 1136.000000,1748.000000 1102.271026,1666.571053 1025.728974,1249.428947 992.000000,1168.000000 Z M460.000000,1136.000000 C421.644464,1136.000000 291.435895,1147.321972 256.000000,1162.000000 224.735774,1174.950066 156.950066,1200.735774 144.000000,1232.000000 128.000000,1270.627417 128.000000,1291.372583 144.000000,1330.000000 161.349861,1371.886271 258.113729,1390.650139 300.000000,1408.000000 308.848960,1411.665359 324.848960,1367.665359 316.000000,1364.000000 280.429911,1349.266387 196.733613,1339.570089 182.000000,1304.000000 161.473582,1254.444843 204.444843,1230.526418 254.000000,1210.000000 267.830258,1204.271320 342.169742,1195.728680 356.000000,1190.000000 365.355086,1186.124997 406.644914,1163.875003 416.000000,1160.000000 423.156429,1157.035710 443.035710,1163.156429 446.000000,1156.000000 447.546007,1152.267609 462.666667,1136.000000 460.000000,1136.000000 Z M1374.000000,1098.000000 C1368.344525,1098.000000 1372.164257,1108.775022 1370.000000,1114.000000 1350.510248,1161.052424 1329.489752,1420.947576 1310.000000,1468.000000 1306.793293,1475.741676 1305.206707,1520.258324 1302.000000,1528.000000 1298.412140,1536.661861 1300.624469,1536.000000 1310.000000,1536.000000 1384.666667,1536.000000 1459.333333,1536.000000 1534.000000,1536.000000 1540.034767,1536.000000 1538.309405,1542.424602 1536.000000,1548.000000 1528.177013,1566.886362 1521.822987,1673.113638 1514.000000,1692.000000 1500.538847,1724.498098 1485.461153,1903.501902 1472.000000,1936.000000 1470.951326,1938.531724 1466.951326,1968.531724 1468.000000,1966.000000 1501.655850,1884.747591 1724.344150,1533.252409 1758.000000,1452.000000 1759.569409,1448.211111 1764.101064,1446.000000 1760.000000,1446.000000 1682.666667,1446.000000 1605.333333,1446.000000 1528.000000,1446.000000 1519.885943,1446.000000 1528.894885,1439.496411 1532.000000,1432.000000 1553.605624,1379.839409 1696.394376,1154.160591 1718.000000,1102.000000 1719.167815,1099.180646 1721.051646,1098.000000 1718.000000,1098.000000 1603.333333,1098.000000 1488.666667,1098.000000 1374.000000,1098.000000 Z M1224.000000,1074.000000 C1220.636557,1065.879929 1225.363443,1067.879929 1222.000000,1076.000000 1203.528533,1120.594065 1156.471467,1345.405935 1138.000000,1390.000000 1116.485567,1441.940436 1146.059564,1484.485567 1198.000000,1506.000000 1210.567803,1511.205754 1202.794246,1494.567803 1208.000000,1482.000000 1222.120380,1447.910387 1237.879620,1260.089613 1252.000000,1226.000000 1259.270583,1208.447261 1251.270583,1169.552739 1244.000000,1152.000000 1239.441537,1140.994897 1228.558463,1085.005103 1224.000000,1074.000000 Z M896.000000,1052.000000 C880.536027,1014.666667 823.463973,1014.666667 808.000000,1052.000000 803.876679,1061.954577 805.915022,1127.278509 798.000000,1124.000000 779.812110,1116.466329 764.187890,1103.533671 746.000000,1096.000000 707.784343,1080.170556 669.533537,1122.246442 686.000000,1162.000000 693.262541,1179.533325 728.466675,1198.737459 746.000000,1206.000000 752.695810,1208.773495 781.304190,1229.226505 788.000000,1232.000000 793.991954,1234.481949 804.000000,1237.514356 804.000000,1244.000000 804.000000,1311.333333 804.000000,1378.666667 804.000000,1446.000000 804.000000,1459.041110 790.048414,1440.990617 778.000000,1436.000000 753.965175,1426.044450 650.034825,1359.955550 626.000000,1350.000000 621.447715,1348.114382 618.000000,1344.666667 618.000000,1342.000000 618.000000,1293.149370 633.132097,1206.694327 588.000000,1188.000000 557.204734,1175.244183 534.755817,1195.204734 522.000000,1226.000000 513.280355,1247.051085 539.051085,1294.719645 518.000000,1286.000000 490.147079,1274.462942 459.852921,1246.462942 432.000000,1258.000000 394.018234,1273.732562 390.104659,1331.131663 426.000000,1346.000000 457.362266,1358.990676 487.362266,1369.009324 456.000000,1382.000000 419.179711,1397.251463 388.748537,1423.179711 404.000000,1460.000000 432.061275,1527.745910 492.254090,1464.061275 560.000000,1436.000000 564.131715,1434.288588 567.868285,1428.288588 572.000000,1430.000000 599.270302,1441.295729 716.729698,1518.704271 744.000000,1530.000000 751.243444,1533.000333 757.243444,1534.999667 750.000000,1538.000000 721.765204,1549.695235 600.234796,1630.304765 572.000000,1642.000000 569.779270,1642.919856 568.220730,1638.919856 566.000000,1638.000000 497.515562,1609.632817 434.367183,1539.515562 406.000000,1608.000000 387.694668,1652.192982 425.807018,1677.694668 470.000000,1696.000000 477.022565,1698.908842 459.022565,1707.091158 452.000000,1710.000000 438.170760,1715.728259 411.728259,1734.170760 406.000000,1748.000000 389.533537,1787.753558 427.784343,1829.829444 466.000000,1814.000000 473.554939,1810.870642 506.445061,1791.129358 514.000000,1788.000000 519.958288,1785.531996 524.000000,1779.550796 524.000000,1786.000000 524.000000,1798.091944 521.372613,1844.828500 526.000000,1856.000000 542.251762,1895.235224 600.044696,1896.519512 616.000000,1858.000000 624.611934,1837.208951 620.000000,1750.504069 620.000000,1728.000000 620.000000,1724.441145 624.712046,1723.361915 628.000000,1722.000000 650.499165,1712.680541 747.500835,1649.319459 770.000000,1640.000000 781.895385,1635.072770 779.072770,1615.895385 784.000000,1604.000000 810.965818,1538.898755 869.034182,1203.101245 896.000000,1138.000000 903.700792,1119.408642 903.700792,1070.591358 896.000000,1052.000000 Z M1382.000000,648.000000 C1304.516387,460.938009 1089.610325,372.289259 902.000000,450.000000 815.766844,485.718943 739.718943,561.766844 704.000000,648.000000 699.574419,658.684297 686.425581,711.315703 682.000000,722.000000 675.621578,737.398872 687.398872,758.378422 672.000000,752.000000 659.616694,746.870667 606.383306,711.129333 594.000000,706.000000 518.766980,674.837463 425.233020,662.837463 350.000000,694.000000 325.735578,704.050653 302.264422,715.949347 278.000000,726.000000 238.377639,742.412119 168.412119,812.377639 152.000000,852.000000 141.949347,876.264422 130.050653,899.735578 120.000000,924.000000 102.047339,967.341557 98.047339,1072.658443 116.000000,1116.000000 117.869728,1120.513923 135.529365,1104.337079 146.000000,1100.000000 250.010218,1056.917557 365.420152,1038.000000 478.000000,1038.000000 496.576799,1038.000000 607.423201,1038.000000 626.000000,1038.000000 632.129387,1038.000000 646.337185,1020.345615 652.000000,1018.000000 668.584145,1011.130622 685.415855,1004.869378 702.000000,998.000000 708.349730,995.369856 725.369856,1000.349730 728.000000,994.000000 736.496518,973.487592 777.487592,944.496518 798.000000,936.000000 832.497001,921.710874 875.502999,923.710874 910.000000,938.000000 928.920612,945.837174 966.162826,975.079388 974.000000,994.000000 975.191677,996.876963 1004.701001,998.633510 1008.000000,1000.000000 1047.351436,1016.299899 1089.700101,1042.648564 1106.000000,1082.000000 1119.087328,1113.595604 1118.912672,1061.595604 1132.000000,1030.000000 1148.088894,991.157973 1205.157973,955.911106 1244.000000,972.000000 1260.934328,979.014428 1296.985572,997.065672 1304.000000,1014.000000 1309.426287,1027.100215 1314.899785,1015.426287 1328.000000,1010.000000 1390.995624,983.906358 1655.814028,1000.000000 1724.000000,1000.000000 1763.700577,1000.000000 1798.807247,1039.321449 1814.000000,1076.000000 1821.502117,1094.111713 1807.502117,1133.888287 1800.000000,1152.000000 1787.949783,1181.091796 1708.050217,1306.908204 1696.000000,1336.000000 1694.288588,1340.131715 1685.527864,1348.000000 1690.000000,1348.000000 1702.758196,1348.000000 1754.212964,1352.882350 1766.000000,1348.000000 1794.896620,1336.030628 1838.030628,1278.896620 1850.000000,1250.000000 1897.377393,1135.620854 1846.300292,1005.687877 1736.000000,960.000000 1704.260900,946.853234 1629.739100,934.853234 1598.000000,948.000000 1590.247365,951.211247 1585.211247,953.752635 1582.000000,946.000000 1564.221935,903.079954 1478.920046,851.778065 1436.000000,834.000000 1426.894413,830.228342 1408.000000,833.855817 1408.000000,824.000000 1408.000000,764.696637 1404.694415,702.789163 1382.000000,648.000000 Z M1640.000000,264.000000 C1572.853454,236.186990 1489.146546,240.186990 1422.000000,268.000000 1384.154619,283.676070 1317.676070,344.154619 1302.000000,382.000000 1298.247051,391.060420 1286.939580,396.247051 1296.000000,400.000000 1347.857672,421.480151 1432.519849,522.142328 1454.000000,574.000000 1466.602111,604.424188 1477.397889,635.575812 1490.000000,666.000000 1494.135317,675.983539 1499.864683,730.016461 1504.000000,740.000000 1506.056862,744.965703 1501.034297,753.943138 1506.000000,756.000000 1514.789990,759.640933 1538.485783,778.000000 1548.000000,778.000000 1646.200000,778.000000 1743.197846,711.676687 1782.000000,618.000000 1839.870656,478.287878 1776.611913,320.586507 1640.000000,264.000000 Z M1428.000000,96.000000 C1424.221919,94.435068 1423.564932,90.221919 1422.000000,94.000000 1416.058328,108.344465 1381.941672,171.655535 1376.000000,186.000000 1369.820506,200.918619 1366.918619,220.179494 1352.000000,214.000000 1338.576232,208.439693 1257.423768,209.560307 1244.000000,204.000000 1239.054526,201.951518 1228.000000,203.333333 1228.000000,206.000000 1228.000000,228.117906 1229.535844,307.565720 1238.000000,328.000000 1244.292083,343.190433 1196.809567,349.707917 1212.000000,356.000000 1224.697510,361.259481 1249.059465,374.270652 1250.000000,372.000000 1268.224424,328.002348 1340.002348,250.224424 1384.000000,232.000000 1432.019709,212.109585 1541.980291,178.109585 1590.000000,198.000000 1599.801437,202.059888 1648.198563,213.940112 1658.000000,218.000000 1820.431862,285.281480 1896.152529,471.465239 1828.000000,636.000000 1809.131233,681.553234 1741.553234,767.131233 1696.000000,786.000000 1684.423527,790.795132 1631.576473,813.204868 1620.000000,818.000000 1615.358976,819.922375 1604.000000,816.976591 1604.000000,822.000000 1604.000000,827.111111 1624.159601,845.590745 1628.000000,844.000000 1635.265100,840.990697 1680.734900,851.009303 1688.000000,848.000000 1701.005351,842.613007 1702.994649,802.613007 1716.000000,808.000000 1736.745999,816.593274 1817.544692,818.000000 1840.000000,818.000000 1842.666667,818.000000 1842.000000,818.666667 1842.000000,816.000000 1842.000000,793.544692 1840.593274,712.745999 1832.000000,692.000000 1828.104861,682.596304 1838.596304,679.895139 1848.000000,676.000000 1863.864011,669.428911 1934.135989,632.571089 1950.000000,626.000000 1952.350924,625.026215 1954.973785,624.350924 1954.000000,622.000000 1946.684996,604.340019 1885.315004,529.659981 1878.000000,512.000000 1876.409458,508.160091 1886.409458,501.839909 1888.000000,498.000000 1893.040513,485.831125 1932.959487,434.168875 1938.000000,422.000000 1942.567739,410.972502 1963.027498,400.567739 1952.000000,396.000000 1934.348393,388.688465 1855.651607,349.311535 1838.000000,342.000000 1825.022564,336.624570 1836.000000,314.046675 1836.000000,300.000000 1836.000000,287.716902 1842.000000,218.283098 1842.000000,206.000000 1842.000000,203.333333 1830.945474,201.951518 1826.000000,204.000000 1812.576232,209.560307 1731.423768,208.439693 1718.000000,214.000000 1703.081381,220.179494 1700.179494,200.918619 1694.000000,186.000000 1688.574995,172.902880 1657.425005,115.097120 1652.000000,102.000000 1650.091458,97.392373 1650.607627,90.091458 1646.000000,92.000000 1628.340019,99.315004 1553.659981,160.684996 1536.000000,168.000000 1532.734694,169.352534 1527.265306,161.352534 1524.000000,160.000000 1508.616511,153.627950 1443.383489,102.372050 1428.000000,96.000000 Z "/></g>
</svg>