<?xml version="1.0" encoding="UTF-8"?>
<!DOCTYPE svg PUBLIC "-//W3C//DTD SVG 1.1 Tiny//EN" "http://www.w3.org/Graphics/SVG/1.1/DTD/svg11-tiny.dtd">
<svg version="1.1" width="2048" height="2048" viewBox="0 0 2048 2048" xmlns="http://www.w3.org/2000/svg">
<g fill="black">
<path d="M456.000000,1882.000000 C437.405866,1874.298058 419.860611,1894.349778 428.000000,1914.000000 435.399112,1931.863037 464.665188,1936.000000 484.000000,1936.000000 511.711154,1936.000000 559.395400,1939.601768 570.000000,1914.000000 579.282060,1891.591124 560.408876,1874.717940 538.000000,1884.000000 512.739783,1894.463125 481.260217,1892.463125 456.000000,1882.000000 Z M430.000000,1778.000000 C408.329941,1769.023968 388.976032,1758.329941 380.000000,1780.000000 370.186471,1803.691956 394.308044,1810.186471 418.000000,1820.000000 460.842726,1837.746038 561.157274,1829.746038 604.000000,1812.000000 628.097089,1802.018659 622.097089,1775.981341 598.000000,1766.000000 591.878350,1763.464329 580.121650,1773.464329 574.000000,1776.000000 542.035628,1789.240076 461.964372,1791.240076 430.000000,1778.000000 Z M370.000000,1670.000000 C335.059741,1655.527271 317.059741,1697.527271 352.000000,1712.000000 410.842371,1736.373308 561.157629,1742.373308 620.000000,1718.000000 631.306782,1713.316577 647.316577,1711.306782 652.000000,1700.000000 661.372583,1677.372583 642.627417,1658.627417 620.000000,1668.000000 564.001963,1691.195146 425.998037,1693.195146 370.000000,1670.000000 Z M304.000000,1562.000000 C289.016168,1555.793494 278.206506,1559.016168 272.000000,1574.000000 262.884626,1596.006458 283.993542,1600.884626 306.000000,1610.000000 338.607329,1623.506398 456.706082,1636.000000 492.000000,1636.000000 521.509279,1636.000000 628.736981,1635.292712 656.000000,1624.000000 671.906940,1617.411130 709.411130,1613.906940 716.000000,1598.000000 732.888745,1557.226963 684.773037,1563.111255 644.000000,1580.000000 617.338509,1591.043551 510.858190,1590.000000 482.000000,1590.000000 447.796882,1590.000000 335.599561,1575.088967 304.000000,1562.000000 Z M272.000000,1442.000000 C261.145453,1415.794806 219.145453,1433.794806 230.000000,1460.000000 243.258998,1492.010052 287.989948,1498.741002 320.000000,1512.000000 336.582541,1518.868713 427.417459,1527.131287 444.000000,1534.000000 448.982420,1536.063786 481.017580,1533.936214 486.000000,1536.000000 507.809255,1545.033689 568.190745,1543.033689 590.000000,1534.000000 635.682810,1515.077560 753.077560,1521.682810 772.000000,1476.000000 779.810486,1457.143819 760.856181,1438.189514 742.000000,1446.000000 739.424538,1447.066791 728.575462,1456.933209 726.000000,1458.000000 627.186184,1498.930023 392.813816,1496.930023 294.000000,1456.000000 288.047556,1453.534417 274.465583,1447.952444 272.000000,1442.000000 Z M1850.000000,1394.000000 C1845.457134,1383.032552 1850.542866,1375.032552 1846.000000,1386.000000 1825.974033,1434.346961 1780.025967,1681.653039 1760.000000,1730.000000 1739.216881,1780.174887 1762.504518,1837.498300 1812.000000,1858.000000 1883.169186,1887.479242 1966.076859,1813.783533 1938.000000,1746.000000 1917.508313,1696.528691 1870.491687,1443.471309 1850.000000,1394.000000 Z M1336.000000,1168.000000 C1333.649436,1162.325237 1336.350564,1160.325237 1334.000000,1166.000000 1316.717457,1207.723749 1281.282543,1424.276251 1264.000000,1466.000000 1247.870071,1504.941093 1212.129929,1705.058907 1196.000000,1744.000000 1189.124526,1760.598863 1189.124526,1803.401137 1196.000000,1820.000000 1205.969678,1844.068933 1231.931067,1894.030322 1256.000000,1904.000000 1270.884372,1910.165309 1285.115628,1917.834691 1300.000000,1924.000000 1336.150866,1938.974179 1379.849134,1920.974179 1416.000000,1906.000000 1468.497896,1884.254660 1501.745340,1800.497896 1480.000000,1748.000000 1446.271026,1666.571053 1369.728974,1249.428947 1336.000000,1168.000000 Z M816.000000,1160.000000 C760.519179,1137.019092 546.052008,1136.000000 486.000000,1136.000000 394.258818,1136.000000 298.757800,1142.892170 214.000000,1178.000000 144.084391,1206.959994 115.040006,1260.084391 144.000000,1330.000000 164.561786,1379.640543 282.359457,1395.438214 332.000000,1416.000000 347.655230,1422.484609 432.344770,1431.515391 448.000000,1438.000000 472.869181,1448.301152 571.081792,1440.000000 598.000000,1440.000000 630.447217,1440.000000 744.022681,1434.417012 774.000000,1422.000000 790.695376,1415.084549 829.084549,1400.695376 836.000000,1384.000000 854.921975,1338.318310 837.681690,1302.921975 792.000000,1284.000000 750.074387,1266.633843 595.379956,1254.000000 550.000000,1254.000000 469.861231,1254.000000 386.038568,1257.332221 312.000000,1288.000000 280.527279,1301.036428 254.527279,1326.963572 286.000000,1340.000000 305.125470,1347.922029 342.874530,1325.922029 362.000000,1318.000000 429.977558,1289.842774 508.421622,1300.000000 582.000000,1300.000000 617.012984,1300.000000 735.652221,1310.601111 768.000000,1324.000000 866.335573,1364.731928 714.437657,1394.000000 608.000000,1394.000000 582.098095,1394.000000 485.930240,1403.912230 462.000000,1394.000000 442.497954,1385.921988 337.502046,1374.078012 318.000000,1366.000000 281.822569,1351.014818 196.985182,1340.177431 182.000000,1304.000000 165.314355,1263.717289 191.717289,1236.685645 232.000000,1220.000000 322.153897,1182.657033 424.418126,1180.000000 522.000000,1180.000000 556.579287,1180.000000 686.052905,1176.767080 718.000000,1190.000000 730.270223,1195.082493 797.729777,1200.917507 810.000000,1206.000000 843.610171,1219.921788 876.078212,1243.610171 890.000000,1210.000000 904.497484,1174.999978 851.000022,1174.497484 816.000000,1160.000000 Z M1568.000000,1074.000000 C1564.636557,1065.879929 1569.363443,1067.879929 1566.000000,1076.000000 1547.528533,1120.594065 1500.471467,1345.405935 1482.000000,1390.000000 1455.047122,1455.070004 1527.272277,1533.982673 1590.000000,1508.000000 1673.063542,1473.593954 1664.406046,1399.063542 1630.000000,1316.000000 1615.858878,1281.860311 1582.141122,1108.139689 1568.000000,1074.000000 Z M1636.000000,944.000000 C1600.710166,858.802803 1500.385482,819.389535 1412.000000,856.000000 1367.037863,874.623927 1334.623927,921.037863 1316.000000,966.000000 1310.460046,979.374633 1319.374633,1007.539954 1306.000000,1002.000000 1291.183767,995.862915 1256.816233,1003.862915 1242.000000,1010.000000 1185.255108,1033.504504 1134.495496,1117.255108 1158.000000,1174.000000 1166.046129,1193.425074 1182.574926,1235.953871 1202.000000,1244.000000 1207.545634,1246.297077 1211.702923,1255.545634 1214.000000,1250.000000 1221.182648,1232.659555 1236.817352,1143.340445 1244.000000,1126.000000 1269.949489,1063.352393 1325.352393,1054.050511 1388.000000,1080.000000 1417.794220,1092.341170 1423.658830,1134.205780 1436.000000,1164.000000 1437.300874,1167.140587 1438.000000,1177.399346 1438.000000,1174.000000 1438.000000,1144.455400 1464.693771,1057.295652 1476.000000,1030.000000 1508.772450,950.880306 1623.527830,949.605246 1656.000000,1028.000000 1669.378292,1060.298053 1702.621708,1223.701947 1716.000000,1256.000000 1721.131482,1268.388493 1719.611507,1273.131482 1732.000000,1268.000000 1814.878947,1233.670416 1854.278021,1138.754464 1820.000000,1056.000000 1803.399398,1015.922602 1766.077398,982.600602 1726.000000,966.000000 1700.627398,955.490324 1671.463107,958.000000 1644.000000,958.000000 1638.429212,958.000000 1638.131848,949.146737 1636.000000,944.000000 Z M644.000000,854.000000 C557.156367,818.028189 489.971811,849.156367 454.000000,936.000000 452.327763,940.037138 450.266667,976.000000 448.000000,976.000000 444.398041,976.000000 435.327776,969.378410 432.000000,968.000000 370.220461,942.410077 269.589923,976.220461 244.000000,1038.000000 240.207335,1047.156304 224.843696,1069.792665 234.000000,1066.000000 277.180078,1048.114226 437.262221,1036.000000 484.000000,1036.000000 627.136299,1036.000000 777.759303,1035.224110 910.000000,1090.000000 919.134277,1093.783541 921.783541,1099.134277 918.000000,1090.000000 882.420820,1004.104262 811.895738,962.420820 726.000000,998.000000 715.672469,1002.277803 703.722197,1012.327531 708.000000,1002.000000 728.568616,952.342967 693.657033,874.568616 644.000000,854.000000 Z M570.000000,404.000000 C518.050820,382.481945 397.949180,418.481945 346.000000,440.000000 239.709816,484.026836 162.000000,630.952334 162.000000,746.000000 162.000000,748.666667 161.333333,748.000000 164.000000,748.000000 186.666667,748.000000 209.333333,748.000000 232.000000,748.000000 243.595545,748.000000 231.562577,720.712886 236.000000,710.000000 239.894203,700.598562 250.105797,653.401438 254.000000,644.000000 270.782920,603.482447 329.482447,526.782920 370.000000,510.000000 408.609072,494.007599 493.390928,458.007599 532.000000,474.000000 540.187722,477.391466 585.812278,480.608534 594.000000,484.000000 640.346286,503.197260 730.802740,561.653714 750.000000,608.000000 758.107913,627.574234 767.892087,646.425766 776.000000,666.000000 779.572041,674.623670 784.427959,721.376330 788.000000,730.000000 790.237062,735.400746 784.154275,748.000000 790.000000,748.000000 818.086982,748.000000 870.748423,763.948988 860.000000,738.000000 856.604371,729.802226 855.395629,682.197774 852.000000,674.000000 848.507801,665.569085 837.492199,624.430915 834.000000,616.000000 800.443902,534.988413 731.011587,461.556098 650.000000,428.000000 638.432972,423.208780 581.567028,408.791220 570.000000,404.000000 Z M690.000000,310.000000 C582.822895,265.605790 449.177105,261.605790 342.000000,306.000000 225.708556,354.169493 120.169493,453.708556 72.000000,570.000000 49.341632,624.702139 38.000000,683.411765 38.000000,746.000000 38.000000,748.666667 37.333333,748.000000 40.000000,748.000000 63.333333,748.000000 86.666667,748.000000 110.000000,748.000000 112.666667,748.000000 112.000000,748.666667 112.000000,746.000000 112.000000,584.365591 208.891423,440.591222 360.000000,378.000000 417.925929,354.006295 483.301427,350.000000 546.000000,350.000000 682.710427,350.000000 829.683185,473.696035 882.000000,600.000000 886.526204,610.927224 899.473796,665.072776 904.000000,676.000000 906.546722,682.148330 907.453278,717.851670 910.000000,724.000000 912.851849,730.884974 904.547758,748.000000 912.000000,748.000000 935.333333,748.000000 958.666667,748.000000 982.000000,748.000000 984.666667,748.000000 984.000000,748.666667 984.000000,746.000000 984.000000,554.761905 868.931268,384.115758 690.000000,310.000000 Z M1558.000000,198.000000 C1526.078643,184.777741 1449.921357,204.777741 1418.000000,218.000000 1368.593032,238.465036 1278.465036,310.593032 1258.000000,360.000000 1238.109585,408.019709 1204.109585,517.980291 1224.000000,566.000000 1227.062007,573.392338 1234.937993,610.607662 1238.000000,618.000000 1256.507683,662.681499 1313.318501,753.492317 1358.000000,772.000000 1361.585716,773.485252 1368.414284,767.485252 1372.000000,766.000000 1434.835884,739.972525 1513.164116,735.972525 1576.000000,762.000000 1583.833086,765.244571 1618.166914,784.755429 1626.000000,788.000000 1632.617120,790.740901 1643.382880,808.740901 1650.000000,806.000000 1729.269606,773.165454 1797.165454,701.269606 1830.000000,622.000000 1831.447085,618.506428 1797.692519,641.985227 1788.000000,646.000000 1723.620972,672.666667 1650.379028,672.666667 1586.000000,646.000000 1535.924868,625.258201 1482.741799,572.075132 1462.000000,522.000000 1435.333333,457.620972 1435.333333,384.379028 1462.000000,320.000000 1477.902419,281.608165 1539.608165,215.902419 1578.000000,200.000000 1586.463176,196.494438 1566.463176,201.505562 1558.000000,198.000000 Z "/></g>
</svg>